<?xml version="1.0" encoding="UTF-8"?>
<svg width="36px" height="36px" viewBox="0 0 38 31" version="1.1" xmlns="http://www.w3.org/2000/svg" xmlns:xlink="http://www.w3.org/1999/xlink">
    <title>B460CEE1-1303-45A8-9642-C27EBAD044D3</title>
    <g id="[CXC-445]---7.8-View-the-list-of-bank" stroke="none" stroke-width="1" fill="none" fill-rule="evenodd">
        <g id="[CXC-445]---7.8.4.-View-the-list-of-bank" transform="translate(-39.000000, -332.000000)">
            <g id="Title" transform="translate(24.000000, 190.000000)">
                <g id="List-of-Account" transform="translate(0.000000, 122.000000)">
                    <g id="Illustration-/-Bank-Info" transform="translate(15.000000, 16.000000)">
                        <g id="atom/illustration/unity/no-ch-found-1" transform="translate(0.850000, 4.350000)">
                            <g id="Line" transform="translate(0.000000, 15.199412)" fill="#505A78">
                                <path d="M29.9048815,0.471723353 C30.4259007,0.389961 30.94692,0.351525706 31.4679392,0.320078647 C31.9886292,0.283739824 32.5096484,0.279546882 33.0306677,0.273956294 C33.5516869,0.278848059 34.0727062,0.283041 34.5933961,0.319379824 L35.3749249,0.374586882 C35.6354346,0.407431588 35.8959442,0.426998647 36.1564538,0.471723353 C35.8959442,0.515749235 35.6354346,0.535316294 35.3749249,0.568859824 L34.5933961,0.623368059 C34.0727062,0.659706882 33.5516869,0.663899824 33.0306677,0.668791588 C32.5096484,0.663899824 31.9886292,0.659008059 31.4679392,0.622669235 C30.94692,0.591222176 30.4259007,0.552786882 29.9048815,0.471723353" id="Fill-1"></path>
                                <path d="M3.31352201,0.305429559 C4.34371533,0.242448088 5.37390864,0.213708971 6.40410195,0.189250147 L9.49402383,0.153784853 L12.5842747,0.188638676 L14.1290712,0.230830147 L15.6741966,0.305429559 L14.1290712,0.380028971 L12.5842747,0.422831912 L9.49402383,0.457685735 L6.40410195,0.422220441 C5.37390864,0.397761618 4.34371533,0.368411029 3.31352201,0.305429559" id="Fill-5"></path>
                                <path d="M0.0606746111,0.305429559 C0.848279424,0.242448088 1.63588424,0.213708971 2.42348905,0.189250147 L4.78580039,0.153784853 L7.14836327,0.188638676 L8.32939317,0.230830147 L9.51067461,0.305429559 L8.32939317,0.380028971 L7.14836327,0.422831912 L4.78580039,0.457685735 L2.42348905,0.422220441 C1.63588424,0.397761618 0.848279424,0.368411029 0.0606746111,0.305429559" id="Fill-5"></path>
                            </g>
                            <g id="Group" transform="translate(3.275000, 0.000000)">
                                <g id="Shadow" transform="translate(0.735000, 22.012940)" fill="#EEEFF1">
                                    <path d="M31.5966643,1.17927068 C31.5966643,1.83073343 24.5847078,2.35854137 15.9347387,2.35854137 C7.2850396,2.35854137 0.272813152,1.83073343 0.272813152,1.17927068 C0.272813152,0.527807941 7.2850396,1.67001699e-13 15.9347387,1.67001699e-13 C24.5847078,1.67001699e-13 31.5966643,0.527807941 31.5966643,1.17927068" id="Fill-8"></path>
                                    <path d="M11.6668917,4.37861446 C11.6668917,4.96530564 9.05508631,5.44145692 5.83358079,5.44145692 C2.61180537,5.44145692 0,4.96530564 0,4.37861446 C0,3.79165563 2.61180537,3.315772 5.83358079,3.315772 C9.05508631,3.315772 11.6668917,3.79165563 11.6668917,4.37861446" id="Fill-10"></path>
                                    <path d="M21.6035736,6.85122058 C21.6035736,7.29177426 19.642223,7.64908846 17.223125,7.64908846 C14.8034872,7.64908846 12.8421366,7.29177426 12.8421366,6.85122058 C12.8421366,6.41039924 14.8034872,6.05308504 17.223125,6.05308504 C19.642223,6.05308504 21.6035736,6.41039924 21.6035736,6.85122058" id="Fill-12"></path>
                                </g>
                                <g id="Back-Card">
                                    <path d="M17.0771024,19.8144729 L4.27947627,21.708765 C3.34121888,21.847537 2.46894112,21.1948749 2.33078784,20.2503037 L0.165847775,5.43341063 C0.0276944902,4.48938154 0.676718692,3.61121494 1.61470678,3.47244293 L23.7205788,0.200730271 C24.6585669,0.0616872259 25.531114,0.714620355 25.6689979,1.65892049 L26.5011493,7.35372247 L28.0566529,17.9968848 L17.0771024,19.8144729 Z" id="Fill-1" fill="#E1EFFE"></path>
                                    <path d="M4.74009494,3.72602709 C4.74009494,3.72602709 22.5828744,4.09735062 24.8905459,2.83972932 C24.8905459,2.83972932 25.6235932,2.41121654 25.5425325,1.35389312 L25.7946016,3.96860706 L4.74009494,3.72602709 Z" id="Fill-3" fill="#BBD9FC"></path>
                                    <path d="M26.478043,7.35727309 C26.2410549,6.03677072 26.014031,4.71464211 25.7972408,3.39088728 L25.6359273,2.39807115 L25.5554052,1.9017986 C25.5265896,1.73158606 25.5077383,1.5757386 25.4565704,1.43452724 C25.2688651,0.850980113 24.7162519,0.423009416 24.1216273,0.373138226 C23.9697395,0.35741796 23.8318555,0.36907264 23.6681183,0.39536343 L23.1742135,0.472067488 L22.1861348,0.624662487 L20.2107852,0.930394562 C18.8936162,1.13584218 17.5740234,1.32313018 16.2533534,1.50526844 L12.2886504,2.0259345 C10.9663645,2.19533392 9.64488663,2.37123828 8.32610177,2.56204979 C7.00516247,2.74201973 5.68799344,2.94584112 4.3705551,3.14884938 C3.71183593,3.24804968 3.05338607,3.35131557 2.39547482,3.46000224 L1.9021087,3.53995877 C1.73594773,3.56733371 1.5719412,3.58901684 1.426786,3.63319621 C1.12839645,3.72182599 0.860169018,3.90125385 0.663038016,4.1394972 C0.465368404,4.37774054 0.339603133,4.67371521 0.306747966,4.97863417 C0.284664985,5.13177125 0.300284655,5.28274001 0.321021113,5.43858748 L0.401543202,5.93486002 L0.718245468,7.92157644 L1.3344145,11.8974486 C1.73837147,14.5490239 2.1455601,17.2000571 2.52689548,19.8548848 C2.55140221,20.0145268 2.57160006,20.20317 2.60068496,20.3319136 C2.63488665,20.4706856 2.67959122,20.6086445 2.75311139,20.7319672 C2.89207259,20.9821363 3.1075163,21.1897522 3.3620092,21.3217483 C3.61623278,21.4542864 3.90869763,21.5103915 4.19496847,21.4778668 L5.17766113,21.3447866 L9.13940181,20.8018953 C11.781819,20.4490024 14.4253134,20.1039697 17.0736553,19.7911906 L17.080388,19.8380804 C14.4546676,20.3056228 11.8246385,20.7414536 9.19272413,21.1688822 L5.24364077,21.7968798 C4.91078023,21.8481061 4.59380866,21.9047533 4.24802149,21.951101 C3.8723415,21.9977197 3.48158046,21.9275206 3.14279521,21.7551397 C2.80374066,21.583301 2.51477677,21.3106357 2.3251863,20.9777997 C2.22608219,20.813279 2.16225699,20.6297855 2.11539798,20.4443948 C2.07150132,20.2459942 2.05803609,20.1001752 2.0297591,19.9286074 C1.6357664,17.275677 1.26735765,14.6186809 0.895717231,11.962227 L0.348490187,7.97632633 L0.0832251086,5.98202082 L0.0185919931,5.48330893 C-7.83373331e-15,5.30740457 -0.0118394321,5.12011657 0.019399907,4.94095974 C0.0697598762,4.58074881 0.229457532,4.23923958 0.467253537,3.97009778 C0.703972322,3.69987182 1.02013598,3.50174226 1.36376871,3.41013105 C1.53935534,3.36297025 1.70767074,3.34670791 1.87060006,3.32421166 L2.36612061,3.25807813 C3.02699422,3.1718877 3.68705991,3.07973442 4.34658699,2.98378659 C5.66617976,2.79649859 6.98604184,2.6100237 8.30240296,2.39969738 C9.62011061,2.20048366 10.9356638,1.98609176 12.2504091,1.76465283 L16.1962608,1.11470113 C17.5131605,0.906272085 18.8305989,0.703534857 20.1504609,0.518686209 L22.1298501,0.238702845 L23.119814,0.098846683 L23.6145266,0.0289186019 C23.7798797,0.00344092891 23.97728,-0.0114662202 24.1569062,0.011030023 C24.8969554,0.0777056352 25.5519043,0.633335737 25.7533441,1.34020564 C25.8098981,1.5174652 25.8249792,1.69824826 25.8473315,1.85843235 L25.9119646,2.35741529 L26.0417694,3.35483908 C26.2127779,4.68536989 26.3735528,6.0172559 26.5246327,7.35049711 L26.478043,7.35727309 Z" id="Fill-5" fill="#505A78"></path>
                                </g>
                                <g id="Front-Card" transform="translate(2.906250, 3.485382)">
                                    <path d="M11.3146993,18.7764874 L24.2558939,18.7764874 C25.2048215,18.7764874 25.9737707,18.0051222 25.9737707,17.0532133 L25.9737707,2.11916175 C25.9737707,1.16752307 25.2048215,0.395887615 24.2558939,0.395887615 L1.90194159,0.395887615 C0.953552906,0.395887615 0.184064816,1.16752307 0.184064816,2.11916175 L0.184064816,7.85899439 L0.184064816,17.250465 L0.894981468,18.4797905 L2.01334034,18.6174845 L11.3146993,18.7764874 Z" id="Fill-14" fill="#FFFFFF"></path>
                                    <polygon id="Fill-16" fill="#E1EFFE" points="0.184091759 7.74455991 26.0613619 7.74455991 26.0613619 4.2223346 0.184091759 4.2223346"></polygon>
                                    <path d="M25.9738246,11.5421415 C25.9738246,11.5421415 25.2571445,16.7330454 24.1985595,17.323056 C24.1985595,17.323056 23.2814245,18.1446923 17.6363565,18.7482166 L24.2559478,18.7765955 L25.6451217,18.0652314 L25.9738246,11.5421415 Z" id="Fill-18" fill="#EEEEF1"></path>
                                    <path d="M19.5091277,7.62209825 C17.3536989,7.60750339 15.1955758,7.57507038 13.0555044,7.58155698 C10.9113916,7.57669203 8.78128905,7.6204766 6.63582909,7.65020686 C4.51542598,7.67966685 2.38478459,7.68831565 0.256837482,7.6726397 C0.259801197,6.55991704 0.281355485,5.44746467 0.293479772,4.33501229 C2.41361345,4.36933723 4.5334777,4.39366199 6.65361137,4.40798657 C8.81011791,4.4163651 10.9666244,4.44150069 13.1228616,4.43528436 C15.2793681,4.42609501 17.4358746,4.43717628 19.5923812,4.40717575 L22.8268715,4.37474273 L25.9643676,4.32393101 L26.0473516,7.7302083 C23.8439645,7.68074795 21.6747948,7.65236906 19.5091277,7.62209825 L19.5091277,7.62209825 Z M26.0613619,4.12257605 L22.8268715,4.0698724 L19.5923812,4.03743939 C17.4358746,4.00770913 15.2793681,4.01879041 13.1228616,4.00960105 C10.9666244,4.00311445 8.81011791,4.02852031 6.65361137,4.03662856 C4.49710483,4.05149369 2.3405983,4.07608873 0.184361188,4.11149477 L0.0725483176,4.1133867 L0.073626032,4.22257784 C0.0857503191,5.39665295 0.110268322,6.57045777 0.112423751,7.74453288 L0.112693179,7.81723688 L0.184361188,7.81669633 C2.34517858,7.80020955 4.50303226,7.80912863 6.67166309,7.83912917 C8.83894677,7.86858916 11.0215879,7.91237372 13.1904881,7.90777905 C15.3631604,7.91399538 17.5180504,7.88156236 19.6753652,7.86696751 C21.8224417,7.83669669 23.9662851,7.80831781 26.0759111,7.75885746 C26.0966571,6.60289079 26.1411128,5.42232908 26.1610505,4.22257784 L26.1626671,4.1241977 L26.0613619,4.12257605 Z" id="Fill-19" fill="#505A78"></path>
                                    <path d="M0.160786185,7.8591025 C0.117138751,6.52178123 0.0839990332,5.18445995 0.0608281734,3.84659813 L0.0446624572,2.84360717 L0.0365795991,2.34224683 C0.0355018847,2.18062232 0.024455312,2.00007854 0.0549007441,1.81710228 C0.15216447,1.0903325 0.719850536,0.446537172 1.44299691,0.272750272 C1.61731721,0.224100751 1.81480838,0.210046445 1.98212354,0.211127546 L2.4819136,0.207884245 L3.48203257,0.201397642 L5.48200109,0.188154161 C6.81513382,0.177883707 8.14826655,0.185721685 9.48193813,0.198965166 L13.4813363,0.264101469 C14.8150079,0.290318155 16.1481406,0.309777963 17.4812734,0.314102365 C18.8146755,0.329508047 20.1480777,0.320318693 21.4812104,0.312750989 C22.1477768,0.310859064 22.8146125,0.305453561 23.4811789,0.294102006 L23.980969,0.287074853 C24.1455898,0.285723478 24.3145216,0.276804399 24.4953082,0.297345308 C24.8490679,0.337886575 25.1901645,0.487348714 25.4636346,0.719244764 C25.7381823,0.950059713 25.9451035,1.26357885 26.0474864,1.6116932 C26.1043358,1.78358817 26.1199626,1.970078 26.1266984,2.14656765 L26.1345118,2.64819827 L26.1609158,4.65445045 L26.1956721,8.66668455 C26.2118378,11.3418676 26.2317755,14.0165102 26.2250398,16.6916933 C26.2220761,16.8646694 26.2298895,17.0106179 26.2148015,17.2127837 C26.1956721,17.4027871 26.1587604,17.5930608 26.0846675,17.7698207 C25.9451035,18.1260433 25.6985763,18.4374003 25.3876557,18.6560528 C25.077274,18.8757865 24.7008822,19.002005 24.3220656,19.0109241 C23.9731555,19.0155187 23.6511884,19.0060591 23.3144026,19.0041672 L19.3144656,18.9611934 C16.6476613,18.9236252 13.9813958,18.878219 11.3145915,18.7998392 L11.3145915,18.7528113 C13.9813958,18.6749721 16.6476613,18.6292956 19.3144656,18.5914571 L23.3144026,18.5484833 L24.3061693,18.5360507 C24.5941885,18.526591 24.8752025,18.4282109 25.1082582,18.2606403 C25.3407751,18.09334 25.5239866,17.8568493 25.6252917,17.5895472 C25.6805246,17.4573827 25.7047732,17.3146774 25.718514,17.1730533 C25.7284829,17.0416996 25.7212083,16.852507 25.722286,16.6916933 C25.7160892,14.0165102 25.7357575,11.3418676 25.7519232,8.66668455 L25.7866795,4.65445045 L25.812814,2.64819827 L25.8208969,2.14656765 C25.8187415,1.98980808 25.8122752,1.83899457 25.7683583,1.69061353 C25.6918406,1.39466228 25.5245254,1.12114386 25.2944334,0.915194223 C25.0648802,0.708704034 24.7733585,0.57059345 24.4654016,0.526808881 C24.3153299,0.504646322 24.1496313,0.507349073 23.980969,0.504646322 L23.4811789,0.497619169 C22.8146125,0.486537889 22.1477768,0.480862112 21.4812104,0.478970186 C20.1480777,0.471132207 18.8146755,0.462213129 17.4812734,0.47761881 C16.1481406,0.481943212 14.8150079,0.50140302 13.4813363,0.527619707 L9.48193813,0.592756009 C8.14826655,0.60599949 6.81513382,0.613567193 5.48200109,0.603296739 L3.48203257,0.590323533 L2.4819136,0.583836931 L1.98212354,0.580593629 C1.81642495,0.578431428 1.67847751,0.587080232 1.53029177,0.624648473 C0.948864849,0.760596856 0.463623935,1.26357885 0.362049351,1.86683291 C0.331873348,2.01359229 0.335914777,2.17008159 0.331873348,2.34224683 L0.32379049,2.84360717 L0.307894202,3.84659813 C0.284723342,5.18445995 0.251583624,6.52178123 0.207936191,7.8591025 L0.160786185,7.8591025 Z" id="Fill-20" fill="#505A78"></path>
                                    <path d="M4.63976728,12.1827206 C5.66278769,12.087854 6.68553866,12.0383936 7.70855907,12.0046093 C8.73131004,11.9678518 9.75406102,11.9583922 10.7770814,11.9535273 C11.7998324,11.9575814 12.8228528,11.9673113 13.8456038,12.0040687 C14.8686242,12.0375828 15.8916446,12.0870432 16.9143956,12.1827206 C15.8916446,12.2781277 14.8686242,12.3278583 13.8456038,12.3616427 C12.8228528,12.3981298 11.7998324,12.4078597 10.7770814,12.4119139 C9.75406102,12.4073192 8.73131004,12.3975893 7.70855907,12.3608319 C6.68553866,12.3273177 5.66278769,12.2775871 4.63976728,12.1827206" id="Fill-23" fill="#505A78"></path>
                                    <path d="M4.63976728,15.4769688 C5.40709994,15.381832 6.17389375,15.3323716 6.94122641,15.2988575 C7.70855907,15.2621001 8.47535287,15.2523702 9.24268553,15.2477755 C10.0100182,15.2518296 10.7770814,15.2615595 11.5441447,15.2980467 C12.3114773,15.3315608 13.0785406,15.3812914 13.8456038,15.4769688 C13.0785406,15.5723759 12.3114773,15.6221065 11.5441447,15.6556207 C10.7770814,15.6921078 10.0100182,15.7018377 9.24268553,15.7058918 C8.47535287,15.7012972 7.70855907,15.6915672 6.94122641,15.6550801 C6.17389375,15.6212957 5.40709994,15.5718354 4.63976728,15.4769688" id="Fill-25" fill="#505A78"></path>
                                    <path d="M22.7138463,15.6997296 L19.7759968,15.6997296 C19.4782782,15.6997296 19.2371396,15.4575631 19.2371396,15.1591793 L19.2371396,12.2120995 C19.2371396,11.9134455 19.4782782,11.6715492 19.7759968,11.6715492 L22.7138463,11.6715492 C23.0112954,11.6715492 23.2527035,11.9134455 23.2527035,12.2120995 L23.2527035,15.1591793 C23.2527035,15.4575631 23.0112954,15.6997296 22.7138463,15.6997296" id="Fill-38" fill="#E1EFFE"></path>
                                    <path d="M22.7138463,15.6794049 C22.865804,15.6767021 23.0139897,15.6039981 23.105326,15.4850771 C23.1982789,15.3607505 23.220372,15.2185858 23.1966623,15.0588532 L23.1198752,14.1099173 C23.0579066,13.4774735 23.0460517,12.8447595 23.0371606,12.2120454 C23.0352746,12.116368 22.9935131,12.0244745 22.920498,11.9623112 C22.8838557,11.9317701 22.8407471,11.9101481 22.7952137,11.8979857 C22.7725817,11.8912288 22.7491414,11.8879855 22.7251623,11.8860936 C22.7001054,11.8836611 22.6502611,11.8839314 22.6141577,11.88258 L21.6679244,11.8620391 C21.0371921,11.8504173 20.4067291,11.8214979 19.7759968,11.782308 C19.6501736,11.7741997 19.5197702,11.8252817 19.4284339,11.9225808 C19.3831699,11.9712303 19.3481441,12.0304205 19.327937,12.0952866 C19.3074604,12.1593418 19.3079993,12.229343 19.3058439,12.3120472 C19.2969527,12.6285394 19.2969527,12.9447612 19.3026107,13.2612534 C19.3176987,13.8939675 19.3764341,14.5264112 19.4055324,15.1591253 C19.4101127,15.2693975 19.4669622,15.3680479 19.5469825,15.4364275 C19.5876662,15.4696714 19.6358939,15.4931853 19.6865465,15.5053477 C19.7113339,15.5121046 19.7374685,15.5161587 19.7638725,15.5177803 C19.7908153,15.5204831 19.8390431,15.5202128 19.8759548,15.5212939 C20.1911862,15.5248075 20.5066871,15.5461592 20.8219186,15.5723759 C21.4523815,15.6207552 22.0831139,15.6856212 22.7138463,15.6794049 M22.7138463,15.7199461 C22.0831139,15.7134595 21.4523815,15.7785958 20.8219186,15.8269751 C20.5066871,15.853462 20.1911862,15.8748138 19.8759548,15.8777868 C19.8339239,15.8783274 19.8029396,15.8807598 19.7514788,15.8794085 C19.6992096,15.8785976 19.6461322,15.8729218 19.5954796,15.8580567 C19.4933662,15.8312995 19.3971801,15.7815689 19.3171599,15.7140001 C19.1538861,15.5796733 19.0630887,15.366156 19.0690161,15.1591253 C19.097845,14.5264112 19.1568498,13.8939675 19.1716684,13.2612534 C19.1773264,12.9447612 19.1773264,12.6285394 19.1687047,12.3120472 C19.1533473,12.1617742 19.1792124,11.9528516 19.2945279,11.8109571 C19.405263,11.6647383 19.5855107,11.5677095 19.7759968,11.5606824 C20.4067291,11.5214925 21.0371921,11.492573 21.6679244,11.4809512 L22.6141577,11.4604103 C22.6567274,11.4598698 22.6858257,11.4574373 22.7397114,11.4587887 C22.794136,11.4598698 22.8496383,11.4658158 22.9027157,11.4806809 C23.0099483,11.5079787 23.110984,11.5596013 23.1955846,11.6298728 C23.3653246,11.7701456 23.4714795,11.9901495 23.4682463,12.2120454 C23.4596246,12.8447595 23.4475003,13.4774735 23.3858012,14.1099173 L23.309014,15.0588532 C23.3020089,15.1350708 23.3003923,15.2226399 23.2745272,15.3048036 C23.2497397,15.3864266 23.2074395,15.4615631 23.1516677,15.5234561 C23.041202,15.6483232 22.8781977,15.72373 22.7138463,15.7199461" id="Fill-39" fill="#505A78"></path>
                                    <path d="M0.0166666203,7.64847589 C0.0166666203,7.64847589 0.549062576,2.43757634 1.61434517,1.85816079 C1.61434517,1.85816079 2.53732839,1.05216352 8.21801777,0.459306686 L1.55693474,0.431944063 L0.158475313,1.12993098 L0.0166666203,7.64847589 Z" id="Fill-27" fill="#E4E6EA"></path>
                                    <path d="M0.170096623,7.86158224 C0.107263384,6.15131826 0.0595296051,4.44154279 0.0259211284,2.73127881 L0.0166666203,2.08596069 C0.017640779,1.84903466 0.0609908432,1.61015461 0.150613448,1.3883723 C0.326936181,0.943830679 0.675197932,0.569145597 1.11162105,0.361530003 C1.32885845,0.257477953 1.56655318,0.194460515 1.80814455,0.17736276 C2.04730053,0.162219034 2.2416452,0.166127092 2.46083091,0.159776498 L3.73941427,0.146586801 C7.14945696,0.126069496 10.5594996,0.075753246 13.9695423,0.124603974 L19.0848499,0.218397371 C20.7896277,0.256012432 22.4948926,0.283857346 24.1996704,0.290207941 C24.6482705,0.283857346 25.1095347,0.447018777 25.4461065,0.750381797 C25.7860879,1.05130228 26.007709,1.47972316 26.0588524,1.93012687 C26.0861288,2.80699744 26.074926,3.64674145 26.0846676,4.50651425 C26.0861288,6.21677823 26.129966,7.92655371 26.1513975,9.63681769 L26.234688,14.7666326 L26.2497875,16.0494527 L26.2575808,16.6903743 L26.2609903,17.010835 C26.2595291,17.1251457 26.2570937,17.2585082 26.2351751,17.379658 C26.1591907,17.877447 25.884965,18.3405519 25.4879953,18.6502655 C25.289754,18.8056108 25.062288,18.924318 24.8202095,18.9975941 C24.6989268,19.0337437 24.5752086,19.0567035 24.4500292,19.0723358 L24.2610424,19.0830829 L24.0993321,19.0850369 C20.6892894,19.1079968 17.2792467,19.1368187 13.869204,19.1275371 C10.4591613,19.1177669 7.04911861,19.0733128 3.63907592,19.0303241 L2.36000548,19.0122494 L2.04048141,19.0058988 C1.93186271,19.0015022 1.80181252,18.9975941 1.68491347,18.9731688 C1.44673166,18.9306686 1.2168302,18.8432258 1.01176978,18.7176795 C0.600187709,18.4665867 0.291866466,18.0591717 0.161816273,17.5994863 C0.0926510025,17.376727 0.0838835738,17.1148871 0.0921639231,16.9082485 L0.104827987,16.2668385 C0.139897702,14.5565745 0.0794998594,9.45704701 0.136001067,7.74727154 L0.241697291,7.75459914 C0.298198498,9.46486312 0.41266215,14.5565745 0.447731865,16.2668385 L0.460883008,16.9082485 C0.462344246,17.1275883 0.475982469,17.2990543 0.538815708,17.4846871 C0.656201837,17.8452055 0.911918508,18.1529651 1.23680045,18.3337128 C1.39899788,18.4245751 1.57726893,18.4836845 1.75894954,18.5085984 C1.85246878,18.5242306 1.93624643,18.5222766 2.04048141,18.5227651 L2.36000548,18.516903 L3.63907592,18.4983397 C7.04911861,18.4558396 10.4591613,18.4118739 13.869204,18.4016153 C17.2792467,18.3923336 20.6892894,18.420667 24.0993321,18.4446039 L24.2571458,18.4450924 L24.3881701,18.4392303 C24.4738961,18.4294602 24.5596221,18.4152935 24.6433997,18.3913566 C24.8104679,18.3434829 24.9687687,18.2638562 25.1075864,18.1573616 C25.3866828,17.945838 25.5820017,17.6268427 25.6448349,17.2804911 C25.6628568,17.1915827 25.6657793,17.110979 25.670163,17.010835 L25.6735726,16.6903743 L25.6813659,16.0494527 L25.6959782,14.7666326 L25.7797559,9.63681769 C25.8011874,7.92655371 25.8445374,6.21677823 25.8459987,4.50651425 C25.8464858,3.6570001 25.8659689,2.7845261 25.8508695,1.95308671 C25.8143385,1.55202224 25.6092781,1.17294059 25.3048535,0.913543227 C25.0004289,0.649749297 24.6039463,0.514921289 24.1996704,0.525179942 C22.4948926,0.531530536 20.7896277,0.559863958 19.0848499,0.597479019 L13.9695423,0.690783909 C10.5594996,0.740123144 7.14945696,0.689318387 3.73941427,0.668801081 L2.46083091,0.655611385 C2.2533351,0.653657356 2.02099824,0.643398703 1.83493392,0.648283776 C1.65081792,0.655122877 1.46816315,0.696157489 1.29817245,0.769922088 C0.957703969,0.916474271 0.673249615,1.19834297 0.52176793,1.54371762 C0.44432231,1.71616068 0.402920563,1.90423599 0.395127293,2.09426532 L0.38197615,2.73127881 C0.348367673,4.44154279 0.300633895,6.15131826 0.238287735,7.86158224 L0.170096623,7.86158224 Z" id="Fill-32" fill="#505A78"></path>
                                </g>
                            </g>
                        </g>
                    </g>
                </g>
            </g>
        </g>
    </g>
</svg>