{
  "views": [
    {
      "name": "accountInformationLastNonMonetary",
      "layout": {
        "name": "BootstrapGridLayout"
      },
      "fields": [
        {
          "name": "accountLastNonMonetaryTransactionDate",
          "layoutProps": {
            "className": "col-6"
          }
        },
        {
          "name": "accountLastNonMonetaryTypeCode",
          "layoutProps": {
            "className": "col-6"
          }
        },
        {
          "name": "accountDivider",
          "layoutProps": {
            "columnWidth": 12
          }
        }
      ]
    }
  ]
}
