{
  "views": [
    {
      "name": "accountDetailStatementDetailContent",
      "layout": {
        "name": "BootstrapGridLayout"
      },
      "fields": [
        {
          "name": "headingControl",
          "label": "txt_original",
          "layoutProps": {
            "className": "col-12"
          }
        },
        {
          "name": "originalPostDate",
          "layoutProps": {
            "className": "col-lg-3 col-md-4"
          }
        },
        {
          "name": "originalReferenceNumber",
          "layoutProps": {
            "className": "col-lg-3 col-md-4"
          }
        },
        {
          "name": "presentationInstrumentTypeCode",
          "layoutProps": {
            "className": "col-lg-3 col-md-4"
          }
        },
        {
          "name": "transactionAccountNumber",
          "layoutProps": {
            "className": "col-lg-3 col-md-4"
          }
        },
        {
          "name": "transactionCode",
          "layoutProps": {
            "className": "col-lg-6 col-md-8"
          }
        },
        {
          "name": "accountDivider",
          "layoutProps": {
            "className": "col-12"
          }
        },
        {
          "name": "headingControl",
          "label": "txt_merchant",
          "layoutProps": {
            "className": "col-12"
          }
        },
        {
          "name": "merchantName",
          "layoutProps": {
            "className": "col-lg-3 col-md-4"
          }
        },
        {
          "name": "businessIdentification",
          "layoutProps": {
            "className": "col-lg-3 col-md-4"
          }
        },
        {
          "name": "merchantCategoryCode",
          "layoutProps": {
            "className": "col-lg-3 col-md-4"
          }
        },
        {
          "name": "merchantAccount",
          "layoutProps": {
            "className": "col-lg-3 col-md-4"
          }
        },
        {
          "name": "riskIdentificationServiceIndicator",
          "layoutProps": {
            "className": "col-lg-3 col-md-4"
          }
        },
        {
          "name": "merchantCity",
          "layoutProps": {
            "className": "col-lg-3 col-md-4"
          }
        },
        {
          "name": "merchantState",
          "layoutProps": {
            "className": "col-lg-3 col-md-4"
          }
        },
        {
          "name": "accountDivider",
          "layoutProps": {
            "className": "col-12"
          }
        },
        {
          "name": "headingControl",
          "label": "txt_foreign",
          "layoutProps": {
            "className": "col-lg-6 col-md-12 order-lg-1 order-md-1"
          }
        },
        {
          "name": "headingControl",
          "label": "txt_authorization",
          "layoutProps": {
            "className": "col-lg-6 col-md-12 order-lg-1 order-md-4"
          }
        },
        {
          "name": "currencyCode",
          "layoutProps": {
            "className": "col-lg-3 col-md-4 order-lg-1 order-md-2"
          }
        },
        {
          "name": "transactionAmount",
          "layoutProps": {
            "className": "col-lg-3 col-md-4 order-lg-1 order-md-2"
          }
        },
        {
          "name": "accountDivider",
          "layoutProps": {
            "className": "col-12 order-md-3 d-lg-none"
          }
        },
        {
          "name": "authorizationNumber",
          "layoutProps": {
            "className": "col-lg-3 col-md-4 order-lg-1 order-md-5"
          }
        },
        {
          "name": "authorizationSourceCode",
          "layoutProps": {
            "className": "col-lg-3 col-md-4 order-lg-1 order-md-5"
          }
        },
        {
          "name": "accountDivider",
          "layoutProps": {
            "className": "col-12 order-md-6 d-lg-none"
          }
        },
        {
          "name": "headingControl",
          "label": "txt_identifying",
          "layoutProps": {
            "className": "col-lg-6 col-md-12 order-lg-1 order-md-7 mt-lg-16 mt-md-0"
          }
        },
        {
          "name": "headingControl",
          "label": "txt_atm",
          "layoutProps": {
            "className": "col-lg-6 col-md-12 order-lg-1 order-md-10 mt-lg-16 mt-md-0"
          }
        },
        {
          "name": "agentNumber",
          "layoutProps": {
            "className": "col-lg-3 col-md-4 order-lg-1 order-md-8"
          }
        },
        {
          "name": "dailyStatementSequenceNumber",
          "layoutProps": {
            "className": "col-lg-3 col-md-4 order-lg-1 order-md-8"
          }
        },
        {
          "name": "accountDivider",
          "layoutProps": {
            "className": "col-12 order-md-9 d-lg-none"
          }
        },
        {
          "name": "automatedTellerMachineAtmFlag",
          "layoutProps": {
            "className": "col-lg-3 col-md-4 order-lg-1 order-md-11"
          }
        },
        {
          "name": "debitProductCode",
          "layoutProps": {
            "className": "col-lg-3 col-md-4 order-lg-1 order-md-11"
          }
        },
        {
          "name": "accountDivider",
          "layoutProps": {
            "className": "col-12 order-md-last"
          }
        },
        {
          "name": "headingControl",
          "label": "txt_other",
          "layoutProps": {
            "className": "col-12 order-md-last"
          }
        },
        {
          "name": "sourceTransactionIdentifier",
          "layoutProps": {
            "className": "col-lg-3 col-md-4 order-md-last"
          }
        },
        {
          "name": "promotionIdentifier",
          "layoutProps": {
            "className": "col-lg-3 col-md-4 order-md-last"
          }
        },
        {
          "name": "detailIndustryTransactionIdentifier",
          "layoutProps": {
            "className": "col-lg-3 col-md-4 order-md-last"
          }
        },
        {
          "name": "flapIdentifier",
          "layoutProps": {
            "className": "col-lg-3 col-md-4 order-md-last"
          }
        },
        {
          "name": "feeAttribute",
          "layoutProps": {
            "className": "col-lg-3 col-md-4 order-md-last"
          }
        },
        {
          "name": "mailPhoneIndicator",
          "layoutProps": {
            "className": "col-lg-3 col-md-4 order-md-last"
          }
        },
        {
          "name": "dualityFlag",
          "layoutProps": {
            "className": "col-lg-3 col-md-4 order-md-last"
          }
        },
        {
          "name": "visaNetInterchangeCenterProcessingDate",
          "layoutProps": {
            "className": "col-lg-3 col-md-4 order-md-last"
          }
        },
        {
          "name": "pointOfSaleEntryMode",
          "layoutProps": {
            "className": "col-lg-3 col-md-4 order-md-last"
          }
        }
      ]
    }
  ]
}