{
  "views": [
    {
      "name": "accountCollectionDelinquencyCycleSummary",
      "layout": {
        "name": "BootstrapGridLayout",
        "layoutOptions": {
          "className": "d-flex"
        }
      },
      "fields": [
        {
          "name": "accountOneCycleDelinquentAmount",
          "layoutProps": {
            "className": "col-6"
          },
          "options": {
            "format": "amount"
          }
        },
        {
          "name": "accountTwoCycleDelinquentAmount",
          "layoutProps": {
            "className": "col-6"
          },
          "options": {
            "format": "amount"
          }
        },
        {
          "name": "accountThreeCycleDelinquentAmount",
          "layoutProps": {
            "className": "col-6"
          },
          "options": {
            "format": "amount"
          }
        },
        {
          "name": "accountFourCycleDelinquentAmount",
          "layoutProps": {
            "className": "col-6"
          },
          "options": {
            "format": "amount"
          }
        },
        {
          "name": "accountFiveCycleDelinquentAmount",
          "layoutProps": {
            "className": "col-6"
          },
          "options": {
            "format": "amount"
          }
        },
        {
          "name": "accountSixCycleDelinquentAmount",
          "layoutProps": {
            "className": "col-6"
          },
          "options": {
            "format": "amount"
          }
        },
        {
          "name": "accountSevenCycleDelinquentAmount",
          "layoutProps": {
            "className": "col-6"
          },
          "options": {
            "format": "amount"
          }
        },
        {
          "name": "accountDivider",
          "layoutProps": {
            "columnWidth": 12
          }
        }
      ]
    }
  ]
}
