{
  "views": [
    {
      "name": "accountInformationCardInformation",
      "layout": {
        "name": "BootstrapGridLayout"
      },
      "fields": [
        {
          "name": "accountCardInformationNumber",
          "layoutProps": {
            "className": "col-6"
          },
          "options": {
            "format": "number"
          }
        },
        {
          "name": "accountExpirationDate",
          "label": "txt_expiration_date",
          "layoutProps": {
            "className": "col-6"
          }
        },
        {
          "name": "accountDivider",
          "layoutProps": {
            "columnWidth": 12
          }
        }
      ]
    }
  ]
}