{
  "views": [
    {
      "name": "accountInformationCycleToDate",
      "layout": {
        "name": "BootstrapGridLayout"
      },
      "fields": [
        {
          "name": "accountCycleToDateTotalCreditAmount",
          "layoutProps": {
            "className": "col-6"
          },
          "options": {
            "format": "amount"
          }
        },
        {
          "name": "accountCycleToDateNumber",
          "layoutProps": {
            "className": "col-6"
          },
          "options": {
            "format": "number"
          }
        },
        {
          "name": "accountDivider",
          "layoutProps": {
            "columnWidth": 12
          }
        }
      ]
    }
  ]
}
