{
  "views": [
    {
      "name": "bankAccountInformationCheckingView",
      "layout": {
        "name": "BootstrapGridLayout",
        "layoutOptions": {
          "className": "d-flex justify-content-between mt-16"
        }
      },
      "fields": [
        {
          "name": "bankRoutingNumberTextBox",
          "layoutProps": {
            "className": "col-6"
          },
          "options": {
            "numberOnly": true,
            "maxLength": 9
          },
          "props": {
            "required": true
          },
          "validationRules": [
            {
              "ruleName": "Required",
              "errorMsg": "txt_bank_routing_number_is_required"
            },
            {
              "ruleName": "MinLength",
              "errorMsg": "txt_bank_routing_number_is_valid",
              "ruleOptions": {
                "minLength": 9
              }
            }
          ]
        },
        {
          "name": "bankAccountNumberTextBox",
          "label": "txt_checking_account_number",
          "layoutProps": {
            "className": "col-6"
          },
          "options": {
            "numberOnly": true,
            "maxLength": 17,
            "minLength": 5
          },
          "props": {
            "required": true
          },
          "validationRules": [
            {
              "ruleName": "Required",
              "errorMsg": "txt_checking_account_number_is_required"
            },
            {
              "ruleName": "MinLength",
              "errorMsg": "txt_checking_account_number_is_invalid",
              "ruleOptions": {
                "minLength": 5
              }
            }
          ]
        }
      ]
    }
  ]
}