{
  "views": [
    {
      "name": "addCardInfoView",
      "layout": {
        "name": "BootstrapGridLayout",
        "layoutOptions": {
          "className": "d-flex justify-content-between mt-16"
        }
      },
      "fields": [
        {
          "name": "cardDebitNumberMasked",
          "layoutProps": {
            "className": "col-6"
          },
          "mask": [
            {
              "isRegex": true,
              "pattern": "\\d"
            },
            {
              "isRegex": true,
              "pattern": "\\d"
            },
            {
              "isRegex": true,
              "pattern": "\\d"
            },
            {
              "isRegex": true,
              "pattern": "\\d"
            },
            {
              "isRegex": false,
              "pattern": "-"
            },
            {
              "isRegex": true,
              "pattern": "\\d"
            },
            {
              "isRegex": true,
              "pattern": "\\d"
            },
            {
              "isRegex": true,
              "pattern": "\\d"
            },
            {
              "isRegex": true,
              "pattern": "\\d"
            },
            {
              "isRegex": false,
              "pattern": "-"
            },
            {
              "isRegex": true,
              "pattern": "\\d"
            },
            {
              "isRegex": true,
              "pattern": "\\d"
            },
            {
              "isRegex": true,
              "pattern": "\\d"
            },
            {
              "isRegex": true,
              "pattern": "\\d"
            },
            {
              "isRegex": false,
              "pattern": "-"
            },
            {
              "isRegex": true,
              "pattern": "\\d"
            },
            {
              "isRegex": true,
              "pattern": "\\d"
            },
            {
              "isRegex": true,
              "pattern": "\\d"
            },
            {
              "isRegex": true,
              "pattern": "\\d"
            }
          ],
          "props": {
            "required": true
          },
          "validationRules": [
            {
              "ruleName": "MinLength",
              "errorMsg": "txt_card_number_is_valid",
              "ruleOptions": {
                "minLength": 16
              }
            },
            {
              "ruleName": "Required",
              "errorMsg": "txt_card_number_is_required"
            }
          ]
        },
        {
          "name": "expirationDateDebitCardDatePicker",
          "layoutProps": {
            "className": "col-6"
          },
          "options": {
            "isMinToday": true
          },
          "props": {
            "required": true,
            "defaultView": "year"
          },
          "validationRules": [
            {
              "ruleName": "Required",
              "errorMsg": "txt_expiration_date_is_required"
            }
          ]
        }
      ]
    }
  ]
}