{
  "views": [
    {
      "name": "addMemoChronicleViews",
      "layout": {
        "name": "BootstrapGridLayout",
        "layoutOptions": {}
      },
      "fields": [
        {
          "name": "memoChronicleTypeCbx",
          "layoutProps": {
            "columnWidth": 12
          },
          "props": {
            "required": true
          },
          "validationRules": [
            {
              "ruleName": "Required",
              "errorMsg": "txt_type_is_required"
            }
          ]
        },
        {
          "name": "memoChronicleTextTxtArea",
          "layoutProps": {
            "columnWidth": 12,
            "className": "mt-16"
          },
          "props": {
            "required": true
          },
          "validationRules": [
            {
              "ruleName": "RegExp",
              "ruleOptions": {
                "regExp": "^([^\\\\\"()+;%]*)$"
              }
            },
            {
              "ruleName": "Required"
            }
          ],
          "options": {
            "maxLength": 2000,
            "countDown": true,
            "className": "resize-none h-180px"
          },
          "onValueChangedFunc": "textAreaMemoChange"
        },
        {
          "name": "memoTextAlert",
          "layoutProps": {
            "columnWidth": 12
          }
        },
        {
          "name": "memoChronicleOverrideRetentionDate",
          "layoutProps": {
            "columnWidth": 12,
            "className": "mt-16"
          },
          "options": {
            "isMinToday": true,
            "minDateDisabledText": "txt_override_retention_date_cannot_be_past_date"
          }
        }
      ]
    }
  ]
}
