{
  "views": [
    {
      "name": "addMemoCISFormViews",
      "layout": {
        "name": "BootstrapGridLayout"
      },
      "fields": [
        {
          "name": "memoCISSelectType",
          "layoutProps": {
            "columnWidth": 12,
            "className": "mb-16"
          },
          "props": {
            "required": true
          }
        },
        {
          "name": "memoCISEditContent",
          "layoutProps": {
            "columnWidth": 12
          },
          "props": {
            "required": true
          },
          "validationRules": [
            {
              "ruleName": "RegExp",
              "ruleOptions": {
                "regExp": "^([^\\\\\"()+;%]*)$"
              }
            },
            {
              "ruleName": "Required"
            }
          ],
          "options": {
            "countDown": true,
            "maxLength": 1000,
            "className": "resize-none h-180px"
          },
          "onValueChangedFunc": "textAreaMemoChange"
        },
        {
          "name": "memoTextAlert",
          "layoutProps": {
            "columnWidth": 12
          }
        }
      ]
    }
  ]
}
