{
  "views": [
    {
      "name": "transactionAdjustment",
      "layout": {
        "name": "BootstrapGridLayout"
      },
      "fields": [
        {
          "name": "headingControl",
          "label": "txt_adjustment",
          "layoutProps": {
            "className": "col-12"
          }
        },
        {
          "name": "adjustTransactionTypeDropdown",
          "layoutProps": {
            "className": "mt-16 col-4"
          }
        },
        {
          "name": "adjustTransactionReasonDropdown",
          "layoutProps": {
            "className": "mt-16 col-4"
          }
        },
        {
          "name": "adjustTransactionAmountNumeric",
          "layoutProps": {
            "className": "mt-16 col-4"
          }
        },
        {
          "name": "hiddenField",
          "layoutProps": {
            "className": "d-none"
          }
        }
      ]
    }
  ]
}
