{
  "views": [
    {
      "name": "bankruptcyFillingInfo",
      "layout": {
        "name": "BootstrapGridLayout"
      },
      "fields": [
        {
          "name": "bankruptcyType",
          "layoutProps": {
            "columnWidth": 12
          }
        },
        {
          "name": "bankruptcyFilerNameView",
          "layoutProps": {
            "columnWidth": 12
          }
        },
        {
          "name": "bankruptcyJointFilerNameView",
          "layoutProps": {
            "columnWidth": 12
          }
        },
        {
          "name": "fillingInfoPrimaryCustomerInformationIndicatorCode",
          "layoutProps": {
            "columnWidth": 12
          }
        },
        {
          "name": "fillingInfoPrimaryCreditBureauReportCode",
          "layoutProps": {
            "columnWidth": 12
          }
        },
        {
          "name": "fillingInfoSecondaryCustomerInformationIndicatorCode",
          "layoutProps": {
            "columnWidth": 12
          }
        },
        {
          "name": "fillingInfoSecondaryCreditBureauReportCode",
          "layoutProps": {
            "columnWidth": 12
          }
        },
        {
          "name": "fillingInfoAssetInfo",
          "layoutProps": {
            "columnWidth": 6
          }
        },
        {
          "name": "fillingInfoJurisdiction",
          "layoutProps": {
            "columnWidth": 6
          },
          "options": {
            "className": "word-break-all"
          }
        },
        {
          "name": "fillingInfoFileDate",
          "layoutProps": {
            "columnWidth": 6
          }
        },
        {
          "name": "fillingInfoPOCAmount",
          "layoutProps": {
            "columnWidth": 6
          }
        },
        {
          "name": "fillingInfoProSe",
          "layoutProps": {
            "columnWidth": 6
          }
        },
        {
          "name": "fillingInfoDismissalDate",
          "layoutProps": {
            "columnWidth": 6
          }
        },
        {
          "name": "fillingInfoDischargeDate",
          "layoutProps": {
            "columnWidth": 6
          }
        },
        {
          "name": "fillingInfoCloseDate",
          "layoutProps": {
            "columnWidth": 6
          }
        },
        {
          "name": "fillingInfoReopenDate",
          "layoutProps": {
            "columnWidth": 6
          }
        },
        {
          "name": "fillingInfoConversionDate",
          "layoutProps": {
            "columnWidth": 6
          }
        },
        {
          "name": "fillingInfoReaffirmedDate",
          "layoutProps": {
            "columnWidth": 6
          }
        },
        {
          "name": "fillingInfoConfirmedDate",
          "layoutProps": {
            "columnWidth": 6
          }
        },
        {
          "name": "fillingInfoProofOfClaimBarDate",
          "layoutProps": {
            "columnWidth": 6
          }
        },
        {
          "name": "fillingInfoSurrenderIndicator",
          "layoutProps": {
            "columnWidth": 6
          }
        },
        {
          "name": "fillingInfoNonfilerIndicator",
          "layoutProps": {
            "columnWidth": 12
          }
        },
        {
          "name": "fillingInfoNonfilerCollectible",
          "layoutProps": {
            "columnWidth": 12
          }
        },
        {
          "name": "fillingInfoSettledAmount",
          "layoutProps": {
            "columnWidth": 6
          }
        },
        {
          "name": "fillingInfoRedeemedAmount",
          "layoutProps": {
            "columnWidth": 6
          }
        }
      ]
    }
  ]
}
