{
  "views": [
    {
      "name": "bothDeceasedPartyMainInformationView",
      "layout": {
        "name": "BootstrapGridLayout"
      },
      "fields": [
        {
          "name": "deceasedPrimaryMainHeadingControl",
          "layoutProps": {
            "className": "mt-24",
            "columnWidth": 12
          },
          "headingClassName": "color-grey"
        },
        {
          "name": "primaryDateOfDeath",
          "layoutProps": {
            "className": "col-extend-md-12 col-md-4 col-extend-lg-6 col-xl-3 col-extend-xl-4 col-extend-xxl-3 mt-16 mt-16"
          },
          "props": { "required": true },
          "onValueChangedFunc": "dateOfDeathChange",
          "options": {
            "isMaxToday": true
          }
        },
        {
          "name": "primaryDateNoticeReceived",
          "layoutProps": {
            "className": "col-extend-md-12 col-md-4 col-extend-lg-6 col-xl-3 col-extend-xl-4 col-extend-xxl-3 mt-16 mt-16"
          },
          "props": {
            "enable": false,
            "required": true
          },
          "options": {
            "isMaxToday": true,
            "minDateDisabledText": "txt_date_notice_received_disabled_text"
          }
        },
        {
          "name": "deceasedSecondaryMainHeadingControl",
          "layoutProps": {
            "className": "mt-24",
            "columnWidth": 12
          },
          "headingClassName": "color-grey"
        },
        {
          "name": "secondaryDateOfDeath",
          "layoutProps": {
            "className": "col-extend-md-12 col-md-4 col-extend-lg-6 col-xl-3 col-extend-xl-4 col-extend-xxl-3 mt-16 mt-16"
          },
          "props": { "required": true },
          "onValueChangedFunc": "dateOfDeathChange",
          "options": {
            "isMaxToday": true
          }
        },
        {
          "name": "secondaryDateNoticeReceived",
          "layoutProps": {
            "className": "col-extend-md-12 col-md-4 col-extend-lg-6 col-xl-3 col-extend-xl-4 col-extend-xxl-3 mt-16 mt-16"
          },
          "props": {
            "enable": false,
            "required": true
          },
          "options": {
            "isMaxToday": true,
            "minDateDisabledText": "txt_date_notice_received_disabled_text"
          }
        },
        {
          "name": "deceasedSettlementHeadingControl",
          "layoutProps": {
            "className": "mt-24",
            "columnWidth": 12
          },
          "headingClassName": "color-grey"
        },
        {
          "name": "settlementAmount",
          "layoutProps": {
            "className": "col-extend-md-12 col-md-4 col-extend-lg-6 col-xl-3 col-extend-xl-4 col-extend-xxl-3 mt-16 mt-16"
          },
          "props": { "required": true, "maxLength": 8 }
        },
        {
          "name": "settlementMethod",
          "layoutProps": {
            "className": "col-extend-md-12 col-md-4 col-extend-lg-6 col-xl-3 col-extend-xl-4 col-extend-xxl-3 mt-16 mt-16"
          },
          "props": { "required": true }
        },
        {
          "name": "settlementDate",
          "layoutProps": {
            "className": "col-extend-md-12 col-md-4 col-extend-lg-6 col-xl-3 col-extend-xl-4 col-extend-xxl-3 mt-16 mt-16"
          },
          "props": { "required": true, "enable": false },
          "options": {
            "isMinToday": true,
            "minDateDisabledText": "txt_settlement_date_received_disabled_text"
          }
        }
      ]
    }
  ]
}
