{
  "views": [
    {
      "name": "cardholderMaintenanceEmail",
      "layout": {
        "name": "BootstrapGridLayout"
      },
      "fields": [
        {
          "name": "homeEmail",
          "layoutProps": {
            "columnWidth": 12
          },
          "options": {
            "format": "truncateLessMore"
          }
        },
        {
          "name": "homeEmailStatus",
          "layoutProps": {
            "columnWidth": 6
          }
        },
        {
          "name": "homeSolicitFlag",
          "layoutProps": {
            "columnWidth": 6
          }
        },
        {
          "name": "divider",
          "layoutProps": {
            "columnWidth": 12,
            "className": "mt-24 mb-8"
          }
        },
        {
          "name": "workEmail",
          "layoutProps": {
            "columnWidth": 12
          },
          "options": {
            "format": "truncateLessMore"
          }
        },
        {
          "name": "workEmailStatus",
          "layoutProps": {
            "columnWidth": 6
          }
        },
        {
          "name": "workSolicitFlag",
          "layoutProps": {
            "columnWidth": 6
          }
        }
      ]
    }
  ]
}
