{
  "views": [
    {
      "name": "selectReasonCCCSView",
      "layout": {
        "name": "BootstrapGridLayout"
      },
      "fields": [
        {
          "name": "discontinuePlan",
          "layoutProps": {
            "className": "col-extend-xxl-3 col-xl-3 col-extend-xl-4 col-lg-3 col-extend-lg-6 col-extend-md-12 col-md-6",
            "columnWidth": 4
          },
          "props": {
            "visible": false,
            "className": "mt-16"
          },
          "validationRules": [
            {
              "ruleName": "Required",
              "errorMsg": "txt_discontinue_plan_reason_required"
            }
          ],
          "textField": "description",
          "data": [
            {
              "value": "fileIncomplete",
              "description": "File Incomplete"
            },
            {
              "value": "invalidProposal",
              "description": "Invalid Proposal"
            },
            {
              "value": "notEnoughInformation",
              "description": "Not Enough Information"
            },
            {
              "value": "other",
              "description": "Other"
            }
          ]
        },
        {
          "name": "actionDiscontinuePlanText",
          "layoutProps": {
            "className": "col-extend-xxl-6 col-xl-6 col-extend-xl-8 col-lg-6 col-extend-lg-6 col-extend-md-12 col-md-6",
            "columnWidth": 4
          },
          "props": {
            "visible": false
          },
          "options": {
            "maxLength": 22,
            "className": "mt-16"
          },
          "validationRules": [
            {
              "ruleName": "Required",
              "errorMsg": "txt_action_reason_text_required"
            }
          ]
        },
        {
          "name": "emptyDiv",
          "layoutProps": {
            "columnWidth": 12
          }
        },
        {
          "name": "declineProposal",
          "layoutProps": {
            "className": "col-extend-xxl-3 col-xl-3 col-extend-xl-4 col-lg-3 col-extend-lg-6 col-extend-md-12 col-md-6",
            "columnWidth": 4
          },
          "props": {
            "visible": false,
            "className": "mt-16"
          },
          "validationRules": [
            {
              "ruleName": "Required",
              "errorMsg": "txt_decline_proposal_reason_required"
            }
          ],
          "textField": "description",
          "data": [
            {
              "value": "fileIncomplete",
              "description": "File Incomplete"
            },
            {
              "value": "invalidProposal",
              "description": "Invalid Proposal"
            },
            {
              "value": "notEnoughInformation",
              "description": "Not Enough Information"
            },
            {
              "value": "other",
              "description": "Other"
            }
          ]
        },
        {
          "name": "actionDeclineProposalText",
          "layoutProps": {
            "className": "col-extend-xxl-6 col-xl-6 col-extend-xl-8 col-lg-6 col-extend-lg-6 col-extend-md-12 col-md-6",
            "columnWidth": 4
          },
          "props": {
            "visible": false
          },
          "options": {
            "maxLength": 22,
            "className": "mt-16"
          },
          "validationRules": [
            {
              "ruleName": "Required",
              "errorMsg": "txt_action_reason_text_required"
            }
          ]
        }
      ]
    }
  ]
}
