{
  "views": [
    {
      "name": "clientConfigTopInfo",
      "layout": {
        "name": "BootstrapGridLayout"
      },
      "fields": [
        {
          "name": "clientId",
          "layoutProps": {
            "className": "col-lg-2 col-md-2"
          }
        },
        {
          "name": "systemId",
          "layoutProps": {
            "className": "col-lg-2 col-md-2"
          }
        },
        {
          "name": "principleId",
          "layoutProps": {
            "className": "col-lg-2 col-md-2"
          }
        },
        {
          "name": "agentId",
          "layoutProps": {
            "className": "col-lg-2 col-md-2"
          }
        },
        {
          "name": "description",
          "layoutProps": {
            "className": "col-lg-4 col-md-4"
          },
          "options": {
            "format": "truncateLessMore",
            "truncateLines": 2
          }
        }
      ]
    }
  ]
}
