{
  "views": [
    {
      "name": "clientConfigCallResultViewEdit",
      "layout": {
        "name": "BootstrapGridLayout"
      },
      "fields": [
        {
          "name": "clientConfigCallResult_actionCode",
          "layoutProps": {
            "className": "col-6"
          },
          "options": {
            "maxLength": 2,
            "alphabeticalOnly": true,
            "isUppercase": true
          },
          "props": { "required": true }
        },
        {
          "name": "clientConfigCallResult_actionCodeDescription",
          "layoutProps": {
            "className": "col-12 mt-16"
          },
          "options": {
            "maxLength": 50,
            "isAlphaNumericAndSpace": true
          },
          "props": { "required": true }
        }
      ]
    }
  ]
}
