{
  "views": [
    {
      "name": "clientConfigCallResultActionCodeTypeViewEdit",
      "layout": {
        "name": "BootstrapGridLayout"
      },
      "fields": [
        {
          "name": "clientConfigCallResult_actionType",
          "layoutProps": {
            "className": "col-6 mt-16"
          },
          "props": {
            "readOnly": true
          }
        },
        {
          "name": "clientConfigCallResult_nextWorkDateVariable",
          "layoutProps": {
            "className": "col-6 mt-16"
          },
          "format": "i",
          "maxLength": 3
        },
        {
          "name": "clientConfigCallResult_externalStatusCode",
          "layoutProps": {
            "className": "col-6 mt-16"
          }
        },
        {
          "name": "clientConfigCallResult_letterId",
          "layoutProps": {
            "className": "col-6 mt-16"
          },
          "options": {
            "maxLength": 4,
            "isAlphaNumeric": true
          }
        },
        {
          "name": "clientConfigCallResult_externalStatusReason",
          "layoutProps": {
            "className": "col-12 mt-16"
          }
        }
      ]
    }
  ]
}