{
  "views": [
    {
      "name": "clientConfigMemosForm",
      "layout": {
        "name": "BootstrapGridLayout"
      },
      "fields": [
        {
          "name": "headingControl",
          "type": "HeadingControl",
          "as": "p",
          "label": "txt_memos_default",
          "layoutProps": {
            "className": "col-4 col-xl-3 d-flex align-items-center"
          }
        },
        {
          "name": "clientConfigMemosDefault",
          "layoutProps": {
            "className": "col-xl-3 col-6"
          },
          "props": {
            "required": true
          },
          "options": {
            "maxLength": 10
          },
          "enable": true,
          "validationRules": [
            {
              "ruleName": "Required",
              "errorMsg": "txt_behavior_type_required"
            }
          ]
        },
        {
          "name": "clientConfigMemosDivider",
          "layoutProps": {
            "className": "col-12 mt-16 mb-16"
          }
        },
        {
          "name": "headingControl",
          "type": "HeadingControl",
          "as": "p",
          "label": "txt_memos_account_details",
          "layoutProps": {
            "className": "col-4 col-xl-3 d-flex align-items-center"
          }
        },
        {
          "name": "clientConfigMemosAccountDetails",
          "layoutProps": {
            "className": "col-xl-3 col-6"
          },
          "options": {
            "maxLength": 10
          },
          "enable": true
        },
        {
          "name": "clientConfigMemosDivider",
          "layoutProps": {
            "className": "col-12 mt-16 mb-16"
          }
        },
        {
          "name": "headingControl",
          "type": "HeadingControl",
          "as": "p",
          "label": "txt_memos_authentication",
          "layoutProps": {
            "className": "col-4 col-xl-3 d-flex align-items-center"
          }
        },
        {
          "name": "clientConfigMemosCallAuthentication",
          "layoutProps": {
            "className": "col-xl-3 col-6"
          },
          "options": {
            "maxLength": 10
          },
          "enable": true
        },
        {
          "name": "clientConfigMemosDivider",
          "layoutProps": {
            "className": "col-12 mt-16 mb-16"
          }
        },
        {
          "name": "headingControl",
          "type": "HeadingControl",
          "as": "p",
          "label": "txt_memos_cardholder",
          "layoutProps": {
            "className": "col-4 col-xl-3 d-flex align-items-center"
          }
        },
        {
          "name": "clientConfigMemosCardHolderMaintenance",
          "layoutProps": {
            "className": "col-xl-3 col-6"
          },
          "options": {
            "maxLength": 10
          },
          "enable": true
        },
        {
          "name": "clientConfigMemosDivider",
          "layoutProps": {
            "className": "col-12 mt-16 mb-16"
          }
        },
        {
          "name": "headingControl",
          "type": "HeadingControl",
          "as": "p",
          "label": "txt_memos_letters",
          "layoutProps": {
            "className": "col-4 col-xl-3 d-flex align-items-center"
          }
        },
        {
          "name": "clientConfigMemosLetters",
          "layoutProps": {
            "className": "col-xl-3 col-6"
          },
          "options": {
            "maxLength": 10
          },
          "enable": true
        },
        {
          "name": "clientConfigMemosDivider",
          "layoutProps": {
            "className": "col-12 mt-16 mb-16"
          }
        },
        {
          "name": "headingControl",
          "type": "HeadingControl",
          "as": "p",
          "label": "txt_memos_payment",
          "layoutProps": {
            "className": "col-4 col-xl-3 d-flex align-items-center"
          }
        },
        {
          "name": "clientConfigMemosPayment",
          "layoutProps": {
            "className": "col-xl-3 col-6"
          },
          "options": {
            "maxLength": 10
          },
          "enable": true
        },
        {
          "name": "clientConfigMemosDivider",
          "layoutProps": {
            "className": "col-12 mt-16 mb-16"
          }
        },
        {
          "name": "headingControl",
          "type": "HeadingControl",
          "as": "p",
          "label": "txt_memos_adjustment",
          "layoutProps": {
            "className": "col-4 col-xl-3 d-flex align-items-center"
          }
        },
        {
          "name": "clientConfigMemosTransactionAdjustment",
          "layoutProps": {
            "className": "col-xl-3 col-6"
          },
          "options": {
            "maxLength": 10
          },
          "enable": true
        },
        {
          "name": "clientConfigMemosDivider",
          "layoutProps": {
            "className": "col-12 mt-16 mb-16"
          }
        },
        {
          "name": "headingControl",
          "type": "HeadingControl",
          "as": "p",
          "label": "txt_memos_approval",
          "layoutProps": {
            "className": "col-4 col-xl-3 d-flex align-items-center"
          }
        },
        {
          "name": "clientConfigMemosTransactionApprovalReject",
          "layoutProps": {
            "className": "col-xl-3 col-6"
          },
          "options": {
            "maxLength": 10
          },
          "enable": true
        }
      ]
    }
  ]
}
