{
  "views": [
    {
      "name": "clientAddressView",
      "layout": {
        "name": "BootstrapGridLayout"
      },
      "fields": [
        {
          "name": "clientPhoneNumber",
          "layoutProps": {
            "className": "col-12"
          }
        },
        {
          "name": "clientPhoneHour",
          "layoutProps": {
            "className": "col-12"
          }
        }
      ]
    }
  ]
}
