{
  "views": [
    {
      "name": "clientConfigPromiseToPay",
      "layout": {
        "name": "BootstrapGridLayout"
      },
      "fields": [
        {
          "name": "earliestPromiseInDaysFromToday",
          "layoutProps": {
            "className": "col-12"
          }
        },
        {
          "name": "latestPromiseInDaysFromToday",
          "layoutProps": {
            "className": "col-12 mt-16"
          }
        },
        {
          "name": "latestFirstPromiseInDaysFromToday",
          "layoutProps": {
            "className": "col-12 mt-16"
          }
        },
        {
          "name": "minAmountPerPromise",
          "layoutProps": {
            "className": "col-12 mt-16"
          }
        },
        {
          "name": "maxAmountPerPromise",
          "layoutProps": {
            "className": "col-12 mt-16"
          }
        },
        {
          "name": "minSumTotalPromiseAmount",
          "layoutProps": {
            "className": "col-12 mt-16"
          }
        },
        {
          "name": "maxSumTotalPromiseAmount",
          "layoutProps": {
            "className": "col-12 mt-16"
          }
        },
        {
          "name": "minDaysBetweenPromise",
          "layoutProps": {
            "className": "col-12 mt-16"
          }
        },
        {
          "name": "maxDaysBetweenPromise",
          "layoutProps": {
            "className": "col-12 mt-16"
          }
        },
        {
          "name": "minNumberPromise",
          "layoutProps": {
            "className": "col-12 mt-16"
          }
        },
        {
          "name": "maxNumberPromise",
          "layoutProps": {
            "className": "col-12 mt-16"
          }
        }
      ]
    }
  ]
}
