{
  "views": [
    {
      "name": "deceasedPartyResultView",
      "layout": {
        "name": "BootstrapGridLayout"
      },
      "fields": [
        {
          "name": "deceasedPartyInfo",
          "layoutProps": {
            "columnWidth": 12
          }
        }
      ]
    }
  ]
}
