{
  "views": [
    {
      "name": "demandPaymentInformationView",
      "layout": {
        "name": "BootstrapGridLayout"
      },
      "fields": [
        {
          "name": "achRoutingNumber",
          "layoutProps": {
            "className": "col-4"
          }
        },
        {
          "name": "achCheckingNumber",
          "layoutProps": {
            "className": "col-4"
          }
        },
        {
          "name": "achSavingsNumber",
          "layoutProps": {
            "className": "col-4"
          }
        },
        {
          "name": "achBankName",
          "layoutProps": {
            "className": "col-4"
          }
        },
        {
          "name": "achBankCity",
          "layoutProps": {
            "className": "col-4"
          }
        },
        {
          "name": "achBankState",
          "layoutProps": {
            "className": "col-4"
          }
        }
      ]
    }
  ]
}
