{
  "views": [
    {
      "name": "editEmailFormView",
      "layout": {
        "name": "BootstrapGridLayout"
      },
      "fields": [
        {
          "name": "editEmailHomeEmailHeading",
          "layoutProps": {
            "className": "col-12 mb-16"
          }
        },
        {
          "name": "editEmailHomeEmailTextBox",
          "layoutProps": {
            "className": "col-12"
          }
        },
        {
          "name": "editEmailHomeEmailStatus",
          "layoutProps": {
            "className": "col-12 mt-16"
          }
        },
        {
          "name": "editEmailHomeEmailSolicitFlag",
          "layoutProps": {
            "className": "col-12 mt-16"
          }
        },
        {
          "name": "editEmailWorkEmailHeading",
          "layoutProps": {
            "className": "col-12 mb-16 mt-24"
          }
        },
        {
          "name": "editEmailWorkEmailTextBox",
          "layoutProps": {
            "className": "col-12"
          }
        },
        {
          "name": "editEmailWorkEmailStatus",
          "layoutProps": {
            "className": "col-12 mt-16"
          }
        },
        {
          "name": "editEmailWorkEmailSolicitFlag",
          "layoutProps": {
            "className": "col-12 mt-16"
          }
        }
      ]
    }
  ]
}
