{
  "views": [
    {
      "name": "addExpandedAddressView",
      "layout": {
        "name": "BootstrapGridLayout"
      },
      "fields": [
        {
          "name": "expandedAddressCategory",
          "layoutProps": {
            "columnWidth": 6
          },
          "props": {
            "required": true
          },
          "validationRules": [
            {
              "ruleName": "Required",
              "errorMsg": "txt_address_category_required"
            }
          ]
        },
        {
          "name": "expandedAddressType",
          "layoutProps": {
            "columnWidth": 6
          },
          "props": {
            "required": true
          },
          "validationRules": [
            {
              "ruleName": "Required",
              "errorMsg": "txt_address_type_required"
            }
          ]
        },
        {
          "name": "expandedAddressEffectiveFrom",
          "layoutProps": {
            "className": "mt-16",
            "columnWidth": 4
          },
          "options": {
            "isMinToday": true,
            "minDateDisabledText": "txt_effective_from_not_past_date"
          },
          "props": {
            "required": true
          },
          "validationRules": [
            {
              "ruleName": "Required",
              "errorMsg": "txt_effective_from_required"
            }
          ]
        },
        {
          "name": "expandedAddressEffectiveTo",
          "layoutProps": {
            "className": "mt-16",
            "columnWidth": 4
          },
          "options": {
            "isMinToday": true,
            "minDateDisabledText": "txt_effective_to_not_past_date"
          },
          "props": {
            "required": true
          },
          "validationRules": [
            {
              "ruleName": "Required",
              "errorMsg": "txt_effective_to_required"
            }
          ]
        },
        {
          "name": "dividerControl",
          "props": {
            "dashed": true
          },
          "layoutProps": {
            "columnWidth": 12,
            "className": "my-24"
          }
        },
        {
          "name": "expandedAddressCountry",
          "layoutProps": {
            "columnWidth": 6
          },
          "props": {
            "required": true
          },
          "validationRules": [
            {
              "ruleName": "Required",
              "errorMsg": "txt_country_iso_required"
            }
          ]
        },
        {
          "name": "expandedAddressAttention",
          "layoutProps": {
            "columnWidth": 6
          },
          "options": {
            "maxLength": 50
          }
        },
        {
          "name": "expandedAddressHouseBuilding",
          "layoutProps": {
            "className": "mt-16",
            "columnWidth": 6
          },
          "options": {
            "maxLength": 50
          }
        },
        {
          "name": "expandedAddressStreetName",
          "layoutProps": {
            "className": "mt-16",
            "columnWidth": 6
          },
          "options": {
            "maxLength": 39
          }
        },
        {
          "name": "expandedAddressHouseNumber",
          "layoutProps": {
            "className": "mt-16",
            "columnWidth": 3
          },
          "options": {
            "maxLength": 10
          },
          "validationRules": [
            {
              "ruleName": "RegExp",
              "errorMsg": "txt_house_number_not_contain",
              "ruleOptions": {
                "regExp": "^[^&',-/.]+$"
              }
            }
          ]
        },
        {
          "name": "expandedAddressPoBox",
          "layoutProps": {
            "className": "mt-16",
            "columnWidth": 3
          },
          "options": {
            "maxLength": 10
          },
          "validationRules": [
            {
              "ruleName": "RegExp",
              "errorMsg": "txt_po_box_not_contain",
              "ruleOptions": {
                "regExp": "^[^&',-/.]+$"
              }
            }
          ]
        },
        {
          "name": "expandedAddressRelationShip",
          "layoutProps": {
            "className": "mt-16",
            "columnWidth": 6
          },
          "props": {
            "required": true
          },
          "validationRules": [
            {
              "ruleName": "Required",
              "errorMsg": "txt_address_relation_required"
            }
          ]
        },
        {
          "name": "expandedAddressLineOne",
          "layoutProps": {
            "className": "mt-16",
            "columnWidth": 6
          },
          "props": {
            "required": true
          },
          "options": {
            "maxLength": 50
          },
          "validationRules": [
            {
              "ruleName": "Required",
              "errorMsg": "txt_address_line_one_is_required"
            }
          ]
        },
        {
          "name": "expandedAddressLineTwo",
          "layoutProps": {
            "className": "mt-16",
            "columnWidth": 6
          },
          "options": {
            "maxLength": 50
          }
        },
        {
          "name": "expandedAddressLineThree",
          "layoutProps": {
            "className": "mt-16",
            "columnWidth": 6
          },
          "options": {
            "maxLength": 50
          }
        },
        {
          "name": "expandedAddressLineFour",
          "layoutProps": {
            "className": "mt-16",
            "columnWidth": 6
          },
          "options": {
            "maxLength": 50
          }
        },
        {
          "name": "expandedAddressCity",
          "layoutProps": {
            "className": "mt-16",
            "columnWidth": 4
          },
          "props": {
            "required": true
          },
          "options": {
            "maxLength": 25
          },
          "validationRules": [
            {
              "ruleName": "Required",
              "errorMsg": "txt_city_is_required"
            },
            {
              "ruleName": "RegExp",
              "errorMsg": "txt_city_not_contain",
              "ruleOptions": {
                "regExp": "^[^&',-/.]+$"
              }
            }
          ]
        },
        {
          "name": "expandedAddressStateSubdivision",
          "layoutProps": {
            "className": "mt-16",
            "columnWidth": 4
          },
          "props": {
            "required": true,
            "readOnly": true
          },
          "validationRules": [
            {
              "ruleName": "Required",
              "errorMsg": "txt_state_subdivision_required"
            }
          ]
        },
        {
          "name": "expandedAddressPostalCode",
          "layoutProps": {
            "className": "mt-16",
            "columnWidth": 4
          },
          "props": {
            "required": true
          },
          "options": {
            "maxLength": 5
          },
          "validationRules": [
            {
              "ruleName": "Required",
              "errorMsg": "txt_postal_code_required"
            }
          ]
        }
      ]
    }
  ]
}