{
  "views": [
    {
      "name": "generalInformation",
      "layout": {
        "name": "BootstrapGridLayout"
      },
      "fields": [
        {
          "name": "nextWorkDate",
          "layoutProps": {
            "columnWidth": 6
          }
        },
        {
          "name": "moveToQueue",
          "layoutProps": {
            "columnWidth": 6
          }
        },
        {
          "name": "delinquencyReason",
          "layoutProps": {
            "columnWidth": 6
          }
        }
      ]
    }
  ]
}