{
  "views": [
    {
      "name": "generalInformationEditForm",
      "layout": {
        "name": "BootstrapGridLayout"
      },
      "fields": [
        {
          "name": "nextWorkDateInput",
          "layoutProps": {
            "columnWidth": 12,
            "className": "hide-entitlement"
          },
          "props": {
            "required": true
          },
          "validationRules": [
            {
              "ruleName": "Required",
              "errorMsg": "txt_next_work_date_is_required"
            }
          ],
          "entitlementConfig": {
            "entitlementCode": "CollectionActivities.UpdateNextWorkDate"
          }
        },
        {
          "name": "moveToQueueInput",
          "layoutProps": {
            "columnWidth": 12,
            "className": "mt-16 hide-entitlement"
          },
          "props": {
            "required": true
          },
          "validationRules": [
            {
              "ruleName": "Required",
              "errorMsg": "txt_move_to_queue_is_required"
            }
          ],
          "entitlementConfig": {
            "entitlementCode": "CollectionActivities.UpdateMoveToQueue"
          }
        },
        {
          "name": "delinquencyReasonInput",
          "layoutProps": {
            "columnWidth": 12,
            "className": "mt-16 hide-entitlement"
          },
          "entitlementConfig": {
            "entitlementCode": "CollectionActivities.UpdateDelinquencyReason"
          }
        }
      ]
    }
  ]
}
