{
  "views": [
    {
      "name": "militaryDeploymentHardshipFormDetail",
      "layout": {
        "name": "BootstrapGridLayout",
        "layoutOptions": {}
      },
      "fields": [
        {
          "name": "hardshipMilitaryDeploymentInformationView",
          "type": "GroupTextControl",
          "label": " ",
          "input": {
            "value": "txt_militaryDeploymentInformation"
          },
          "options": {
            "format": "label",
            "classNameProps": {
              "container": "mt-8"
            },
            "classNameValue": "color-grey fs-11 text-uppercase fw-500"
          },
          "layoutProps": {
            "className": "col-12 zoom-hidden col-12 color-grey fs-11 text-uppercase fw-500"
          }
        },
        {
          "name": "hardshipDeploymentStartDateView",
          "dataField": "deploymentStartDate",
          "label": "txt_deploymentStartDate",
          "type": "GroupTextControl",
          "options": { "format": "date" },
          "layoutProps": { "className": "col-6" }
        },
        {
          "name": "hardshipDeploymentEndDateView",
          "dataField": "deploymentEndDate",
          "label": "txt_deploymentEndDate",
          "type": "GroupTextControl",
          "options": { "format": "date" },
          "layoutProps": { "className": "col-6" }
        }
      ]
    }
  ]
}
