{
  "views": [
    {
      "name": "longTermHardshipDetailViews",
      "layout": {
        "name": "BootstrapGridLayout",
        "layoutOptions": {}
      },
      "fields": [
        {
          "name": "incomeInformation",
          "type": "GroupTextControl",
          "label": " ",
          "input": {
            "value": "txt_incomeInformation"
          },
          "options": {
            "format": "label",
            "classNameProps": {
              "container": "mt-8"
            },
            "classNameValue": "color-grey fs-11 text-uppercase fw-500"
          },
          "layoutProps": {
            "className": "col-12 zoom-hidden color-grey fs-11 text-uppercase fw-500"
          }
        },
        {
          "name": "incomeAmount_View",
          "dataField": "incomeAmount",
          "label": "txt_incomeAmount",
          "type": "GroupTextControl",
          "options": {
            "format": "amount"
          },
          "layoutProps": {
            "className": "col-6"
          }
        },
        {
          "name": "incomeFrequency_View",
          "dataField": "incomeFrequency",
          "label": "txt_incomeFrequency",
          "type": "GroupTextControl",
          "options": {
            "format": "text"
          },
          "layoutProps": {
            "className": "col-6"
          }
        }
      ]
    }
  ]
}