{
  "views": [
    {
      "name": "longTermHardshipBasicDetail",
      "layout": {
        "name": "BootstrapGridLayout"
      },
      "fields": [
        {
          "name": "dividerControl",
          "props": {
            "dashed": true
          },
          "layoutProps": {
            "columnWidth": 12,
            "className": "my-24"
          }
        },
        {
          "name": "hardshipGeneralLongTermHardshipInformation",
          "type": "GroupTextControl",
          "label": " ",
          "input": {
            "value": "txt_generalLongTermHardshipInformation"
          },
          "options": {
            "format": "label",
            "classNameProps": {
              "container": "mt-8"
            },
            "classNameValue": "color-grey fs-11 text-uppercase fw-500"
          },
          "layoutProps": {
            "className": "col-12"
          }
        },
        {
          "name": "cycleToDatePaymentsAmount_View",
          "layoutProps": {
            "className": "col-12"
          }
        },
        {
          "name": "nonDelinquentMpdAmount_View",
          "layoutProps": {
            "className": "col-12"
          }
        },
        {
          "name": "newFixedPaymentAmount_View",
          "layoutProps": {
            "className": "col-12"
          }
        },
        {
          "name": "hardship_paymentMethod_View",
          "dataField": "paymentMethod",
          "label": "txt_payment_method",
          "type": "GroupTextControl",
          "options": {
            "format": "text"
          },
          "layoutProps": {
            "className": "col-12"
          }
        },
        {
          "name": "newFixedPaymentFromDate_View",
          "layoutProps": {
            "className": "col-6"
          }
        },
        {
          "name": "newFixedPaymentToDate_View",
          "layoutProps": {
            "className": "col-6"
          }
        },
        {
          "name": "newFixedPaymentREAGEPaymentPeriod_View",
          "layoutProps": {
            "className": "col-12"
          }
        }
      ]
    }
  ]
}