{
  "views": [
    {
      "name": "pendingAuthorizationDetailInfo",
      "layout": {
        "name": "BootstrapGridLayout"
      },
      "fields": [
        {
          "name": "dateTime",
          "options": {
            "format": "allDatetime"
          },
          "layoutProps": { "className": "col-lg-3 col-md-4" }
        },
        {
          "name": "transactedAccountNumber",
          "layoutProps": { "className": "col-lg-3 col-md-4" }
        },
        {
          "name": "accountIdentifier",
          "layoutProps": { "className": "col-lg-3 col-md-4" }
        },
        {
          "name": "authorizationMethodCode",
          "layoutProps": { "className": "col-lg-3 col-md-4" }
        },
        {
          "name": "authorizationApprovalCode",
          "layoutProps": { "className": "col-lg-3 col-md-4" }
        },
        {
          "name": "authorizationAmount",
          "layoutProps": { "className": "col-lg-3 col-md-4" }
        },
        {
          "name": "availableCreditAmount",

          "layoutProps": { "className": "col-lg-3 col-md-4" }
        },
        {
          "name": "enteredExpirationDate",
          "layoutProps": { "className": "col-lg-3 col-md-4" }
        },
        {
          "name": "authorizationResponseDescriptionText",
          "layoutProps": { "className": "col-lg-3 col-md-4" }
        },
        {
          "name": "authorizationFilterCode",
          "layoutProps": { "className": "col-lg-3 col-md-4" }
        },
        {
          "name": "accountInternalStatus",
          "layoutProps": { "className": "col-lg-3 col-md-4" }
        },
        {
          "name": "accountExternalStatus",
          "layoutProps": { "className": "col-lg-3 col-md-4" }
        },
        {
          "name": "authorizationLineId",
          "layoutProps": { "className": "col-lg-3 col-md-4" }
        },
        {
          "name": "presentationInstrumentTypeCode",
          "layoutProps": { "className": "col-lg-3 col-md-4" }
        },
        {
          "name": "authorizationTypeCode",
          "layoutProps": { "className": "col-lg-6 col-md-8" }
        }
      ]
    }
  ]
}
