{
  "views": [
    {
      "name": "promiseToPayDetailRecurringViews",
      "layout": {
        "name": "BootstrapGridLayout",
        "layoutOptions": {
          "className": "mt-n16"
        }
      },
      "fields": [
        {
          "name": "promiseToPayAmount",
          "layoutProps": {
            "className": "col-6"
          }
        },
        {
          "name": "promiseToPayMethod",
          "layoutProps": {
            "className": "col-6"
          }
        },
        {
          "name": "promiseToPayInterval",
          "layoutProps": {
            "className": "col-6"
          }
        },
        {
          "name": "promiseToPayCount",
          "layoutProps": {
            "className": "col-6"
          }
        },
        {
          "name": "promiseToPayStartDate",
          "layoutProps": {
            "className": "col-6"
          }
        },
        {
          "name": "promiseToPayEndDate",
          "layoutProps": {
            "className": "col-6"
          }
        }
      ]
    }
  ]
}
