{
  "views": [
    {
      "name": "promiseToPayDetailSingleViews",
      "layout": {
        "name": "BootstrapGridLayout",
        "layoutOptions": {
          "className": "mt-n16"
        }
      },
      "fields": [
        {
          "name": "settlementPaymentAmountSingle",
          "layoutProps": {
            "className": "col-6"
          }
        },
        {
          "name": "promiseToPayMethodSingle",
          "layoutProps": {
            "className": "col-6"
          }
        },
        {
          "name": "paymentAmountDateSingle",
          "layoutProps": {
            "className": "col-6"
          }
        }
      ]
    }
  ]
}
