{
  "views": [
    {
      "name": "ptpHistorySingle",
      "layout": {
        "name": "BootstrapGridLayout",
        "layoutOptions": {
          "className": "mt-n16"
        }
      },
      "fields": [
        {
          "name": "ptpHistoryStatus",
          "layoutProps": {
            "className": "col-12"
          }
        },
        {
          "name": "dividerControl",
          "layoutProps": {
            "className": "col-12 mt-16"
          },
          "props": {
            "dashed": true
          }
        },
        {
          "name": "ptpHistoryPromiseDate",
          "layoutProps": {
            "className": "col-6"
          }
        },
        {
          "name": "ptpHistoryPromiseAmount",
          "layoutProps": {
            "className": "col-6"
          }
        },
        {
          "name": "ptpHistoryMethod",
          "layoutProps": {
            "className": "col-12"
          }
        },
        {
          "name": "ptpHistoryPaymentDate",
          "layoutProps": {
            "className": "col-6"
          }
        },
        {
          "name": "ptpHistoryPaymentAmount",
          "layoutProps": {
            "className": "col-6"
          }
        }
      ]
    },

    {
      "name": "ptpHistoryRecurring",
      "layout": {
        "name": "BootstrapGridLayout",
        "layoutOptions": {
          "className": "mt-n16"
        }
      },
      "fields": [
        {
          "name": "ptpHistoryStatus",
          "layoutProps": {
            "className": "col-12"
          }
        },
        {
          "name": "dividerControl",
          "layoutProps": {
            "className": "col-12 mt-16"
          },
          "props": {
            "dashed": true
          }
        },
        {
          "name": "ptpHistoryPromiseCount",
          "layoutProps": {
            "className": "col-6"
          }
        },
        {
          "name": "ptpHistoryInterval",
          "layoutProps": {
            "className": "col-6"
          }
        },
        {
          "name": "ptpHistoryTotalPromiseAmount",
          "layoutProps": {
            "className": "col-12"
          }
        },
        {
          "name": "ptpHistoryLastPaymentDate",
          "layoutProps": {
            "className": "col-6"
          }
        },
        {
          "name": "ptpHistoryLastPaymentAmount",
          "layoutProps": {
            "className": "col-6"
          }
        },
        {
          "name": "dividerControl",
          "layoutProps": {
            "className": "col-12 mt-16"
          },
          "props": {
            "dashed": true
          }
        },
        {
          "name": "ptpHistoryKeptPromiseCount",
          "layoutProps": {
            "className": "col-6"
          }
        },
        {
          "name": "ptpHistoryKeptPromiseAmount",
          "layoutProps": {
            "className": "col-6"
          }
        },
        {
          "name": "ptpHistoryBrokenPromiseCount",
          "layoutProps": {
            "className": "col-6"
          }
        },
        {
          "name": "ptpHistoryBrokenPromiseAmount",
          "layoutProps": {
            "className": "col-6"
          }
        },
        {
          "name": "ptpHistoryPendingPromiseCount",
          "layoutProps": {
            "className": "col-6"
          }
        },
        {
          "name": "ptpHistoryPendingPromiseAmount",
          "layoutProps": {
            "className": "col-6"
          }
        }
      ]
    },

    {
      "name": "ptpHistoryRecurringSnapshot",
      "layout": {
        "name": "BootstrapGridLayout",
        "layoutOptions": {
          "className": "mt-n16"
        }
      },
      "fields": [
        {
          "name": "ptpHistoryType",
          "layoutProps": {
            "className": "w-md-25 w-lg-20"
          }
        },
        {
          "name": "ptpHistoryStatus",
          "layoutProps": {
            "className": "w-md-75 w-lg-80"
          }
        },
        {
          "name": "ptpHistoryPromiseCount",
          "layoutProps": {
            "className": "w-md-0 w-lg-20"
          }
        },
        {
          "name": "ptpHistoryInterval",
          "layoutProps": {
            "className": "w-md-0 w-lg-20"
          }
        },
        {
          "name": "ptpHistoryCountIntervalCombine",
          "layoutProps": {
            "className": "w-md-25 w-lg-0"
          }
        },
        {
          "name": "ptpHistoryTotalPromiseAmount",
          "layoutProps": {
            "className": "w-md-25 w-lg-20"
          }
        },
        {
          "name": "ptpHistoryLastPaymentDate",
          "layoutProps": {
            "className": "w-md-25 w-lg-20"
          }
        },
        {
          "name": "ptpHistoryLastPaymentAmount",
          "layoutProps": {
            "className": "w-md-25 w-lg-20"
          }
        }
      ]
    },

    {
      "name": "ptpHistoryNonRecurring",
      "layout": {
        "name": "BootstrapGridLayout",
        "layoutOptions": {
          "className": "mt-n16"
        }
      },
      "fields": [
        {
          "name": "ptpHistoryStatus",
          "layoutProps": {
            "className": "col-12"
          }
        },
        {
          "name": "dividerControl",
          "layoutProps": {
            "className": "col-12 mt-16"
          },
          "props": {
            "dashed": true
          }
        },
        {
          "name": "ptpHistoryPromiseCount",
          "layoutProps": {
            "className": "col-6"
          }
        },
        {
          "name": "ptpHistoryTotalPromiseAmount",
          "layoutProps": {
            "className": "col-6"
          }
        },
        {
          "name": "ptpHistoryLastPaymentDate",
          "layoutProps": {
            "className": "col-6"
          }
        },
        {
          "name": "ptpHistoryLastPaymentAmount",
          "layoutProps": {
            "className": "col-6"
          }
        },
        {
          "name": "dividerControl",
          "layoutProps": {
            "className": "col-12 mt-16"
          },
          "props": {
            "dashed": true
          }
        },
        {
          "name": "ptpHistoryKeptPromiseCount",
          "layoutProps": {
            "className": "col-6"
          }
        },
        {
          "name": "ptpHistoryKeptPromiseAmount",
          "layoutProps": {
            "className": "col-6"
          }
        },
        {
          "name": "ptpHistoryBrokenPromiseCount",
          "layoutProps": {
            "className": "col-6"
          }
        },
        {
          "name": "ptpHistoryBrokenPromiseAmount",
          "layoutProps": {
            "className": "col-6"
          }
        },
        {
          "name": "ptpHistoryPendingPromiseCount",
          "layoutProps": {
            "className": "col-6"
          }
        },
        {
          "name": "ptpHistoryPendingPromiseAmount",
          "layoutProps": {
            "className": "col-6"
          }
        }
      ]
    },

    {
      "name": "ptpHistoryNonRecurringSnapshot",
      "layout": {
        "name": "BootstrapGridLayout",
        "layoutOptions": {
          "className": "mt-n16"
        }
      },
      "fields": [
        {
          "name": "ptpHistoryType",
          "layoutProps": {
            "className": "w-md-25 w-lg-20"
          }
        },
        {
          "name": "ptpHistoryStatus",
          "layoutProps": {
            "className": "w-md-75 w-lg-80"
          }
        },
        {
          "name": "ptpHistoryPromiseCount",
          "layoutProps": {
            "className": "w-md-25 w-lg-20"
          }
        },
        {
          "name": "ptpHistoryTotalPromiseAmount",
          "layoutProps": {
            "className": "w-md-25 w-lg-20"
          }
        },
        {
          "name": "ptpHistoryLastPaymentDate",
          "layoutProps": {
            "className": "w-md-25 w-lg-20"
          }
        },
        {
          "name": "ptpHistoryLastPaymentAmount",
          "layoutProps": {
            "className": "w-md-25 w-lg-20"
          }
        }
      ]
    }
  ]
}
