{
  "views": [
    {
      "name": "relatedAccountListView",
      "layout": {
        "name": "BootstrapGridLayout"
      },
      "fields": [
        {
          "name": "accountAccountNumber",
          "layoutProps": {
            "className": "w-xl-20 w-md-30 w-lg-25 "
          }
        },
        {
          "name": "accountSecondaryName",
          "layoutProps": {
            "className": "w-xl-20 w-md-30 w-lg-25 "
          }
        },
        {
          "name": "balanceRelatedAccount",
          "layoutProps": {
            "className": "w-xl-20 w-md-30 w-lg-25 "
          }
        },
        {
          "name": "availableCreditRelatedAccount",
          "layoutProps": {
            "className": "w-xl-20 w-md-30 w-lg-25 "
          }
        },
        {
          "name": "amountDueRelatedAccount",
          "layoutProps": {
            "className": "w-xl-20 w-md-30 w-lg-25 "
          }
        },
        {
          "name": "accountDelinquentAmount",
          "layoutProps": {
            "className": "w-xl-20 w-md-30 w-lg-25 "
          }
        },
        {
          "name": "accountDaysDelinquent",
          "layoutProps": {
            "className": "w-xl-20 w-md-30 w-lg-25 "
          }
        },
        {
          "name": "cycleCodeRelatedAccount",
          "layoutProps": {
            "className": "w-xl-20 w-md-30 w-lg-25 "
          }
        },
        {
          "name": "accountInternalStatus",
          "layoutProps": {
            "className": "w-xl-20 w-md-30 w-lg-25 "
          }
        },
        {
          "name": "accountExternalStatus",
          "layoutProps": {
            "className": "w-xl-20 w-md-30 w-lg-25 "
          }
        },
        {
          "name": "creditLimitRelatedAccount",
          "layoutProps": {
            "className": "w-xl-20 w-md-30 w-lg-25 "
          }
        },
        {
          "name": "openDateRelatedAccount",
          "layoutProps": {
            "className": "w-xl-20 w-md-30 w-lg-25 "
          }
        },
        {
          "name": "paymentDueDateRelatedAccount",
          "layoutProps": {
            "className": "w-xl-20 w-md-30 w-lg-25 "
          }
        }
      ]
    }
  ]
}
