[
  {
    "id": "ppsNonRecurringMultiplePromise",
    "name": "ppsNonRecurringMultiplePromise",
    "label": "txt_pm_non_recurring_multiple_promise"
  },
  {
    "id": "ppsPromiseToPay",
    "name": "ppsPromiseToPay",
    "label": "txt_pp_promise_to_pay"
  },
  {
    "id": "ppsRecurringMultiplePromise",
    "name": "ppsRecurringMultiplePromise",
    "label": "txt_pr_recurring_multiple_promise"
  }
]
