{
  "queueDetails": [
    {
      "accessLevel": "UPDATE",
      "agentId": "$ALL",
      "ascendingOrder": false,
      "assignedTo": "Nate Nash",
      "autoUserAssign": false,
      "clientId": "8997",
      "collectorPromiseStats": {
        "brokenAmount": "0.00",
        "brokenPromises": "0",
        "keptAmount": "70.00",
        "keptPromises": "3",
        "pendingAmount": "12.00",
        "pendingPromises": "1",
        "totalAmount": "82.00",
        "totalPromises": "4"
      },
      "collectorQueueStats": {
        "accountsWorked": "2",
        "amountCollected": "100.00",
        "totalAccounts": "5",
        "totalAmount": "200"
      },
      "isAscendingOrder": false,
      "lastWorkDate": "07/27/2021",
      "principleId": "$ALL",
      "queueGroupIdOwner": "FD - ADMIN",
      "queueId": "163299977456",
      "queueName": "NonVerifiedDeceased",
      "queueType": "Pull",
      "sortWith": "CURR_BALANCE",
      "systemId": "$ALL",
      "totalNumbersOfAccount": "4",
      "totalOutstandingBalanceAmount": 455761.58749992633,
      "userId": "NSA1"
    },
    {
      "accessLevel": "UPDATE",
      "agentId": "$ALL",
      "ascendingOrder": false,
      "assignedTo": "Nate Nash",
      "autoUserAssign": false,
      "clientId": "8997",
      "collectorPromiseStats": {
        "brokenAmount": "0.00",
        "brokenPromises": "0",
        "keptAmount": "70.00",
        "keptPromises": "3",
        "pendingAmount": "12.00",
        "pendingPromises": "1",
        "totalAmount": "82.00",
        "totalPromises": "4"
      },
      "collectorQueueStats": {
        "accountsWorked": "2",
        "amountCollected": "100.00",
        "totalAccounts": "5",
        "totalAmount": "200"
      },
      "isAscendingOrder": false,
      "lastWorkDate": "07/27/2021",
      "principleId": "$ALL",
      "queueGroupIdOwner": "FD - ADMIN",
      "queueId": "163299977744",
      "queueName": "Lost Account",
      "queueType": "Pull",
      "sortWith": "CURR_BALANCE",
      "systemId": "$ALL",
      "totalNumbersOfAccount": "4",
      "totalOutstandingBalanceAmount": 455761.58749992633,
      "userId": "NSA1"
    },
    {
      "accessLevel": "UPDATE",
      "agentId": "$ALL",
      "ascendingOrder": false,
      "assignedTo": "Nate Nash",
      "autoUserAssign": false,
      "clientId": "8997",
      "collectorPromiseStats": {
        "brokenAmount": "0.00",
        "brokenPromises": "0",
        "keptAmount": "70.00",
        "keptPromises": "3",
        "pendingAmount": "12.00",
        "pendingPromises": "1",
        "totalAmount": "82.00",
        "totalPromises": "4"
      },
      "collectorQueueStats": {
        "accountsWorked": "2",
        "amountCollected": "100.00",
        "totalAccounts": "5",
        "totalAmount": "200"
      },
      "isAscendingOrder": false,
      "lastWorkDate": "07/27/2021",
      "principleId": "$ALL",
      "queueGroupIdOwner": "FD - ADMIN",
      "queueId": "163299977111",
      "queueName": "Deceased",
      "queueType": "Pull",
      "sortWith": "CURR_BALANCE",
      "systemId": "$ALL",
      "totalNumbersOfAccount": "4",
      "totalOutstandingBalanceAmount": 455761.58749992633,
      "userId": "NSA1"
    },
    {
      "accessLevel": "UPDATE",
      "agentId": "$ALL",
      "ascendingOrder": false,
      "assignedTo": "Nate Nash",
      "autoUserAssign": false,
      "clientId": "8997",
      "collectorPromiseStats": {
        "brokenAmount": "0.00",
        "brokenPromises": "0",
        "keptAmount": "70.00",
        "keptPromises": "3",
        "pendingAmount": "12.00",
        "pendingPromises": "1",
        "totalAmount": "82.00",
        "totalPromises": "4"
      },
      "collectorQueueStats": {
        "accountsWorked": "2",
        "amountCollected": "100.00",
        "totalAccounts": "5",
        "totalAmount": "200"
      },
      "isAscendingOrder": false,
      "lastWorkDate": "07/27/2021",
      "principleId": "$ALL",
      "queueGroupIdOwner": "FD - ADMIN",
      "queueId": "163299977555",
      "queueName": "Pending Closure Refund",
      "queueType": "Pull",
      "sortWith": "CURR_BALANCE",
      "systemId": "$ALL",
      "totalNumbersOfAccount": "4",
      "totalOutstandingBalanceAmount": 455761.58749992633,
      "userId": "NSA1"
    },
    {
      "accessLevel": "UPDATE",
      "agentId": "$ALL",
      "ascendingOrder": false,
      "assignedTo": "Nate Nash",
      "autoUserAssign": false,
      "clientId": "8997",
      "collectorPromiseStats": {
        "brokenAmount": "0.00",
        "brokenPromises": "0",
        "keptAmount": "70.00",
        "keptPromises": "3",
        "pendingAmount": "12.00",
        "pendingPromises": "1",
        "totalAmount": "82.00",
        "totalPromises": "4"
      },
      "collectorQueueStats": {
        "accountsWorked": "2",
        "amountCollected": "100.00",
        "totalAccounts": "5",
        "totalAmount": "200"
      },
      "isAscendingOrder": false,
      "lastWorkDate": "07/27/2021",
      "principleId": "$ALL",
      "queueGroupIdOwner": "FD - ADMIN",
      "queueId": "163299977999",
      "queueName": "Incarcerated Warehouse",
      "queueType": "Pull",
      "sortWith": "CURR_BALANCE",
      "systemId": "$ALL",
      "totalNumbersOfAccount": "4",
      "totalOutstandingBalanceAmount": 455761.58749992633,
      "userId": "NSA1"
    },
    {
      "accessLevel": "UPDATE",
      "agentId": "$ALL",
      "ascendingOrder": false,
      "assignedTo": "Nate Nash",
      "autoUserAssign": false,
      "clientId": "8997",
      "collectorPromiseStats": {
        "brokenAmount": "0.00",
        "brokenPromises": "0",
        "keptAmount": "70.00",
        "keptPromises": "3",
        "pendingAmount": "12.00",
        "pendingPromises": "1",
        "totalAmount": "82.00",
        "totalPromises": "4"
      },
      "collectorQueueStats": {
        "accountsWorked": "2",
        "amountCollected": "100.00",
        "totalAccounts": "5",
        "totalAmount": "200"
      },
      "isAscendingOrder": false,
      "lastWorkDate": "07/27/2021",
      "principleId": "$ALL",
      "queueGroupIdOwner": "FD - ADMIN",
      "queueId": "163299977000",
      "queueName": "NonVerifiedDeceased New",
      "queueType": "Pull",
      "sortWith": "CURR_BALANCE",
      "systemId": "$ALL",
      "totalNumbersOfAccount": "4",
      "totalOutstandingBalanceAmount": 455761.58749992633,
      "userId": "NSA1"
    },
    {
      "accessLevel": "UPDATE",
      "agentId": "$ALL",
      "ascendingOrder": false,
      "assignedTo": "Nate Nash",
      "autoUserAssign": false,
      "clientId": "8997",
      "collectorPromiseStats": {
        "brokenAmount": "0.00",
        "brokenPromises": "0",
        "keptAmount": "70.00",
        "keptPromises": "3",
        "pendingAmount": "12.00",
        "pendingPromises": "1",
        "totalAmount": "82.00",
        "totalPromises": "4"
      },
      "collectorQueueStats": {
        "accountsWorked": "2",
        "amountCollected": "100.00",
        "totalAccounts": "5",
        "totalAmount": "200"
      },
      "isAscendingOrder": false,
      "lastWorkDate": "07/27/2021",
      "principleId": "$ALL",
      "queueGroupIdOwner": "FD - ADMIN",
      "queueId": "163299977990",
      "queueName": "NonVerifiedDeceased New123",
      "queueType": "Pull",
      "sortWith": "CURR_BALANCE",
      "systemId": "$ALL",
      "totalNumbersOfAccount": "4",
      "totalOutstandingBalanceAmount": 455761.58749992633,
      "userId": "NSA1"
    },
    {
      "accessLevel": "UPDATE",
      "agentId": "$ALL",
      "ascendingOrder": false,
      "assignedTo": "Nate Nash",
      "autoUserAssign": false,
      "clientId": "8997",
      "collectorPromiseStats": {
        "brokenAmount": "0.00",
        "brokenPromises": "0",
        "keptAmount": "70.00",
        "keptPromises": "3",
        "pendingAmount": "12.00",
        "pendingPromises": "1",
        "totalAmount": "82.00",
        "totalPromises": "4"
      },
      "collectorQueueStats": {
        "accountsWorked": "2",
        "amountCollected": "100.00",
        "totalAccounts": "5",
        "totalAmount": "200"
      },
      "isAscendingOrder": false,
      "lastWorkDate": "07/27/2021",
      "principleId": "$ALL",
      "queueGroupIdOwner": "FD - ADMIN",
      "queueId": "163299977123",
      "queueName": "NonVerifiedDeceased Update",
      "queueType": "Pull",
      "sortWith": "CURR_BALANCE",
      "systemId": "$ALL",
      "totalNumbersOfAccount": "4",
      "totalOutstandingBalanceAmount": 455761.58749992633,
      "userId": "NSA1"
    },
    {
      "accessLevel": "UPDATE",
      "agentId": "$ALL",
      "ascendingOrder": false,
      "assignedTo": "Nate Nash",
      "autoUserAssign": false,
      "clientId": "8997",
      "collectorPromiseStats": {
        "brokenAmount": "0.00",
        "brokenPromises": "0",
        "keptAmount": "70.00",
        "keptPromises": "3",
        "pendingAmount": "12.00",
        "pendingPromises": "1",
        "totalAmount": "82.00",
        "totalPromises": "4"
      },
      "collectorQueueStats": {
        "accountsWorked": "2",
        "amountCollected": "100.00",
        "totalAccounts": "5",
        "totalAmount": "200"
      },
      "isAscendingOrder": false,
      "lastWorkDate": "07/27/2021",
      "principleId": "$ALL",
      "queueGroupIdOwner": "FD - ADMIN",
      "queueId": "163299979910",
      "queueName": "NonVerifiedDeceased xxx",
      "queueType": "Pull",
      "sortWith": "CURR_BALANCE",
      "systemId": "$ALL",
      "totalNumbersOfAccount": "4",
      "totalOutstandingBalanceAmount": 455761.58749992633,
      "userId": "NSA1"
    },
    {
      "accessLevel": "UPDATE",
      "agentId": "$ALL",
      "ascendingOrder": false,
      "assignedTo": "Nate Nash",
      "autoUserAssign": false,
      "clientId": "8997",
      "collectorPromiseStats": {
        "brokenAmount": "0.00",
        "brokenPromises": "0",
        "keptAmount": "70.00",
        "keptPromises": "3",
        "pendingAmount": "12.00",
        "pendingPromises": "1",
        "totalAmount": "82.00",
        "totalPromises": "4"
      },
      "collectorQueueStats": {
        "accountsWorked": "2",
        "amountCollected": "100.00",
        "totalAccounts": "5",
        "totalAmount": "200"
      },
      "isAscendingOrder": false,
      "lastWorkDate": "07/27/2021",
      "principleId": "$ALL",
      "queueGroupIdOwner": "FD - ADMIN",
      "queueId": "163299971143",
      "queueName": "NonVerifiedDeceased xx1",
      "queueType": "Pull",
      "sortWith": "CURR_BALANCE",
      "systemId": "$ALL",
      "totalNumbersOfAccount": "4",
      "totalOutstandingBalanceAmount": 455761.58749992633,
      "userId": "NSA1"
    },
    {
      "accessLevel": "UPDATE",
      "agentId": "$ALL",
      "ascendingOrder": false,
      "assignedTo": "Nate Nash",
      "autoUserAssign": false,
      "clientId": "8997",
      "collectorPromiseStats": {
        "brokenAmount": "0.00",
        "brokenPromises": "0",
        "keptAmount": "70.00",
        "keptPromises": "3",
        "pendingAmount": "12.00",
        "pendingPromises": "1",
        "totalAmount": "82.00",
        "totalPromises": "4"
      },
      "collectorQueueStats": {
        "accountsWorked": "2",
        "amountCollected": "100.00",
        "totalAccounts": "5",
        "totalAmount": "200"
      },
      "isAscendingOrder": false,
      "lastWorkDate": "07/27/2021",
      "principleId": "$ALL",
      "queueGroupIdOwner": "FD - ADMIN",
      "queueId": "163299977617",
      "queueName": "NonVerifiedDeceased xx3",
      "queueType": "Pull",
      "sortWith": "CURR_BALANCE",
      "systemId": "$ALL",
      "totalNumbersOfAccount": "4",
      "totalOutstandingBalanceAmount": 455761.58749992633,
      "userId": "NSA1"
    },
    {
      "accessLevel": "UPDATE",
      "agentId": "$ALL",
      "ascendingOrder": false,
      "assignedTo": "Nate Nash",
      "autoUserAssign": false,
      "clientId": "8997",
      "collectorPromiseStats": {
        "brokenAmount": "0.00",
        "brokenPromises": "0",
        "keptAmount": "70.00",
        "keptPromises": "3",
        "pendingAmount": "12.00",
        "pendingPromises": "1",
        "totalAmount": "82.00",
        "totalPromises": "4"
      },
      "collectorQueueStats": {
        "accountsWorked": "2",
        "amountCollected": "100.00",
        "totalAccounts": "5",
        "totalAmount": "200"
      },
      "isAscendingOrder": false,
      "lastWorkDate": "07/27/2021",
      "principleId": "$ALL",
      "queueGroupIdOwner": "FD - ADMIN",
      "queueId": "163299978801",
      "queueName": "NonVerifiedDeceased xx4",
      "queueType": "Pull",
      "sortWith": "CURR_BALANCE",
      "systemId": "$ALL",
      "totalNumbersOfAccount": "4",
      "totalOutstandingBalanceAmount": 455761.58749992633,
      "userId": "NSA1"
    },
    {
      "accessLevel": "UPDATE",
      "agentId": "$ALL",
      "ascendingOrder": false,
      "assignedTo": "Nate Nash",
      "autoUserAssign": false,
      "clientId": "8997",
      "collectorPromiseStats": {
        "brokenAmount": "0.00",
        "brokenPromises": "0",
        "keptAmount": "70.00",
        "keptPromises": "3",
        "pendingAmount": "12.00",
        "pendingPromises": "1",
        "totalAmount": "82.00",
        "totalPromises": "4"
      },
      "collectorQueueStats": {
        "accountsWorked": "2",
        "amountCollected": "100.00",
        "totalAccounts": "5",
        "totalAmount": "200"
      },
      "isAscendingOrder": false,
      "lastWorkDate": "07/27/2021",
      "principleId": "$ALL",
      "queueGroupIdOwner": "FD - ADMIN",
      "queueId": "163299974412",
      "queueName": "NonVerifiedDeceased xx5",
      "queueType": "Pull",
      "sortWith": "CURR_BALANCE",
      "systemId": "$ALL",
      "totalNumbersOfAccount": "4",
      "totalOutstandingBalanceAmount": 455761.58749992633,
      "userId": "NSA1"
    }
  ]
}
