{
  "defaultFields": {
    "callingApplication": "0002"
  },
  "selectFields": [
    "bankruptcyCaseIdentifier",
    "bankruptcyChapterCode",
    "attorneyName",
    "attorneyPhoneNumber",
    "bankruptcyAssetIndicator",
    "bankruptcyFileDate",
    "bankruptcyCurrentBalanceAmount",
    "bankruptcyProSeIndicator",
    "bankruptcyDismissalDate",
    "bankruptcyDischargeDate",
    "bankruptcyCloseDate",
    "bankruptcyReopenDate",
    "bankruptcyConversationDate",
    "bankruptcyReaffirmedDate",
    "bankruptcyConfirmationDate",
    "proofOfClaimBarcodeDate",
    "voluntarySurrenderIndicator",
    "accountNonfilerIndicator",
    "accountNonfilerCollectibleIndicator",
    "accountSettledAmount",
    "accountRedeemedAmount",
    "originalPlanAmount",
    "planDifferenceAmount",
    "planPaymentAmount",
    "primaryConsumerInformationIndicatorCode",
    "primaryCreditBureauReportCode",
    "secondaryConsumerInformationIndicatorCode",
    "secondaryCreditBureauReportCode",
    "attorneyAddressLine1Text",
    "attorneyAddressLine2Text",
    "attorneyCityName",
    "attorneyStateCode",
    "attorneyPostalCode",
    "trusteeName",
    "trusteePhoneNumber",
    "trusteeAddressLine1Text",
    "trusteeAddressLine2Text",
    "trusteeCityName",
    "trusteeStateCode",
    "trusteePostalCode",
    "clerkCourtName",
    "clerkCourtPhoneNumber",
    "clerkCourtAddressLine1Text",
    "clerkCourtAddressLine2Text",
    "clerkCourtCityName",
    "clerkCourtStateCode",
    "clerkCourtPostalCode"
  ],
  "mappingFields": {
    "bankruptcyCurrentBalanceAmount": "currentBalanceAmount",
    "primaryConsumerInformationIndicatorCode": "primaryConsumerInformationIndicatorCd",
    "secondaryConsumerInformationIndicatorCode": "secondaryConsumerInformationIndicatorCd",
    "proofOfClaimBarcodeDate": "proofOfClaimBarDate",
    "attorneyAddressLine1Text": "attorneyAddressLineOneText",
    "attorneyAddressLine2Text": "attorneyAddressLineTwoText",
    "trusteeAddressLine1Text": "trusteeAddressLineOneText",
    "trusteeAddressLine2Text": "trusteeAddressLineTwoText",
    "clerkCourtAddressLine1Text": "clerkCourtAddressLineOneText",
    "clerkCourtAddressLine2Text": "clerkCourtAddressLineTwoText"
  }
}