{
  "api": {
    "common": {
      "accessToken": "fs/acctoken/v1/get",
      "renewToken": "fs/token/v6/renew",
      "getESSToken": "security-web/rest/jwtservice/59",
      "entitlement": "fs/collectionsEntitlements/v1/user",
      "saveUserEntitlement": "fs/collectionsEntitlements/v1/save",
      "refEntitlement": "refData/entitlement/roleEntitlement.json",
      "getUserEntitlement": "fs/collectionsEntitlements/v1/get"
    },
    "clientConfigMemos": {
      "getMemoConfig": "fs/collectionsClientConfig/v1/user",
      "getMemosConfig": "fs/collectionsClientConfig/v1/get",
      "saveMemosConfig": "fs/collectionsClientConfig/v1/save"
    },
    "account": {
      "searchAccount": "fs/collectionsAccounts/v1/accountSearch",
      "getAccountDetails": "fs/collectionsAccounts/v1/accountDetails",
      "getAuthenticationConfig": "fs/collectionsClientConfig/v1/user",
      "getExternalConfig": "fs/collectionsClientConfig/v1/user",
      "getOverviewAccount": "fs/collectionsAccounts/v1/accountDetails",
      "getOverviewCollection": "fs/collectionsAccounts/v1/accountDetails",
      "getExternalStatusRefData": "refData/externalStatus.json",
      "getExternalStatusReasonRefData": "refData/externalStatusReason.json",
      "updateAccountExternalStatusCode": "fs/maintenance/v2/updateExternalStatusAndReasonCode",
      "getRelatedAccounts": "fs/account/v4/accountRelationships"
    },
    "pendingAuthorizations": {
      "getPendingAuthTransactionDetail": "mockApi/transaction/getPendingAuthTransactionDetail",
      "getPendingAuthTransactions": "fs/authorizations/v2/cardAuth"
    },
    "statement": {
      "getStatementMonthList": "fs/statements/v2/list",
      "getAccountStatementOverview": "fs/statements/v2/summary",
      "getAccountStatementHistory": "fs/statements/v2/cardholderStatementHistory "
    },
    "transaction": {
      "getTransactionDetail": "fs/statements/v2/transactions",
      "getTransactionList": "fs/statements/v2/transactions"
    },
    "transactionAdjustmentRequest": {
      "adjustTransaction": "fs/maintenance/v2/adjustmentTransaction",
      "rejectAdjustment": "fs/adjustments/v2/rejectAdjustment",
      "approveAdjustment": "fs/adjustments/v2/approveAdjustment",
      "pendingQueue": "fs/adjustments/v2/pendingQueue",
      "approvedQueue": "fs/adjustments/v2/approvedQueue",
      "rejectedQueue": "fs/adjustments/v2/rejectedQueue"
    },
    "adjustmentTransactionConfig": {
      "getAdjustmentConfiguration": "mockApi/clientConfig/clientConfigAdjustmentTransactionList",
      "addAdjustmentConfiguration": "mockApi/clientConfig/addClientConfigAdjustmentTransaction",
      "deleteAdjustmentConfiguration": "mockApi/clientConfig/deleteClientConfigAdjustmentTransaction",
      "editAdjustmentConfiguration": "mockApi/clientConfig/editClientConfigAdjustmentTransaction"
    },
    "configViewEntitlement": {
      "getInfo": "mockApi/configEntitlement/getInfoAccountSnapshot",
      "updateInfo": "mockApi/configEntitlement/updateInfoAccountSnapshot"
    },
    "clientConfigAuthentication": {
      "submitAuthentication": "fs/collectionsClientConfig/v1/save",
      "getAuthenticationConfig": "fs/collectionsClientConfig/v1/get"
    },
    "clientConfigPromiseToPay": {
      "submitPromiseToPay": "fs/caseManagement/v1/additionalClientInfoUpdate"
    },
    "collectionForm": {
      "bankruptcyInformation": "fs/collectionsBkcy/v1/bankruptcyInformation",
      "bankruptcyUpdateWorkflow": "fs/collectionsBkcy/v1/bankruptcyUpdateWorkflow",
      "bankruptcyInformationDelete": "fs/collectionsBkcy/v1/bankruptcyUpdateWorkflow",
      "getCreditBureauCodeRefData": "refData/creditBureauCode.json",
      "updateActionEntryWorkFlow": "fs/collectionsActionEntry/v1/actionEntryCreateWorkflow",
      "getCallResultsRefData": "fs/caseManagement/v1/clientInfoGetById",
      "getDetailCallResultType": "mockApi/collectionForm/getDetailCallResultType",
      "addSinglePromiseToPay": "fs/collectionsPtp/v1/ptpCreateWorkflow",
      "addRecurringPromiseToPay": "fs/collectionsPtp/v1/ptpCreateRecurringWorkflow",
      "addCustomPromiseToPay": "fs/collectionsPtp/v1/ptpCreateNonRecurringWorkflow",
      "getPromiseToPay": "fs/collectionsPtp/v1/ptpAgreementDetails",
      "getPromiseToPayConfig": "fs/caseManagement/v1/clientInfoGetById",
      "getPromiseToPayMethod": "refData/promiseToPayMethod.json",
      "removeBankruptcyStatus": "mockApi/collectionForm/removeCallResultStatus",
      "removeStatusCallResult": "mockApi/collectionForm/removeCallResultStatus",
      "getTalkingPoint": "fs/collectionsTalkingPoints/v1/getTalkingPointsByAccount",
      "updateNextWorkDate": "/fs/maintenance/v2/nextWorkDate",
      "updateMoveToQueCode": "/fs/nonmonetary/v1/assignPermanentCollectorCode",
      "actionEntry": "fs/collections/v1/actionEntry",
      "getLast25Actions": "fs/collections/v1/actionEntry",
      "getDescriptionCodeForLast25Actions": "fs/caseManagement/v1/clientInfoGetById",
      "uploadCaseDocument": "fs/documentStorage/v1/caseDocumentUploadService",
      "getCaseDocumentList": "fs/documentStorage/v1/caseDocumentDetailList",
      "downloadCaseDocument": "fs/documentStorage/v1/documentDownloadService",
      "getMilitaryFile": "mockApi/files/getCertificate",
      "uploadMilitaryFiles": "mockApi/files/uploadCertificate",
      "removeDeathCertificates": "mockApi/files/removeCertificate",
      "getLongTermMedical": "fs/collectionsLongTermMedical/v1/longTermMedicalDetails",
      "updateLongTermMedical": "fs/collectionsLongTermMedical/v1/longTermMedicalAddUpdateWorkflow",
      "removeLongTermMedical": "fs/collectionsLongTermMedical/v1/longTermMedicalDeleteWorkflow",
      "getIncarceration": "fs/collectionsIncarceration/v1/incarcerationDetails",
      "updateIncarceration": "fs/collectionsIncarceration/v1/incarcerationAddUpdateWorkflow",
      "removeIncarceration": "fs/collectionsIncarceration/v1/incarcerationDeleteWorkflow",
      "getDetailsHardship": "fs/collectionsHardship/v1/hardshipDetails",
      "setupHardship": "fs/collectionsHardship/v1/hardshipSetup",
      "getHardshipDebtManagementDetails": "fs/collectionsHardship/v1/hardshipDebtManagementDetails",
      "removeHardship": "fs/collectionsHardship/v1/hardshipRemoval",
      "getCCCSDetail": "fs/collectionsCccs/v1/cccsDetails",
      "updatePendingCCCS": "fs/collectionsCccs/v1/cccsPending",
      "updateAcceptProposalCCCS": "fs/collectionsCccs/v1/cccsAccept",
      "updateDeclineProposalCCCS": "fs/collectionsCccs/v1/cccsDecline",
      "updateDiscontinuePlanCCCS": "fs/collectionsCccs/v1/cccsDiscontinue",
      "getSettlementInformation": "fs/collectionsSettlements/v1/settlementOffer",
      "getSettlement": "fs/collectionsSettlements/v1/settlementAgreementDetails",
      "updateSettlement": "mockApi/collectionForm/updateSettlement",
      "updateSettlementSingle": "fs/collectionsSettlements/v1/settlementSinglePtpWorkflow",
      "updateSettlementRecurring": "fs/collectionsSettlements/v1/settlementRecurringPtpWorkflow",
      "updateSettlementNonRecurring": "fs/collectionsSettlements/v1/settlementNonRecurringPtpWorkflow"
    },
    "refData": {
      "getState": "refData/USAState.json",
      "getAssets": "refData/assets.json",
      "getProSE": "refData/proSE.json"
    },
    "memo": {
      "getChronicleMemosList": "fs/memos/v1/chronicleLookup",
      "addChronicleMemo": "fs/memos/v1/chronicleAdd",
      "updateChronicleMemo": "fs/memos/v1/chronicleUpdate",
      "deleteChronicleMemo": "fs/memos/v1/chronicleDelete",
      "getMemoChronicleBehaviors": "fs/memos/v1/chronicleBehaviors",
      "getMemoChronicleFilters": "fs/memos/v1/chronicleFilters",
      "getMemoConfig": "fs/utilities/v4/pcfControls",
      "getCISMemos": "fs/cisMemos/v1/cisLookup",
      "addCISMemo": "fs/cisMemos/v1/cisAdd",
      "deleteCISMemo": "fs/cisMemos/v1/cisDelete",
      "updateCISMemo": "fs/cisMemos/v1/cisUpdate",
      "CISSource": "refData/CISSource.json",
      "CISType": "refData/CISType.json"
    },
    "payment": {
      "getConvenienceFee": "fs/paymentsOrchestration/v2/calculateConvenienceFee",
      "submitACHMakePayment": "fs/payments/v2/initiateDemandAchPayment",
      "submitScheduleMakePayment": "fs/paymentsOrchestration/v2/makeRegisteredPayment",
      "getPayments": "fs/paymentsOrchestration/v1/retrieveRecentPayments",
      "checkPaymentListPendingStatus": "fs/paymentsOrchestration/v1/retrieveRecentPayments",
      "getPaymentViewMore": "fs/ecsdata/v1/findFinancialPaymentInfo",
      "getBankAccounts": "fs/paymentsOrchestration/v1/registrationLookupCx",
      "getDetailPaymentInfo": "fs/collectionsAccounts/v1/accountDetails",
      "getDetailAccountPaymentInfo": "mockApi/payment/getDetailAccountPaymentInfo",
      "deleteRegisteredAccount": "fs/paymentsOrchestration/v1/registrationCrd",
      "validateBankAccountInfo": "fs/ecsdata/v1/findFinancialPaymentInfo",
      "registerBankAccount": "fs/paymentsOrchestration/v1/registrationCrd",
      "cancelPendingPayments": "fs/paymentsOrchestration/v1/cancelMultiplePayments",
      "getACHPayment": "mockApi/payment/getACHPayment",
      "verifyACHBankAccount": "fs/ecsdata/v1/findFinancialPaymentInfo",
      "addACHBankAccount": "fs/payments/v2/method",
      "getACHBankAccount": "fs/collectionsAccounts/v1/accountDetails",
      "updateACHBankAccount": "fs/payments/v2/method",
      "getACHPaymentInformation": "mockApi/payment/getACHPaymentInformationRefData",
      "deleteACHBankAccount": "mockApi/payment/deleteACHBankAccount",
      "getPaymentHistory": "fs/payments/v2/paymentHistory",
      "getCardInfoACH": "fs/ecsdata/v1/findFinancialPaymentInfo",
      "getBankInfoACH": "fs/collectionsAccounts/v1/accountDetails"
    },
    "sendLetter": {
      "getLetters": "fs/caseManagement/v1/getLetterConfigList",
      "getPendingLetters": "fs/statements/v2/letterPending",
      "deletePendingLetter": "fs/maintenance/v2/deleteLetter"
    },
    "clientContactInfo": {
      "getClientContactInfo": "fs/caseManagement/v1/panelContentGetById"
    },
    "i18next": {
      "getMultipleLanguage": "mockApi/multipleLanguage/getMultipleLanguage"
    },
    "cardholdersMaintenance": {
      "checkTypeAddress": "fs/utilities/v4/pcfControls",
      "getCardholderMaintenance": "fs/collectionsAccounts/v1/accountDetails",
      "update": "fs/maintenance/v2/customerUpdate",
      "addStandardAddress": "fs/maintenance/v2/updateUnusualAddress",
      "editStandardAddress": "fs/maintenance/v2/updateUnusualAddress",
      "getStatesByCountry": "mockApi/cardholderMaintenance/getStatesByCountry",
      "getStandardAddressHistory": "fs/customer/v4/addressHistory",
      "addAndUpdateExpandedAddress": "fs/maintenance/v2/updateCustomerAddress ",
      "deleteAddressExpandedAddress": "fs/maintenance/v2/deleteCustomerAddress",
      "getExpandedAddressHistory": "/fs/customer/v4/addressHistory",
      "getAddressInfo": "fs/customer/v4/universalAddressInquiry"
    },
    "letter": {
      "sendLetter": "fs/maintenance/v2/generateLetter",
      "letterInquiry": "fs/collectionsLetters/v1/letterInquiry"
    },
    "company": {
      "getCompanyList": "fs/caseManagement/v1/clientInfoGetById",
      "addCompany": "fs/caseManagement/v1/additionalClientInfoUpdate",
      "updateCompany": "fs/caseManagement/v1/additionalClientInfoUpdate"
    },
    "deceased": {
      "deceasedInformation": "fs/collectionsDeceased/v1/deceasedInformation",
      "deceasedCreateWorkflow": "fs/collectionsDeceased/v1/deceasedCreateWorkflow"
    },
    "nextActions": {
      "getNextAccount": "mockApi/nextActions/getNextAccount"
    },
    "callerAuthentication": {
      "getCallerAuthentication": "fs/collectionsAccounts/v1/accountDetails",
      "updateCallerAuthentication": "mockApi/authenticationCaller/updateAuthenticationCaller",
      "getAddressInfo": "fs/customer/v4/universalAddressInquiry",
      "checkTypeAddress": "fs/utilities/v4/pcfControls",
      "getPostalCodeList": "refData/postalCode.json"
    },
    "timerWorking": {
      "logWorkingTime": "fs/collectionsCallTimer/v1/callTimerWorkflow",
      "getTimerConfig": "fs/collectionsClientConfig/v1/user"
    },
    "accessConfig": {
      "getAccessConfig": "fs/collectionsClientConfig/v1/getAccessConfig"
    },
    "clientConfig": {
      "clientInfoGetList": "fs/caseManagement/v1/clientInfoGetList",
      "getSectionList": "refData/sections.json",
      "add": "fs/caseManagement/v1/clientInfoCreate",
      "update": "fs/caseManagement/v1/clientInfoUpdate",
      "addUpdateClientInfo": "fs/caseManagement/v1/additionalClientInfoUpdate",
      "getClientInfoById": "fs/caseManagement/v1/clientInfoGetById",
      "changeStatusClientConfig": "fs/caseManagement/v1/clientInfoUpdate",
      "getCollectionsClientConfig": "fs/collectionsClientConfig/v1/get",
      "saveCollectionsClientConfig": "fs/collectionsClientConfig/v1/save",
      "getAccessConfig": "fs/collectionsClientConfig/v1/getAccessConfig"
    },
    "contactAndAccountEntitlement": {
      "getContactAccListCSPA": "fs/caseManagement/v1/clientInfoGetList",
      "getContactAccEntitlement": "fs/collectionsClientConfig/v1/get",
      "updateContactAccEntitlement": "fs/collectionsClientConfig/v1/save"
    },
    "getClientConfigurationTalkingPoint": {
      "getClientConfigTalkingPoint": "fs/caseManagement/v1/panelContentGetById",
      "getPanelContent": "fs/caseManagement/v1/panelContentGetList",
      "updateClientConfigTalkingPoint": "fs/caseManagement/v1/panelContentUpdate"
    },
    "clientConfigAccountExternalStatus": {
      "getReasonCode": "mockApi/clientConfigAccountExternalStatus/getReasonCode",
      "getAccountExternalStatus": "mockApi/clientConfigAccountExternalStatus/getAccountExternalStatus",
      "addReasonCode": "mockApi/clientConfigAccountExternalStatus/addReasonCode",
      "editReasonCode": "mockApi/clientConfigAccountExternalStatus/editReasonCode",
      "deleteReasonCode": "mockApi/clientConfigAccountExternalStatus/deleteReasonCode",
      "saveExternalStatus": "mockApi/clientConfigAccountExternalStatus/saveExternalStatus"
    },
    "clientConfigCodeToText": {
      "getListDropDownCodeToText": "mockApi/clientConfigCodeToText/getListDropDownCodeToText",
      "postListData": "mockApi/clientConfigCodeToText/postListData",
      "addCodeToText": "mockApi/clientConfigCodeToText/addCodeToText",
      "deleteCodeToText": "mockApi/clientConfigCodeToText/deleteCodeToText",
      "editCodeToText": "mockApi/clientConfigCodeToText/editCodeToText"
    },
    "clientConfigCallResult": {
      "getList": "mockApi/clientConfigCallResults/getList",
      "add": "mockApi/clientConfigCallResults/add",
      "update": "mockApi/clientConfigCallResults/update",
      "delete": "mockApi/clientConfigCallResults/delete",
      "reactive": "mockApi/clientConfigCallResults/reactive"
    },
    "clientConfigTimer": {
      "getTimerConfig": "fs/collectionsClientConfig/v1/get",
      "updateTimerConfig": "fs/collectionsClientConfig/v1/save"
    },
    "clientConfigClientContactInformation": {
      "getPanelContent": "fs/caseManagement/v1/panelContentGetById",
      "updatePanelContent": "fs/caseManagement/v1/panelContentUpdate"
    },
    "clientConfigClusterToQueueMapping": {
      "getClusterQueueAssignmentMethod": "fs/caseManagement/v1/queueDetailGetList"
    },
    "clientConfigReference": {
      "getListReference": "mockApi/clientConfigReference/getListReference",
      "updateReference": "mockApi/clientConfigReference/updateReference"
    },
    "clientConfigQueueAndRoleMapping": {
      "getQueueAndRoleMapping": "fs/collectionsEntitlements/v1/get",
      "addQueueAndRoleMapping": "fs/collectionsEntitlements/v1/save",
      "deleteQueueAndRoleMapping": "fs/collectionsEntitlements/v1/save",
      "getQueueNameList": "fs/caseManagement/v1/queueDetailGetList",
      "getUserRoleList": "mockApi/clientConfig/getUserRoleList"
    },
    "letterConfig": {
      "getLetterConfiguration": "mockApi/clientConfig/clientConfigLetterList",
      "deleteLetterConfiguration": "mockApi/clientConfig/deleteClientConfigLetter",
      "addLetterConfiguration": "mockApi/clientConfig/addClientConfigLetter",
      "editLetterConfiguration": "mockApi/clientConfig/editClientConfigLetter",
      "saveLetterConfiguration": "mockApi/clientConfig/saveClientConfigLetter",
      "getLetterCaptionFields": "refData/letterConfig/letterCaptionFields.json",
      "getGenerateLetterFieldMapping": "refData/letterConfig/generateLetterFieldMapping.json"
    },
    "sendLetterConfig": {
      "getSendLetterConfiguration": "mockApi/clientConfig/clientConfigSendLetterList",
      "deleteSendLetterConfiguration": "mockApi/clientConfig/deleteClientConfigSendLetter",
      "addSendLetterConfiguration": "mockApi/clientConfig/addClientConfigSendLetter",
      "editSendLetterConfiguration": "mockApi/clientConfig/editClientConfigSendLetter",
      "getFrequencyConfiguration": "mockApi/clientConfig/clientConfigFrequencyList",
      "deleteFrequencyConfiguration": "mockApi/clientConfig/deleteClientConfigFrequency",
      "addFrequencyConfiguration": "mockApi/clientConfig/addClientConfigFrequency",
      "editFrequencyConfiguration": "mockApi/clientConfig/editClientConfigFrequency"
    },
    "dashboard": {
      "getDashboardCallActivity": "refData/dashboard/dashboardCallActivity.json",
      "getDashboardGoal": "refData/dashboard/dashboardGoal.json",
      "getDashboardCollectorWorkStatistics": "fs/collectionsReports/v1/collectorWorkStats",
      "getDashboardSupervisorWorkStatistics": "refData/dashboard/dashboardWorkStatistics.json",
      "getDashboardWorkQueue": "fs/collectionsReports/v1/collectorWorkQueues",
      "getRecentlyWorkQueue": "fs/collectionsReports/v1/recentCollectorWorkQueues",
      "getDashboardWorkCollector": "refData/dashboard/collector/dashboardCollector.json",
      "getNextAccountWorkOnQueue": "fs/batchQueueAssignment/v1/getNextAccount",
      "getAccountExtendLockTime": "fs/batchQueueAssignment/v1/extendAccountLockTime",
      "getAccountLockStatusInquiry": "fs/batchQueueAssignment/v1/accountLockStatusInquiry",
      "getAccountLockTimeUpdate": "fs/batchQueueAssignment/v1/accountStatusUpdate",
      "updateCollectionAccount": "fs/batchQueueAssignment/v1/updateCollectionAccount"
    },
    "collectorProductivity": {
      "getTimePeriods": "refData/reporting/collectorProductivityTimePeriods.json",
      "getAdminTimePeriods": "refData/reporting/collectorProductivityTimePeriodsAdmin.json",
      "getReportTypes": "refData/reporting/reportTypes.json",
      "getStatistics": "fs/collectionsReports/v1/collectorStats"
    },
    "promisesPaymentsStatistics": {
      "getReports": "fs/collectionsReports/v1/promiseStats",
      "getCollectors": "fs/collectionsEntitlements/v1/userGroupCollectorList",
      "getTeams": "mockApi/reporting/getTeams",
      "getTimePeriods": "refData/reporting/timePeriods.json",
      "getReportTypes": "refData/reporting/reportTypes.json",
      "getPromiseTypes": "refData/reporting/promiseTypes.json",
      "getPromiseStatuses": "refData/reporting/promiseStatuses.json"
    },
    "debtManagementCompanies": {
      "getCompany": "mockApi/clientDebtManagementCompanies/companies",
      "deleteCompany": "mockApi/clientDebtManagementCompanies/deleteCompany",
      "updateCompany": "mockApi/clientDebtManagementCompanies/updateCompany"
    },
    "collector": {
      "getCollectorWorkQueue": "refData/dashboard/collector/workQueueList.json",
      "getUserList": "refData/dashboard/collector/userList.json",
      "getCollectorList": "refData/dashboard/collector/collectorList.json"
    },
    "userRoleEntitlement": {
      "getEntitlement": "fs/collectionsEntitlements/v1/get",
      "updateUserRoleEntitlement": "fs/collectionsEntitlements/v1/save"
    },
    "queueList": {
      "getQueueList": "refData/queueList.json",
      "getCollectorQueueList": "fs/batchQueueAssignment/v1/getCollectorQueues"
    },
    "clientConfigPayByPhone": {
      "submitPayByPhone": "mockApi/clientConfig/updatePaybyPhoneConfig",
      "getPayByPhoneConfig": "mockApi/clientConfig/getPaybyPhoneConfig"
    },
    "clientConfigSettlementPayment": {
      "submitSettlementPayment": "mockApi/clientConfig/updateSettlementPaymentConfig",
      "getSettlementPaymentConfig": "mockApi/clientConfig/getSettlementPaymentConfig"
    },
    "changeHistory": {
      "getChangedCategories": "refData/changeHistory/changedCategory.json",
      "getChangedHistories": "fs/collectionsClientConfig/v1/getChangeHistory",
      "addChangeHistories": "fs/collectionsClientConfig/v1/addChangeHistory",
      "getHistoryLabel": "refData/changeHistory/historyLabel.json"
    },
    "functionRuleMapping": {
      "getFunctionRuleMapping": "mockApi/clientConfig/getFunctionRuleMapping",
      "addFunctionRuleMapping": "mockApi/clientConfig/addFunctionRuleMapping",
      "editFunctionRuleMapping": "mockApi/clientConfig/editFunctionRuleMapping",
      "getReferenceDataForFunction": "refData/functionRuleMappingRefData.json"
    },
    "exceptionHandling": {
      "cspaGetList": "mockApi/exceptionHandling/cspaGetList",
      "caseDetailsSearch": "fs/caseManagement/v1/caseDetailsSearch",
      "getCaseStatuses": "refData/exceptionHandling/caseStatus.json",
      "secureArchiveRetrievalByCaseId": "fs/caseManagement/v1/secureArchiveRetrievalByCaseId",
      "reprocessCase": "fs/creEventHandler/v2/reprocessCase"
    },
    "liveVoxDialer": {
      "getSessionId": "https://api.na4.livevox.com/session/login",
      "getAgentStatus": "https://api.na4.livevox.com/callControl/agent/status",
      "getScreenPopDetails": "https://api.na4.livevox.com/callControl/agent/screenpop",
      "getTermCode": "https://api.na4.livevox.com/callControl/agent/termCode",
      "saveTermCode": "https://api.na4.livevox.com/callControl/agent/call/termCode"
    }
  },
  "mappingUrl": "mapping/all.json",
  "jwtConfig": {
    "inactiveTime": 1,
    "expTime": 2
  }
}
