{
  "selectFields": [
    "customerInquiry.currentBalanceAmount",
    "customerInquiry.creditLimitAmount",
    "customerInquiry.availableCreditAmount",
    "customerInquiry.nextPaymentDueDate",
    "customerInquiry.currentMinimumPaymentDueAmount",
    "customerInquiry.nextHeldStatementDestinationCode",
    "customerInquiry.delinquentAmount",
    "customerInquiry.daysDelinquentCount",
    "customerInquiry.lastPaymentDate",
    "customerInquiry.lastPaymentAmount",
    "customerInquiry.lastReageDate",
    "customerInquiry.reageCount",
    "customerInquiry.lastMonetaryDate",
    "customerInquiry.lastMonetaryType",
    "customerInquiry.openDate",
    "customerInquiry.openDayDate",
    "customerInquiry.collectionsEntryDate",
    "customerInquiry.creditBureauScoreNumber",
    "customerInquiry.behaviorScoreIdentifier",
    "collectionStatus.promiseToPayDate",
    "collectionStatus.promiseToPayAmount"
  ]
}