{
  "selectFields": [
    "addressCategoryCode",
    "addressTypeCode",
    "effectiveFromDate",
    "effectiveToDate",
    "addressContinuationLine1Text",
    "addressContinuationLine2Text",
    "cityName",
    "addressSubdivisionOneText",
    "postalCode"
  ]
}
