<?xml version="1.0" encoding="UTF-8"?>
<svg width="241px" height="197px" viewBox="0 0 241 197" version="1.1" xmlns="http://www.w3.org/2000/svg" xmlns:xlink="http://www.w3.org/1999/xlink">
    <!-- Generator: Sketch 61.2 (89653) - https://sketch.com -->
    <title>atom/illustration/blank-page</title>
    <desc>Created with Sketch.</desc>
    <defs>
        <polygon id="path-1" points="0.245821431 0.105203928 79.4674001 0.105203928 79.4674001 14.5610973 0.245821431 14.5610973"></polygon>
    </defs>
    <g id="[GBS-213]---[GBS-207]---1.4-No-Results" stroke="none" stroke-width="1" fill="none" fill-rule="evenodd">
        <g id="[GBS-207]-1.4.1-No-Results" transform="translate(-519.000000, -268.000000)">
            <g id="Page">
                <g id="Result-List-[80v]" transform="translate(24.000000, 136.000000)">
                    <g id="Results" transform="translate(476.000000, 116.000000)">
                        <g id="Illustration">
                            <g id="atom/illustration/blank-page" transform="translate(20.000000, 0.000000)">
                                <g id="Group" transform="translate(-1.000000, 16.000000)">
                                    <g id="Blank-Page">
                                        <g id="Shadow" transform="translate(33.297713, 160.259046)" fill="#E4E6EA">
                                            <path d="M201.778279,7.93139768 C201.778279,12.3111277 156.609487,15.8609952 100.88914,15.8609952 C45.1687922,15.8609952 0,12.3111277 0,7.93139768 C0,3.5498675 45.1687922,0 100.88914,0 C156.609487,0 201.778279,3.5498675 201.778279,7.93139768" id="Fill-127"></path>
                                            <path d="M182.75051,15.6769635 C182.75051,20.2655092 162.152899,23.9845895 136.744233,23.9845895 C111.335568,23.9845895 90.7361255,20.2655092 90.7361255,15.6769635 C90.7361255,11.0884177 111.335568,7.36933742 136.744233,7.36933742 C162.152899,7.36933742 182.75051,11.0884177 182.75051,15.6769635" id="Fill-129"></path>
                                        </g>
                                        <g id="Line" transform="translate(0.000000, 143.415395)" fill="#505A78">
                                            <path d="M192.070803,1.25725944 C194.828264,1.03934254 197.585725,0.936902974 200.343186,0.853088782 C203.098904,0.756236827 205.856365,0.745061602 208.613826,0.730161301 C211.371287,0.743199064 214.128748,0.75437429 216.884466,0.851226245 L221.020657,0.998366715 C222.399388,1.08590598 223.778118,1.13805703 225.156849,1.25725944 C223.778118,1.37459931 222.399388,1.42675036 221.020657,1.51615217 L216.884466,1.6614301 C214.128748,1.75828205 211.371287,1.76945728 208.613826,1.78249504 C205.856365,1.76945728 203.098904,1.75641952 200.343186,1.65956756 C197.585725,1.57575337 194.828264,1.4733138 192.070803,1.25725944" id="Fill-1"></path>
                                            <path d="M230.282856,1.25725944 C231.991525,0.840051019 233.700194,0.748786677 235.408863,0.730161301 C237.117532,0.746924139 238.826201,0.838188482 240.53487,1.25725944 C238.826201,1.67446786 237.117532,1.7657322 235.408863,1.78249504 C233.700194,1.76386967 231.991525,1.67260532 230.282856,1.25725944" id="Fill-3"></path>
                                            <path d="M-3.90798505e-14,0.814045338 C5.45223207,0.646184137 10.9044641,0.569587279 16.3566962,0.504398463 L32.7099097,0.40987468 L49.0648645,0.502768742 L57.2406005,0.61521945 L65.418078,0.814045338 L57.2406005,1.01287123 L49.0648645,1.12695165 L32.7099097,1.21984572 L16.3566962,1.12532193 C10.9044641,1.06013312 5.45223207,0.981906539 -3.90798505e-14,0.814045338" id="Fill-5"></path>
                                        </g>
                                        <g id="Folder" transform="translate(64.977757, 0.456095)">
                                            <path d="M2.38467822,162.81072 L2.38467822,58.0219704 C2.38467822,56.6003542 3.54467606,55.4496086 4.97363239,55.4496086 L70.9178629,55.4496086 C71.6295966,55.4496086 72.3102262,55.7422943 72.7987427,56.2567667 L81.6780321,65.5918041 C82.1683782,66.1080944 82.8490079,66.3989622 83.5607416,66.3989622 L143.725109,66.3989622 C145.154065,66.3989622 146.314063,67.5515257 146.314063,68.971324 L146.314063,85.212653 C146.314063,86.1688808 145.781635,87.0433021 144.932678,87.4886933 L6.18120112,165.084942 C4.45584156,165.98845 2.38467822,164.744991 2.38467822,162.81072" id="Fill-136" fill="#FFFFFF"></path>
                                            <path d="M2.52226787,162.81072 C2.51494927,163.90511 3.33097299,164.915875 4.39582905,165.146752 C5.49361881,165.486703 6.45052554,164.703178 7.45134387,164.159619 L13.4251498,160.76192 C17.402808,158.484062 21.4079109,156.258923 25.3544651,153.926527 L49.0996575,140.052135 C64.9114892,130.773453 80.8440778,121.712922 96.8425339,112.770556 L120.83107,99.337919 L144.600047,86.165245 C144.814116,85.974363 144.964148,85.7089462 145.011719,85.427168 C145.026356,85.356269 145.030015,85.28537 145.033674,85.2090172 L145.035504,84.7836231 L145.039163,83.9273811 L145.05746,80.5096848 L145.103201,73.6688385 L145.134305,70.2493243 L145.141624,69.3930823 L145.145283,68.9695061 C145.139794,68.8895174 145.141624,68.8113467 145.125157,68.733176 C145.081245,68.4259469 144.929384,68.1314433 144.69153,67.9151104 C144.459164,67.6933237 144.153613,67.5587974 143.831595,67.5333465 L142.192229,67.5097135 L138.752487,67.4806267 L111.218091,67.1461288 C102.038739,67.0588684 92.8612164,66.8843478 83.683694,66.8770761 C83.0488056,66.9007091 82.3297533,66.7043733 81.788177,66.308066 C81.2118374,65.8644927 80.9300714,65.451824 80.5074223,65.0373374 L78.1526633,62.5413284 L73.4468046,57.5511282 C73.0644078,57.1566388 72.6399291,56.6657995 72.2941253,56.3531166 C71.9245361,56.0458875 71.4469976,55.867731 70.9657997,55.8640952 L67.5315474,55.8840923 L60.6484057,55.9222687 C42.293361,55.9604451 23.9364867,56.4094723 5.57961234,56.5785391 C4.90081234,56.5749033 4.67393579,56.5749033 4.37204361,56.7203372 C4.08112932,56.8475918 3.84327488,57.0930115 3.69873256,57.3693359 C3.54321234,57.7111055 3.5340641,57.8201809 3.54504199,58.509174 L3.55236059,60.2180221 L3.58346463,67.0588684 C3.60725008,71.6182207 3.63652447,76.177573 3.57431639,80.7387432 C3.48832286,89.8556298 3.45904846,98.9761523 3.24680911,108.094857 C2.91930183,126.334084 2.48018593,144.571493 2.52226787,162.81072 M2.24782043,162.81072 C2.29173202,144.571493 1.85078647,126.334084 1.5232792,108.094857 C1.30921019,98.9761523 1.28176545,89.8556298 1.19577192,80.7387432 C1.13356383,76.177573 1.16283823,71.6182207 1.18662367,67.0588684 L1.21772772,60.2180221 L1.22504631,58.509174 C1.20309052,58.0674185 1.23419456,56.9948436 1.64952502,56.320394 C2.03375143,55.5914067 2.65766194,54.987856 3.41696652,54.6533581 C4.1616339,54.2770479 5.12219994,54.3061347 5.57961234,54.3206781 C23.9364867,54.4915629 42.293361,54.9387721 60.6484057,54.9787664 L67.5315474,55.0169428 L70.9822666,55.0387579 C71.648259,55.0569371 72.3051032,55.2932672 72.8210644,55.7132075 C73.3260477,56.1676884 73.6444067,56.5494524 74.0633965,56.9712106 L78.8113372,61.9232344 L81.1862223,64.3974283 C81.5777673,64.7828281 81.9949274,65.2936647 82.3389016,65.5390843 C82.7304466,65.8099549 83.1732218,65.9390275 83.683694,65.9190304 C92.8612164,65.9135766 102.038739,65.7390559 111.218091,65.6536135 L138.752487,65.3172977 L142.192229,65.286393 C142.803332,65.286393 143.258914,65.2645779 143.996263,65.284575 C144.817776,65.3354769 145.628311,65.6699748 146.237584,66.2244415 C146.856005,66.7698186 147.284143,67.5333465 147.423197,68.3495942 C147.461619,68.5532016 147.474427,68.7604449 147.481746,68.9658702 L147.485405,69.3930823 L147.494553,70.2493243 L147.523827,73.6688385 L147.569569,80.5096848 L147.587865,83.9273811 L147.591525,84.7836231 L147.593354,85.2090172 C147.591525,85.4198963 147.578717,85.6362292 147.540294,85.8452904 C147.40673,86.688807 146.976762,87.4796037 146.341874,88.0577034 C145.591718,88.6903408 145.116009,88.8248671 144.629322,89.1393679 L143.134498,89.9847024 L140.143021,91.6771892 L134.163726,95.0621628 L122.199648,101.83211 L98.1983042,115.237478 C82.2016778,124.187116 66.1428434,133.016771 49.9632521,141.630093 L25.720395,154.591888 C21.6695508,156.735219 17.6754258,158.982173 13.653856,161.178225 L7.63064953,164.488663 C7.12200694,164.759534 6.6444684,165.046766 6.10838107,165.306729 C5.55033794,165.561238 4.90813094,165.619412 4.31715412,165.461252 C3.11690399,165.18311 2.21854604,164.023275 2.24782043,162.81072" id="Fill-138" fill="#505A78"></path>
                                            <path d="M2.87776879,103.383708 L2.43865289,100.653187 C2.43865289,100.653187 2.56306906,101.789389 2.87776879,103.383708" id="Fill-140" fill="#231F20"></path>
                                            <path d="M23.8945877,81.1959509 C21.8398912,81.1959509 20.0413457,82.5612115 19.4997694,84.5300227 L15.8368109,97.8790354 C7.83575325,97.3482017 3.80320555,86.6133631 3.80320555,86.6133631 L3.80320555,107.026827 L12.2342309,111.006261 L11.71644,112.895084 C6.17443142,115.9801 3.76295326,107.859436 2.87740286,103.38189 L6.76723789,127.582088 L7.89430203,126.820378 L2.29191499,147.23566 L2.29191499,165.385809 L146.312782,92.7924853 L146.312782,81.1959509 L23.8945877,81.1959509 Z" id="Fill-142" fill-opacity="0.1" fill="#231F20"></path>
                                            <path d="M18.6541053,103.273724 C18.6541053,103.273724 2.32448275,101.801205 2.29154906,77.3337724 L0.811362542,163.294288 L18.6541053,103.273724 Z" id="Fill-144" fill="#C3DDED"></path>
                                            <path d="M18.6541053,103.273724 C18.6541053,103.273724 2.32448275,101.801205 2.29154906,77.3337724 L0.811362542,163.294288 L18.6541053,103.273724 Z" id="Fill-146" fill="#C3DDED"></path>
                                            <path d="M9.19225545,133.367085 C6.68014656,141.427758 4.17901558,149.433893 1.74558162,157.449118 L2.07125925,141.818611 L2.41157407,120.328937 C2.57624254,109.070536 2.70797731,97.8103179 2.78848189,86.5519173 C3.4123924,89.0170217 4.16071908,91.4675826 5.46525924,93.6727239 C6.84481503,96.1360103 8.67263497,98.3720563 10.9450598,100.059089 C13.2028474,101.744304 15.8668172,102.925955 18.6533735,103.27136 C15.883284,102.7987 13.3327525,101.480706 11.173766,99.7664036 C9.00929049,98.0357404 7.31320532,95.7960586 6.061725,93.3582231 C4.7297401,90.9385668 4.11131854,88.2225891 3.51302313,85.5538773 C3.31359132,84.1940705 3.14526356,82.826992 2.99340264,81.4617314 L2.85983822,77.333227 L2.85800857,77.3223194 C2.84886032,77.0278158 2.60917623,76.7878499 2.3091137,76.7784103 C1.99441397,76.7678528 1.73277407,77.0132724 1.72362583,77.3241374 C1.27902098,91.647557 0.973469495,105.974613 0.689873809,120.29985 L0.291010198,141.789524 L9.9475983e-14,163.279199 C-0.00539303509,163.631876 0.225142813,163.962738 0.580094834,164.068178 C1.01189214,164.193614 1.46198594,163.950013 1.59006141,163.522801 C4.59068673,153.41151 7.4229843,143.26386 10.2717487,133.199836 L18.6533735,103.27136 L9.19225545,133.367085 Z" id="Fill-148" fill="#505A78"></path>
                                            <path d="M25.2730457,86.4632026 L152.400758,86.4632026 C154.098673,86.4632026 155.335516,88.0593395 154.903719,89.688199 L135.352084,163.466809 C135.052021,164.597557 134.023758,165.384718 132.847293,165.384718 L4.88160102,165.384718 C3.1727083,165.384718 1.93220588,163.768584 2.38412933,162.132453 L22.7774037,88.3538431 C23.0866144,87.2376381 24.1075589,86.4632026 25.2730457,86.4632026" id="Fill-150" fill="#D7EBFA"></path>
                                            <path d="M52.1577338,165.521608 C43.3004001,165.60705 34.4430665,165.614322 25.5875625,165.765209 L12.3006471,166.014265 L5.65718948,166.146973 L4.81189137,166.159699 C4.45328005,166.157881 4.09283908,166.097889 3.74703531,165.985178 C3.05908706,165.752484 2.44615445,165.298003 2.03631294,164.698088 C1.61366389,164.105445 1.40142453,163.361914 1.43069893,162.625655 C1.50022561,161.811226 1.69050917,161.391285 1.80760674,160.835001 C6.12923907,143.761063 10.6923851,126.754388 15.387266,109.782253 L18.8800671,97.045881 L20.6255528,90.6776948 L21.0646687,89.0851938 C21.2567819,88.5052762 21.2531226,88.1744141 21.6574751,87.2563627 C22.0435312,86.4855631 22.6820789,85.8511078 23.4523614,85.4675259 C23.8365878,85.274826 24.2537479,85.1439355 24.6782266,85.0821261 C24.884977,85.0512214 25.1246611,85.0403139 25.3039668,85.0403139 L25.7192972,85.0403139 L52.2912982,85.180294 C70.0059655,85.2602826 87.7206329,85.4548004 105.433471,85.7165814 C114.290804,85.8020238 123.149968,85.9765445 132.007301,85.9838162 L145.290557,86.0419898 L151.934015,86.0292643 C152.440828,86.0038134 153.187325,86.036536 153.752687,86.3346754 C154.334515,86.6255432 154.819372,87.0945675 155.113946,87.6726672 C155.412179,88.2453131 155.521958,88.9233986 155.40486,89.5614898 C155.273125,90.17413 155.130413,90.6467901 154.995019,91.1994389 C150.521525,108.227929 146.446896,125.363676 142.103308,142.428525 L138.780664,155.208527 L137.119342,161.600346 L136.698523,163.196483 C136.588744,163.614606 136.383823,164.523567 135.844076,165.145297 C135.339093,165.781571 134.62553,166.243323 133.84061,166.448749 C133.47651,166.554188 132.973356,166.583275 132.702568,166.574185 L131.871907,166.566914 C123.016403,166.481471 114.159069,166.454202 105.301736,166.241505 C87.5870684,165.916097 69.8742308,165.479795 52.1577338,165.521608 M52.1577338,165.248919 C69.8742308,165.292549 87.5870684,164.85443 105.301736,164.529021 C114.159069,164.318142 123.016403,164.289055 131.871907,164.203613 L132.702568,164.196341 C132.987993,164.196341 133.039224,164.183616 133.211211,164.139986 C133.494806,164.059997 133.752787,163.885476 133.926604,163.652782 C134.118717,163.41827 134.15348,163.211027 134.314489,162.572936 L134.740798,160.978617 L136.462498,154.603159 L139.904069,141.852243 C144.582483,124.876473 149.528026,107.969784 154.076535,90.957655 C154.210099,90.4413648 154.383916,89.8632651 154.488206,89.3996946 C154.577859,88.9561212 154.504673,88.4870969 154.301581,88.0817 C153.869784,87.2363655 153.011678,86.7946101 151.934015,86.8964138 L145.290557,86.8836884 L132.007301,86.9418619 C123.149968,86.9473157 114.290804,87.1236543 105.433471,87.2090967 C87.7206329,87.4708777 70.0059655,87.6653955 52.2912982,87.7453841 L25.7192972,87.8835463 L25.3039668,87.8853642 C25.208825,87.890818 25.1704024,87.8926359 25.1027053,87.9035435 C24.9801188,87.9217227 24.8648509,87.9598991 24.7550719,88.0162547 C24.5355139,88.1307839 24.3562083,88.3143942 24.2537479,88.5307271 C24.1915398,88.6143516 24.0067452,89.3833332 23.8731808,89.8523575 L23.4322352,91.4430406 L21.6611344,97.8039551 L18.1171032,110.525784 C13.4295409,127.499736 8.60841427,144.43733 3.54943315,161.309479 C3.40489083,161.818497 3.18533288,162.438409 3.16520674,162.723823 C3.13593235,163.081954 3.21826658,163.4619 3.42318733,163.776401 C3.61895984,164.099991 3.93000027,164.347229 4.28129299,164.489027 C4.458769,164.554472 4.64905256,164.594466 4.84482506,164.605374 L5.65718948,164.625371 L12.3006471,164.756262 L25.5875625,165.007135 C34.4430665,165.158023 43.3004001,165.163477 52.1577338,165.248919" id="Fill-152" fill="#505A78"></path>
                                            <path d="M147.428137,5.30109665 C147.393373,7.9061811 146.121767,10.000429 144.586691,9.98043187 C143.051615,9.96043471 141.834898,7.83346416 141.869661,5.2283797 C141.904425,2.62147733 143.177861,0.527229396 144.712937,0.547226555 C146.246183,0.567223714 147.46473,2.69419427 147.428137,5.30109665" id="Fill-154" fill="#E4E6EA"></path>
                                            <path d="M147.376358,5.29927872 C147.385506,4.31032831 147.078125,3.31955997 146.563993,2.52512738 C146.05901,1.74160233 145.38021,1.07442439 144.705069,1.09442154 C144.042736,1.0907857 143.349299,1.73433064 142.939457,2.53785285 C142.525957,3.3450109 142.277124,4.27578776 142.154538,5.23201555 C142.059396,6.18642542 142.14356,7.20082676 142.577187,8.07161214 C142.981539,8.93876168 143.839645,9.63866225 144.593461,9.55321984 C145.332639,9.49686421 145.978505,8.83695796 146.503615,8.05888668 C147.030554,7.27172578 147.370869,6.29004706 147.376358,5.29927872 M147.480648,5.30109665 C147.438566,6.29550083 147.431247,7.31899179 147.090932,8.33521106 C146.924434,8.83877588 146.664624,9.34234071 146.245634,9.74228389 C145.841282,10.1513167 145.219201,10.4403665 144.582483,10.4094618 C143.942105,10.3494704 143.404188,9.99679319 143.052896,9.58048869 C142.696114,9.1569125 142.465578,8.68243446 142.271635,8.20795641 C141.887409,7.25354654 141.676999,6.25368859 141.587346,5.22474386 C141.512331,4.19761705 141.611132,3.11958838 142.063055,2.12336628 C142.282613,1.62525522 142.573528,1.14168756 142.996177,0.721747216 C143.411507,0.307260646 144.044566,-0.00360428157 144.719707,1.53189703e-14 C145.393018,0.034572113 146.004121,0.363616276 146.393836,0.796282082 C146.798188,1.22712996 147.034213,1.73978441 147.186074,2.25062092 C147.489796,3.28138358 147.478818,4.30487454 147.480648,5.30109665" id="Fill-156" fill="#505A78"></path>
                                            <path d="M138.949907,4.03345855 C141.015581,4.7624459 142.261572,6.55128267 141.732804,8.0274366 C141.204035,9.50540845 139.103597,10.110777 137.037923,9.38178965 C134.972248,8.6528023 133.726257,6.86578345 134.255026,5.3878116 C134.781965,3.91165768 136.884232,3.30628913 138.949907,4.03345855" id="Fill-158" fill="#E4E6EA"></path>
                                            <path d="M138.932159,4.08145174 C137.228755,3.47608319 135.181377,4.36686573 134.775195,5.57033113 C134.564785,6.18842513 134.745921,6.94831718 135.2198,7.58095458 C135.697338,8.20632028 136.36699,8.73351811 137.133613,9.11709998 C137.903896,9.47886676 138.816891,9.64975158 139.6567,9.43341868 C140.501998,9.22981124 141.177139,8.57535876 141.329,7.88454781 C141.499157,7.19737271 141.299726,6.46293159 140.893543,5.73394424 C140.480042,5.01586444 139.779287,4.37050158 138.932159,4.08145174 M138.968752,3.98510179 C139.804902,4.30869218 140.677645,4.65409765 141.400356,5.33036522 C142.123068,5.95754884 142.58048,7.1355633 142.139535,8.16996181 C141.671144,9.20072446 140.622755,9.61884688 139.728057,9.75882699 C138.805913,9.91153257 137.867303,9.86790241 136.94333,9.64793366 C136.024846,9.42251113 135.120999,8.9571227 134.462325,8.18814104 C133.805481,7.46097162 133.329772,6.31386186 133.734124,5.20492849 C134.151285,4.11235644 135.252734,3.51607751 136.224278,3.48880866 C137.215948,3.42881718 138.116135,3.69786987 138.968752,3.98510179" id="Fill-160" fill="#505A78"></path>
                                            <path d="M149.138127,8.32630323 C149.718126,10.0224259 147.526206,12.2966483 144.241985,13.4037637 C140.957764,14.5126971 137.823574,14.038219 137.245405,12.3402784 C136.665406,10.6441558 138.857326,8.3699334 142.141547,7.26281795 C145.427598,6.15388459 148.559958,6.63018056 149.138127,8.32630323" id="Fill-162" fill="#E4E6EA"></path>
                                            <path d="M149.089825,8.34230096 C148.864778,7.7587475 148.32869,7.34607885 147.732225,7.18246573 C147.139418,7.00794507 146.513678,6.9715866 145.900745,7.01521677 C144.67488,7.11520256 143.47463,7.3806194 142.320121,7.78056258 C141.172931,8.19323123 140.047696,8.70770359 139.103597,9.45123433 C138.20341,10.1747679 137.292244,11.1728079 137.513632,12.2490187 C137.658174,12.7616731 138.09729,13.2216078 138.664481,13.454302 C139.220695,13.7069934 139.851924,13.810615 140.475834,13.8251584 C141.734633,13.8415197 142.960498,13.4524841 144.1022,12.9998211 C145.24756,12.5362506 146.354498,12.0145065 147.384591,11.338239 C147.895063,10.9964693 148.367113,10.5874365 148.731213,10.0875076 C149.104462,9.59485029 149.274619,8.94039781 149.089825,8.34230096 M149.188626,8.30957834 C149.395376,8.94039781 149.250834,9.63120876 148.967238,10.220216 C148.687302,10.8219487 148.270142,11.3546003 147.803581,11.8327142 C146.87046,12.7998495 145.648254,13.4379407 144.380307,13.8087971 C143.095893,14.1523846 141.763908,14.2541884 140.459367,14.1560205 C139.809842,14.1123903 139.154827,14.0087687 138.529087,13.7760745 C137.910666,13.548834 137.273948,13.1343474 136.977544,12.430811 C136.701267,11.7290925 136.834832,10.9182986 137.178806,10.3111122 C137.506313,9.68392854 137.965555,9.15673071 138.476027,8.71315736 C139.495142,7.81328521 140.697222,7.16792234 141.963339,6.74434616 C143.236776,6.34803882 144.592546,6.12079838 145.93002,6.33713128 C146.594183,6.44075292 147.251027,6.60981981 147.843833,6.92068474 C148.43298,7.21700628 148.970897,7.68239471 149.188626,8.30957834" id="Fill-164" fill="#505A78"></path>
                                            <path d="M130.123311,157.161704 L135.010305,142.89464 C135.409169,141.732987 134.439454,140.553155 133.083684,140.553155 L98.1062728,140.553155 C97.2353596,140.553155 96.4650771,141.054902 96.1924594,141.796614 L90.9578319,156.063678 C90.5260346,157.234421 91.4994082,158.439705 92.8716454,158.439705 L128.19669,158.439705 C129.08224,158.439705 129.861671,157.921596 130.123311,157.161704" id="Fill-166" fill="#FFFFFF"></path>
                                            <line x1="100.700533" y1="145.222673" x2="122.610587" y2="145.222673" id="Fill-168" fill="#D7EBFA"></line>
                                            <path d="M100.700533,145.222673 C102.526523,145.062696 104.352514,144.988161 106.176674,144.926352 C108.002664,144.85727 109.828655,144.846363 111.654645,144.837273 C113.480635,144.844545 115.304796,144.855453 117.130786,144.926352 C118.958606,144.988161 120.784597,145.060878 122.610587,145.222673 C120.784597,145.38265 118.958606,145.457185 117.130786,145.517177 C115.304796,145.588076 113.480635,145.598983 111.654645,145.606255 C109.828655,145.597165 108.002664,145.586258 106.176674,145.517177 C104.352514,145.455367 102.526523,145.380832 100.700533,145.222673" id="Fill-170" fill="#505A78"></path>
                                            <line x1="99.3158542" y1="148.85852" x2="126.466024" y2="148.85852" id="Fill-172" fill="#D7EBFA"></line>
                                            <path d="M99.3158542,148.85852 C101.577301,148.698543 103.842407,148.624008 106.103854,148.564017 C108.365301,148.500389 110.630407,148.505843 112.891854,148.47312 C115.153301,148.504025 117.416578,148.500389 119.679854,148.562199 C121.941301,148.624008 124.204578,148.696725 126.466024,148.85852 C124.204578,149.018497 121.941301,149.093032 119.679854,149.154842 C117.416578,149.214833 115.153301,149.213015 112.891854,149.24392 C110.630407,149.211197 108.365301,149.216651 106.103854,149.153024 C103.842407,149.091214 101.577301,149.01668 99.3158542,148.85852" id="Fill-174" fill="#505A78"></path>
                                            <line x1="97.9311754" y1="152.389655" x2="108.7133" y2="152.389655" id="Fill-176" fill="#D7EBFA"></line>
                                            <path d="M97.9311754,152.389655 C99.7278913,152.086062 101.524607,152.016981 103.321323,152.004255 C105.119869,152.015163 106.914755,152.084244 108.7133,152.389655 C106.914755,152.695066 105.119869,152.764147 103.321323,152.775055 C101.524607,152.762329 99.7278913,152.693248 97.9311754,152.389655" id="Fill-178" fill="#505A78"></path>
                                            <path d="M113.411658,83.0989533 C113.228693,83.0989533 113.045728,83.0262364 112.917652,82.8989817 C112.862763,82.8262648 112.807873,82.7535478 112.77128,82.6808309 C112.734687,82.5899347 112.716391,82.4990385 112.716391,82.4063244 C112.716391,82.22635 112.789577,82.0627369 112.917652,81.9336643 C112.992668,81.8609474 113.065854,81.8264068 113.13904,81.7882304 C113.301879,81.7155135 113.50314,81.7155135 113.669638,81.7882304 C113.740995,81.8264068 113.832477,81.8791266 113.887366,81.9336643 C114.015442,82.0627369 114.088628,82.22635 114.088628,82.4063244 C114.088628,82.4990385 114.070331,82.5899347 114.033738,82.6808309 C113.997145,82.7535478 113.960552,82.8262648 113.887366,82.8989817 C113.832477,82.9535194 113.759291,83.0062392 113.669638,83.0444156 C113.576326,83.0789562 113.50314,83.0989533 113.411658,83.0989533" id="Fill-186" fill="#666F89"></path>
                                            <path d="M135.18522,19.0349637 C134.874179,18.8168129 134.780867,18.3968725 135.020551,18.0878255 L135.000425,18.0878255 C135.221813,17.7805965 135.660928,17.7078795 135.971969,17.9260303 C136.283009,18.1441812 136.356195,18.5623036 136.136637,18.8713506 C136.008562,19.053143 135.789004,19.1604004 135.569446,19.1604004 C135.44137,19.1604004 135.294999,19.1258599 135.18522,19.0349637 L135.18522,19.0349637 Z M133.337273,22.1981507 C132.98964,22.0327197 132.859735,21.6164152 133.04453,21.2891889 C133.227494,20.9619627 133.628188,20.8147109 133.977651,20.9983212 C134.306988,21.1801135 134.435063,21.5982359 134.252098,21.9254622 C134.142319,22.1617922 133.904465,22.2890469 133.648314,22.2890469 C133.538535,22.2890469 133.428756,22.2526884 133.337273,22.1981507 L133.337273,22.1981507 Z M131.836961,25.5613093 C131.487498,25.4158754 131.324659,25.0159322 131.471031,24.6705267 C131.599106,24.3251213 132.001629,24.1596902 132.367559,24.3051241 C132.713363,24.4341967 132.879861,24.8323219 132.733489,25.1977246 L132.733489,25.1795453 C132.62371,25.4504159 132.367559,25.615847 132.093112,25.615847 C132.019926,25.615847 131.928443,25.5958498 131.836961,25.5613093 L131.836961,25.5613093 Z M130.664155,29.0335433 C130.300055,28.9226499 130.098794,28.540886 130.206743,28.1972984 C130.318352,27.8337137 130.702578,27.6319242 131.068508,27.7428175 C131.434438,27.8518929 131.635699,28.2336569 131.52592,28.5972416 C131.434438,28.8881094 131.15999,29.0699017 130.867247,29.0699017 C130.794061,29.0699017 130.737341,29.0699017 130.664155,29.0335433 L130.664155,29.0335433 Z M129.769457,32.5966734 C129.38523,32.5057772 129.165672,32.1421925 129.238858,31.7786078 C129.330341,31.4150231 129.696271,31.1786931 130.062201,31.2677713 C130.426301,31.3423062 130.664155,31.7222522 130.572673,32.0876548 C130.499487,32.3967018 130.226869,32.6148527 129.915829,32.6148527 C129.860939,32.6148527 129.80605,32.6148527 129.769457,32.5966734 L129.769457,32.5966734 Z M129.092486,36.2143413 C128.726556,36.1416244 128.470406,35.7962189 128.523465,35.4326342 C128.580185,35.0508702 128.946114,34.7963609 129.312044,34.8690779 C129.696271,34.9236156 129.952422,35.269021 129.895703,35.650785 L129.879236,35.650785 C129.822517,35.9761933 129.531602,36.2143413 129.200436,36.2143413 L129.092486,36.2143413 Z M128.689964,39.8501884 C128.305737,39.8301912 128.03129,39.4866037 128.066053,39.123019 C128.104476,38.741255 128.433813,38.4667486 128.818039,38.504925 C129.183969,38.5394655 129.458416,38.8685097 129.43829,39.2302765 C129.403527,39.5956791 129.092486,39.8501884 128.743023,39.8501884 L128.689964,39.8501884 Z M141.753662,41.1045557 C141.369435,41.0863764 141.093158,40.7591502 141.113284,40.3773862 C141.149877,39.9938044 141.477384,39.7229338 141.845144,39.741113 C142.22937,39.7774715 142.522114,40.1046977 142.485521,40.4864616 C142.465395,40.8318671 142.156184,41.1045557 141.788425,41.1045557 L141.753662,41.1045557 Z M137.472282,40.8500464 C137.380799,40.4864616 137.618654,40.1228769 137.982754,40.0319808 C138.36881,39.9592638 138.73291,40.1955939 138.806096,40.5591786 C138.881112,40.9227633 138.643257,41.286348 138.275498,41.3772442 C138.240734,41.3772442 138.185845,41.3954234 138.129126,41.3954234 C137.818085,41.3954234 137.525341,41.1772726 137.472282,40.8500464 L137.472282,40.8500464 Z M145.120217,41.8844449 C144.772583,41.7590081 144.606085,41.357247 144.752457,41.0136595 C144.882362,40.6500748 145.284885,40.4864616 145.632519,40.6318955 C145.998449,40.7773294 146.163117,41.1772726 146.016745,41.5226781 C145.905136,41.7953666 145.650815,41.9408005 145.374538,41.9408005 C145.284885,41.9408005 145.20987,41.9226213 145.120217,41.8844449 L145.120217,41.8844449 Z M134.012414,42.1589513 C133.866042,41.8117279 134.012414,41.4136027 134.361877,41.2499895 C134.709511,41.0863764 135.112034,41.2499895 135.276702,41.595395 C135.423074,41.9226213 135.276702,42.3389257 134.927239,42.4843596 C134.837586,42.5407153 134.746104,42.5570766 134.636325,42.5570766 C134.380174,42.5570766 134.142319,42.4116427 134.012414,42.1589513 L134.012414,42.1589513 Z M127.939807,42.8661236 C127.939807,42.4843596 128.232551,42.1753126 128.616778,42.1589513 C129.001004,42.1589513 129.312044,42.4498191 129.312044,42.831583 C129.312044,43.213347 129.0193,43.522394 128.635074,43.522394 C128.250848,43.522394 127.939807,43.2315262 127.939807,42.8661236 L127.939807,42.8661236 Z M148.011063,43.7223656 C147.734786,43.4860355 147.718319,43.0497339 147.97447,42.7770453 C148.230621,42.4843596 148.649611,42.4679983 148.944184,42.7206897 C149.218632,42.9770169 149.236928,43.4133186 148.980777,43.6860071 C148.852702,43.831441 148.669737,43.9041579 148.468476,43.9041579 C148.303807,43.9041579 148.139139,43.8478023 148.011063,43.7223656 L148.011063,43.7223656 Z M130.867247,44.0495918 C130.647689,43.7405448 130.737341,43.3206045 131.050211,43.1042716 C131.361252,42.9043 131.782071,42.9770169 132.001629,43.3042432 C132.221187,43.6132902 132.129705,44.0314126 131.818664,44.2295662 C131.708885,44.3222803 131.562513,44.3586388 131.434438,44.3586388 C131.21488,44.3586388 130.995322,44.2495634 130.867247,44.0495918 L130.867247,44.0495918 Z M150.16822,46.4128924 C149.987085,46.0856662 150.095034,45.6657258 150.444497,45.4857514 C150.773834,45.3039591 151.176357,45.4312137 151.359322,45.7584399 L151.377618,45.7584399 C151.540457,46.0856662 151.432508,46.5019707 151.103171,46.685581 C150.993392,46.7401187 150.883613,46.7582979 150.773834,46.7582979 C150.517683,46.7582979 150.298125,46.6310433 150.16822,46.4128924 L150.16822,46.4128924 Z M128.159365,46.5746876 L128.159365,46.5401471 C128.122772,46.5019707 128.104476,46.4856094 128.066053,46.4674301 C127.811732,46.1929237 127.811732,45.7584399 128.066053,45.4857514 C128.34233,45.2312421 128.781446,45.2312421 129.054064,45.5039307 C129.165672,45.6311853 129.238858,45.7766192 129.238858,45.9402323 C129.403527,46.0474898 129.511476,46.2311001 129.531602,46.4292537 C129.568195,46.8110177 129.291918,47.1400618 128.907692,47.1746024 L128.834506,47.1746024 C128.488702,47.1746024 128.195958,46.921911 128.159365,46.5746876 L128.159365,46.5746876 Z M125.597856,49.1761362 C125.305112,48.9398062 125.286815,48.5035045 125.52467,48.2126367 C125.778991,47.9381303 126.20164,47.9035897 126.494384,48.1399198 C126.787128,48.3926112 126.823721,48.8125515 126.56757,49.1034193 C126.439495,49.2670324 126.236403,49.3397493 126.036972,49.3397493 C125.8906,49.3397493 125.725931,49.2852116 125.597856,49.1761362 L125.597856,49.1761362 Z M151.247713,49.6306171 L151.247713,49.6306171 C151.194653,49.2670324 151.450804,48.919809 151.835031,48.8670892 C152.200961,48.8125515 152.548594,49.0670608 152.603484,49.4470068 C152.658373,49.8124095 152.402222,50.1578149 152.017996,50.2105347 L151.924684,50.2105347 C151.597176,50.2105347 151.304432,49.9760226 151.247713,49.6306171 L151.247713,49.6306171 Z M128.743023,50.2668904 L128.743023,50.2668904 C128.653371,49.9014877 128.891225,49.537903 129.275451,49.4470068 C129.641381,49.3742899 130.007311,49.61062 130.080497,49.9760226 C130.153683,50.3396073 129.934125,50.703192 129.568195,50.7940882 L129.421823,50.7940882 C129.092486,50.7940882 128.818039,50.5922987 128.743023,50.2668904 L128.743023,50.2668904 Z M123.365683,52.0848139 C123.054643,51.8666631 122.981457,51.4485407 123.201015,51.1394937 C123.418743,50.8304467 123.859689,50.7577297 124.168899,50.9940598 C124.47994,51.2122106 124.536659,51.630333 124.317101,51.93938 C124.189026,52.1211724 123.969468,52.2120686 123.768206,52.2120686 C123.621834,52.2120686 123.475462,52.1738922 123.365683,52.0848139 L123.365683,52.0848139 Z M151.725252,53.866379 C151.341025,53.7936621 151.103171,53.4300773 151.156231,53.0664926 C151.231246,52.7029079 151.57888,52.4483986 151.963106,52.5211156 C152.329036,52.5756533 152.585187,52.9374201 152.512001,53.3028227 C152.455282,53.628231 152.162538,53.866379 151.835031,53.866379 L151.725252,53.866379 Z M129.80605,53.866379 C129.677974,53.5209735 129.860939,53.1210303 130.206743,52.9937757 C130.556206,52.8647031 130.956899,53.0301342 131.086804,53.3919009 C131.233176,53.7391243 131.050211,54.1390675 130.702578,54.2663222 C130.611096,54.3008627 130.53791,54.3008627 130.446427,54.3008627 C130.17198,54.3008627 129.915829,54.1390675 129.80605,53.866379 L129.80605,53.866379 Z M121.351239,55.175284 C121.023732,54.9753124 120.932249,54.5571899 121.131681,54.2281458 C121.334772,53.9027375 121.755592,53.8118413 122.066632,54.0118129 C122.395969,54.2117845 122.487451,54.6299069 122.304486,54.9389539 C122.158114,55.1571047 121.938557,55.2661801 121.700702,55.2661801 C121.589093,55.2661801 121.462848,55.2298217 121.351239,55.175284 L121.351239,55.175284 Z M150.353015,57.2477168 C150.021848,57.0659244 149.913899,56.6459841 150.095034,56.3205758 C150.279829,55.9933496 150.698818,55.8842741 151.029985,56.0660665 C151.359322,56.2478589 151.467271,56.6659813 151.286136,56.9932075 C151.156231,57.2113583 150.936673,57.3367951 150.682352,57.3367951 C150.572573,57.3367951 150.462794,57.3022545 150.353015,57.2477168 L150.353015,57.2477168 Z M131.544217,57.2640781 C131.341126,56.9550311 131.414312,56.5205474 131.745478,56.3205758 C132.056519,56.102425 132.477338,56.1915032 132.696896,56.5005502 C132.898158,56.8095972 132.806675,57.2477168 132.493805,57.4476884 C132.385856,57.5385846 132.255951,57.574943 132.129705,57.574943 C131.89185,57.574943 131.672292,57.4658676 131.544217,57.2640781 L131.544217,57.2640781 Z M119.578309,58.3748294 C119.248972,58.2112163 119.120896,57.7912759 119.285565,57.4658676 C119.46853,57.1204622 119.871052,56.9932075 120.216856,57.1731819 C120.548023,57.3367951 120.674269,57.7567354 120.5096,58.0821437 C120.383354,58.3184738 120.14367,58.4639077 119.889349,58.4639077 C119.77957,58.4639077 119.669791,58.4293671 119.578309,58.3748294 L119.578309,58.3748294 Z M147.754912,59.8273503 C147.517058,59.5364826 147.571947,59.1019988 147.864691,58.883848 C148.175732,58.6475179 148.596551,58.7002377 148.834405,58.9911055 C149.07226,59.2837912 149.01737,59.7200928 148.722797,59.9564229 C148.596551,60.0473191 148.450179,60.1018568 148.285511,60.1018568 C148.084249,60.1018568 147.881158,60.0109606 147.754912,59.8273503 L147.754912,59.8273503 Z M134.142319,60.1363973 C133.849575,59.883706 133.794686,59.4655835 134.03254,59.1747158 C134.270395,58.883848 134.709511,58.8293103 135.000425,59.0656404 C135.294999,59.3001525 135.349888,59.7382721 135.093737,60.0291398 C134.965662,60.192753 134.7644,60.2818312 134.563139,60.2818312 C134.416767,60.2818312 134.270395,60.2291114 134.142319,60.1363973 L134.142319,60.1363973 Z M118.041403,61.7179908 C117.69194,61.5561956 117.529101,61.1562524 117.675473,60.809029 C117.840141,60.4654415 118.222538,60.3018284 118.590298,60.4654415 C118.917805,60.6108754 119.084303,61.0108186 118.937931,61.3544061 C118.828152,61.6107333 118.572001,61.7743465 118.314021,61.7743465 C118.222538,61.7743465 118.132885,61.7561672 118.041403,61.7179908 L118.041403,61.7179908 Z M144.406653,61.3380448 C144.278578,60.9726422 144.479839,60.5908782 144.84394,60.4836207 C145.193403,60.3545482 145.594096,60.5563377 145.705705,60.9199224 C145.831951,61.2635099 145.632519,61.6452739 145.266589,61.7743465 C145.193403,61.7925257 145.120217,61.808887 145.063498,61.808887 C144.772583,61.808887 144.498136,61.6289126 144.406653,61.3380448 L144.406653,61.3380448 Z M137.563764,62.0106765 C137.214301,61.9016011 137.014869,61.49984 137.124648,61.1562524 C137.252724,60.7926677 137.63695,60.5908782 138.00288,60.7017716 L138.00288,60.7199508 C138.348684,60.8290262 138.551775,61.2107902 138.440166,61.5725569 C138.332217,61.8652426 138.076066,62.047035 137.783322,62.047035 C137.710136,62.047035 137.63695,62.0270378 137.563764,62.0106765 L137.563764,62.0106765 Z M140.747354,61.7925257 C140.727228,61.4107617 141.019972,61.1017147 141.404199,61.0835355 C141.788425,61.0653563 142.099465,61.3544061 142.119591,61.737988 C142.137888,62.0997548 141.845144,62.4287989 141.460918,62.4469782 L141.442621,62.4469782 C141.076691,62.4469782 140.765651,62.1561104 140.747354,61.7925257 L140.747354,61.7925257 Z M116.703929,65.1356871 C116.358125,65.0102504 116.173331,64.6084893 116.303236,64.2649017 C116.431311,63.901317 116.815538,63.7195247 117.181468,63.8449614 C117.529101,63.974034 117.712066,64.3721592 117.58399,64.7193826 C117.492508,65.0102504 117.218061,65.1738635 116.941783,65.1738635 C116.870427,65.1738635 116.797241,65.1556843 116.703929,65.1356871 L116.703929,65.1356871 Z M115.607969,68.6261003 C115.242039,68.5352041 115.040778,68.1552581 115.150557,67.7898555 C115.242039,67.4280887 115.626265,67.2281171 115.992195,67.3190133 C116.358125,67.4280887 116.557557,67.8098526 116.467904,68.1716194 C116.376422,68.4624872 116.100145,68.6642767 115.789104,68.6642767 C115.736044,68.6642767 115.681155,68.6460975 115.607969,68.6261003 L115.607969,68.6261003 Z M114.711441,72.1910484 C114.343681,72.0983343 114.105827,71.7365675 114.197309,71.3729828 C114.290621,71.0093981 114.654722,70.773068 115.020651,70.8639642 C115.388411,70.9548604 115.626265,71.3184451 115.534783,71.6820298 C115.461597,71.9910768 115.18532,72.2092276 114.874279,72.2092276 C114.82122,72.2092276 114.76633,72.2092276 114.711441,72.1910484 L114.711441,72.1910484 Z M114.032641,75.790537 C113.66854,75.7341814 113.412389,75.3905939 113.467279,75.0088299 C113.540465,74.6452452 113.886269,74.3907359 114.270495,74.4434557 C114.638255,74.5179906 114.894406,74.863396 114.82122,75.24516 C114.76633,75.5723862 114.473586,75.8068984 114.144249,75.8068984 C114.105827,75.8068984 114.071063,75.8068984 114.032641,75.790537 L114.032641,75.790537 Z M113.575228,79.4427455 C113.191002,79.4082049 112.918384,79.0627994 112.971444,78.6973968 C113.009867,78.3156329 113.339203,78.0447623 113.72343,78.0793028 C114.08936,78.1174792 114.363807,78.4610667 114.327214,78.8264694 C114.290621,79.1900541 113.997877,79.4427455 113.648414,79.4427455 L113.575228,79.4427455 Z" id="Fill-188" fill="#666F89"></path>
                                            <path d="M137.947625,16.2902627 C137.76466,16.2902627 137.599991,16.2175458 137.471916,16.0902911 C137.325544,15.9612186 137.270654,15.7812441 137.270654,15.5976339 C137.270654,15.4176594 137.34384,15.2540463 137.471916,15.1249737 C137.526805,15.0522568 137.599991,15.0177162 137.691474,14.9795399 C137.856142,14.9068229 138.039107,14.9068229 138.203775,14.9795399 C138.295258,15.0177162 138.368444,15.0522568 138.44163,15.1249737 C138.569705,15.2540463 138.642891,15.4340207 138.642891,15.5976339 C138.642891,15.7976055 138.569705,15.9612186 138.423333,16.0902911 C138.368444,16.1448288 138.295258,16.1975486 138.203775,16.235725 C138.130589,16.2702656 138.039107,16.2902627 137.947625,16.2902627" id="Fill-190" fill="#666F89"></path>
                                        </g>
                                        <g id="Coffee-cup" transform="translate(13.137685, 115.582952)">
                                            <g id="Group-133" transform="translate(0.000000, 66.112230)">
                                                <mask id="mask-2" fill="white">
                                                    <use xlink:href="#path-1"></use>
                                                </mask>
                                                <g id="Clip-132"></g>
                                                <path d="M79.4674001,7.33296859 C79.4674001,11.3245294 61.7339065,14.5625534 39.8566108,14.5625534 C17.979315,14.5625534 0.245821431,11.3245294 0.245821431,7.33296859 C0.245821431,3.34322793 17.979315,0.105203928 39.8566108,0.105203928 C61.7339065,0.105203928 79.4674001,3.34322793 79.4674001,7.33296859" id="Fill-131" fill="#E4E6EA" mask="url(#mask-2)"></path>
                                            </g>
                                            <path d="M62.0036843,12.7532711 L12.3275429,12.7532711 L12.3275429,6.27722304 C12.3275429,3.26125577 14.788899,0.816811565 17.8257323,0.816811565 L56.5054949,0.816811565 C59.5423282,0.816811565 62.0036843,3.26125577 62.0036843,6.27722304 L62.0036843,12.7532711 Z" id="Fill-192" fill="#F1F2F4"></path>
                                            <polygon id="Fill-194" fill="#E6E7E8" points="12.2965697 10.628989 61.9305584 10.628989 61.9305584 6.78485929 12.2965697 6.78485929"></polygon>
                                            <path d="M26.6770842,0.90818245 C24.677576,0.922743547 22.676235,0.94640533 20.6767268,1.01375041 C18.6827167,1.15026069 16.5695793,0.893621353 15.0960645,2.08035078 C13.5785642,3.17971362 12.8692978,4.94888694 13.0745635,6.79268588 L13.2468401,12.7536351 L12.3268098,11.8399262 C16.4669464,11.7871422 20.607083,11.7580201 24.7472197,11.7962429 L37.1657969,11.9636956 C41.3059335,12.0310406 45.4442374,12.1857523 49.584374,12.3113418 C53.7245107,12.4460319 57.8646473,12.4897152 62.0029512,12.4624131 L61.7097144,12.7536351 C61.6895544,10.8916348 61.6492344,9.02963445 61.5759252,7.16763414 C61.6620635,5.31109424 61.027939,3.66751038 59.6808825,2.6154711 C59.0339289,2.09673201 58.2513533,1.77092746 57.4522831,1.63259704 C56.6971984,1.52338881 55.7331825,1.60165471 54.7911594,1.60529498 C52.9162768,1.63259704 51.043227,1.64715814 49.1683444,1.62167622 C41.6724795,1.57253251 34.1747818,0.853578335 26.6770842,0.90818245 M26.6770842,0.726168734 C34.1747818,0.782592986 41.6724795,0.0618186711 49.1683444,0.014495105 C51.043227,-0.0128069524 52.9162768,0.0017541449 54.7911594,0.0308763394 C55.7185207,0.0781999056 56.645882,-0.0182673639 57.7400217,0.218350467 C58.7700158,0.469529395 59.7376972,0.964606702 60.5019455,1.67081992 C62.0982532,3.03410265 62.682894,5.33111575 62.43181,7.16763414 C62.3585008,9.02963445 62.3181807,10.8916348 62.2980207,12.7536351 L62.2943553,13.0466772 L62.0029512,13.044857 C57.8646473,13.0157348 53.7245107,13.0612383 49.584374,13.1959284 C45.4442374,13.3196977 41.3059335,13.4744094 37.1657969,13.5417545 L24.7472197,13.7092071 C20.607083,13.7492501 16.4669464,13.7201279 12.3268098,13.6673439 L11.3829539,13.654603 L11.4086121,12.7536351 L11.5808887,6.79268588 C11.4782559,4.66130527 12.6970212,2.34609081 14.5938965,1.30861262 C15.5285888,0.758931203 16.6044011,0.480450218 17.6655517,0.500471726 L20.6767268,0.622420916 C22.676235,0.687945854 24.677576,0.711607637 26.6770842,0.726168734" id="Fill-196" fill="#505A78"></path>
                                            <path d="M12.3275429,22.253841 L62.0036843,22.253841 L55.6807665,71.5868385 L54.8120525,71.7597516 C43.1687201,74.0640452 31.1753362,74.0058008 19.5539965,71.5868385 L19.5521638,71.5868385 L12.3275429,22.253841 Z" id="Fill-197" fill="#FFFFFF"></path>
                                            <path d="M57.9955042,53.6013352 L57.922195,53.5976949 L61.9303751,20.8898302 L12.3275429,20.8898302 L12.3275429,22.2512928 C12.3275429,22.2512928 41.3304921,26.2264723 58.1219626,25.2071955 C58.1219626,25.2071955 59.0768148,39.0020151 56.4871676,53.5376304 L43.9421321,53.0097906 L19.9773571,55.7436366 C19.9773571,55.7436366 53.4356725,56.9940709 55.0796311,60.0391603 C54.8138853,61.0711781 54.5261467,62.0959153 54.2145826,63.1115519 C50.5344612,67.0903717 43.3208366,72.6508907 31.3824347,73.2242339 C31.3824347,73.2242339 46.9716344,74.3836613 55.6807665,71.5879306 L56.5348186,64.9280488 L56.5348186,64.9262286 L57.2880705,59.0562863 C57.2880705,59.0562863 57.2587468,59.10543 57.2459177,59.1309119 L57.8928713,53.8434135 L57.9955042,53.6013352 Z" id="Fill-198" fill-opacity="0.1" fill="#231F20"></path>
                                            <path d="M57.8734444,47.1267433 L56.3302859,59.463633 C55.8171216,63.3896688 55.3644373,67.319345 54.9520731,71.2563016 C50.130161,72.2937798 45.2587651,73.0946402 40.3103947,73.3676607 C37.7464057,73.5078113 35.1659221,73.5878973 32.5964349,73.4495669 C30.0269477,73.3130566 27.4666242,72.9890722 24.897137,72.7670155 L19.6811879,71.7932421 C19.0965471,67.7143147 18.6401974,63.617186 18.1581895,59.5236975 C17.6560215,55.3974466 17.24549,51.2584547 16.6645147,47.1431245 C16.1366885,43.0205139 15.5685423,38.9051838 14.9069268,34.8025946 C14.3332824,30.9038608 13.6496742,27.0196881 12.9953896,23.130055 C16.9101005,23.0481488 20.8266441,22.9225594 24.7431877,22.9116385 C28.8833243,22.8570344 33.0216282,22.8424733 37.1617649,22.8952573 C45.1616305,22.9316601 53.1614961,23.1773786 61.1613617,23.2938674 L57.8734444,47.1267433 Z M61.9989192,21.8523187 C53.7204787,21.9633471 45.4402054,22.2290871 37.1617649,22.2691301 C33.0216282,22.3182738 28.8833243,22.3037127 24.7431877,22.2491086 C20.603051,22.2381878 16.4629144,22.094397 12.3227778,22.0143109 L11.6758241,22.00157 L11.7601297,22.6640999 C12.2769595,26.7848904 12.7534693,30.9166018 13.3546047,35.0282916 C13.8970927,39.1454419 14.5330499,43.2534914 15.2093272,47.3542605 C15.8324554,51.46231 16.6260274,55.5448777 17.3279629,59.6420064 C18.046393,63.7354949 18.792314,67.8271632 19.4044457,71.9370329 L19.4209403,72.0407807 L19.5199077,72.057162 L24.869646,72.947209 C27.4354678,73.2275102 29.9921258,73.6133792 32.5744421,73.8099541 C35.1549257,73.9646657 37.7409075,74.1048163 40.3342202,74.0920753 C42.9257001,74.0793344 45.5226782,73.9792268 48.1104927,73.7462493 C50.6983072,73.5369335 53.2916199,73.1729061 55.8336161,72.6923898 L56.3816023,72.588642 L56.4695734,72.0152988 C57.0945342,67.9163499 57.6681787,63.8119406 58.1850085,59.6984307 L59.8033089,47.3706417 L62.7283457,22.6732006 L62.8273131,21.8395778 L61.9989192,21.8523187 Z" id="Fill-1" fill="#505A78"></path>
                                            <path d="M65.2395521,22.253841 L9.09204167,22.253841 C6.45291074,22.253841 4.31594779,20.1297409 4.31594779,17.5105635 L4.31594779,14.265259 C4.31594779,11.6460816 6.45291074,9.52198155 9.09204167,9.52198155 L65.2395521,9.52198155 C67.8768502,9.52198155 70.0156459,11.6460816 70.0156459,14.265259 L70.0156459,17.5105635 C70.0156459,20.1297409 67.8768502,22.253841 65.2395521,22.253841" id="Fill-200" fill="#F1F2F4"></path>
                                            <path d="M65.2395521,22.253841 C66.7973724,22.2483806 68.3075418,21.4365994 69.1634266,20.157043 C69.5886199,19.5181748 69.8543657,18.7810193 69.9368385,18.0238422 C69.9899877,17.2666652 69.940504,16.4876465 69.9496677,15.7213687 C69.9276749,14.9532708 69.9863223,14.172432 69.8543657,13.429816 C69.7242419,12.6835598 69.377856,11.9846271 68.9105099,11.3949027 C67.9629885,10.1990726 66.4308264,9.55474402 64.9041625,9.65485157 L46.3001222,9.97883598 L27.6960819,10.3010003 L9.09204167,10.43023 C7.83112356,10.4156689 6.59403094,11.0508968 5.87010266,12.0920152 C5.51272035,12.6107543 5.28546186,13.2132197 5.20482174,13.8393469 C5.14983985,14.4199706 5.17916353,15.3245788 5.16450169,16.0544538 C5.17183261,16.8207316 5.11318525,17.6379731 5.21398539,18.2113164 C5.31112007,18.8410838 5.59702592,19.4326284 5.98189918,19.9404467 C6.79013303,20.967004 8.01622927,21.5385271 9.42743122,21.4766424 L28.0314715,21.8006268 L46.6355118,22.120971 L65.2395521,22.253841 Z M65.2395521,22.253841 L46.6355118,22.3848909 L28.0314715,22.705235 L9.42743122,23.0292194 C7.73398888,23.1475283 5.7986262,22.3703298 4.70265378,20.9433422 C4.14367119,20.237129 3.73313971,19.3998659 3.57735768,18.5043584 C3.41974291,17.556067 3.49488483,16.8243718 3.46739389,16.0544538 C3.47655754,15.2426726 3.42157564,14.6056246 3.48572118,13.6518728 C3.58468859,12.7472646 3.90358358,11.8663182 4.41308247,11.107321 C5.43208024,9.58386622 7.2373191,8.61555325 9.09204167,8.61373311 L27.6960819,8.74296285 L46.3001222,9.06512713 L64.9041625,9.38911154 C66.4821429,9.30720537 68.1077742,10.0097783 69.0681246,11.2711334 C69.5464671,11.8954404 69.8946858,12.6253154 70.0174787,13.402514 C70.143937,14.1815327 70.0706278,14.9514507 70.0834569,15.7213687 C70.0632969,16.4931069 70.1017842,17.2557443 70.035806,18.034763 C69.940504,18.8065012 69.6582636,19.5545776 69.2165757,20.1934457 C68.3313672,21.4784626 66.7973724,22.2720424 65.2395521,22.253841 L65.2395521,22.253841 Z" id="Fill-201" fill="#505A78"></path>
                                            <path d="M59.5874133,55.1531842 L15.370974,55.1531842 C14.3812999,55.1531842 13.5492406,54.4560716 13.4411095,53.5332621 L11.1960155,34.5801738 C11.0677244,33.5008325 11.9694275,32.5598216 13.12588,32.5598216 L62.4171481,32.5598216 C63.5974261,32.5598216 64.5027947,33.5372353 64.3396817,34.6311377 L61.5099469,53.5860461 C61.3761576,54.4851938 60.5550947,55.1531842 59.5874133,55.1531842" id="Fill-202" fill="#D7EBFA"></path>
                                            <path d="M59.5874133,55.0625413 C60.3040107,55.0625413 61.0096117,54.632989 61.2808557,53.9795597 C61.4861214,53.3279506 61.522776,52.5289104 61.638238,51.8099562 L62.180726,47.3761021 L63.1539055,38.4920126 L63.3921604,36.2696252 L63.516786,35.1593415 L63.5864298,34.6060198 C63.6065898,34.4276464 63.6029243,34.3730422 63.584597,34.2547333 C63.5222842,33.8488427 63.1520728,33.4866354 62.7122176,33.4083695 C62.5912575,33.3847078 62.5161156,33.3810675 62.3475044,33.3847078 L61.7866891,33.3992689 L60.661393,33.4247508 C57.6648798,33.5102972 54.6665338,33.4702542 51.6700206,33.4975563 C39.6803022,33.5576208 27.6905838,33.388348 15.7008654,33.0570831 L13.4539386,33.0042991 C12.7300103,32.9278533 12.1911878,33.1317087 11.8173109,33.6231457 C11.6432016,33.8597636 11.5460669,34.1491654 11.5552305,34.4422075 L11.6523652,35.5288293 L11.8961183,37.7475765 C12.2150133,40.7071196 12.5320755,43.6684827 12.9407743,46.6171049 L13.5254151,51.0454986 L13.8534737,53.2551451 C13.8974592,53.9322361 14.2841652,54.3472274 14.8248205,54.5474425 C15.2811702,54.713075 16.1517169,54.5656439 16.8738124,54.580205 L19.1225719,54.5165002 L23.6200909,54.4000114 C29.6149501,54.3181052 35.6079765,54.3108247 41.6028357,54.5820251 C47.5976949,54.7986214 53.5925541,55.0916635 59.5874133,55.0625413 M59.5874133,55.244555 C53.5925541,55.2154328 47.5976949,55.5084749 41.6028357,55.7250712 C35.6079765,55.9980918 29.6149501,55.9908113 23.6200909,55.907085 L19.1225719,55.788776 L16.8738124,55.7250712 L15.7503491,55.6941289 C15.4204577,55.6904886 14.8871333,55.6850282 14.4601073,55.4920937 C13.580397,55.1808502 12.9462725,54.1906956 12.9737634,53.3570728 L12.7776613,51.1328652 L12.3121479,46.6899104 C12.0207439,43.7267271 11.6358706,40.7744646 11.2564956,37.8222022 L10.9742552,35.6089154 L10.8221386,34.4749699 C10.785484,34.0272162 10.9137751,33.5612611 11.1630263,33.1844927 C11.6230415,32.4018337 12.691523,32.0432667 13.4539386,32.114252 L15.7008654,32.0596479 C27.6905838,31.7302031 39.6803022,31.5609303 51.6700206,31.6209949 C54.6665338,31.6482969 57.6648798,31.6064338 60.661393,31.6919802 L61.7866891,31.7192823 L62.3475044,31.7338434 C62.5564356,31.7356635 62.8570033,31.7611454 63.1007564,31.8284905 C64.1234196,32.0778493 64.9866353,32.9733568 65.0984319,34.0636189 C65.1350865,34.3147978 65.1057628,34.6333219 65.0691082,34.8244363 L64.9719735,35.3741177 L64.7685405,36.4716604 L64.3470126,38.6667458 L62.682894,47.4489076 L61.9076493,51.8499992 C61.7482018,52.5907951 61.7390381,53.306109 61.4842887,54.0669263 C61.1617282,54.8004416 60.369989,55.257296 59.5874133,55.244555" id="Fill-203" fill="#505A78"></path>
                                        </g>
                                    </g>
                                </g>
                            </g>
                        </g>
                    </g>
                </g>
            </g>
        </g>
    </g>
</svg>