<?xml version="1.0" encoding="UTF-8"?>
<svg width="48px" height="48px" viewBox="0 0 48 48" version="1.1" xmlns="http://www.w3.org/2000/svg" xmlns:xlink="http://www.w3.org/1999/xlink">
    <title>atom/icon/duo/case-management/inactive</title>
    <g id="atom/icon/duo/case-management/inactive" stroke="none" stroke-width="1" fill="none" fill-rule="evenodd">
        <path d="M16,6 L16,10 L10,10 L10,38 L38,38 L38,10 L32,10 L32,6 L38,6 C40.1420606,6 41.8910707,7.68409917 41.9951043,9.80037154 L42,10 L42,38 C42,40.1420606 40.3159008,41.8910707 38.1996285,41.9951043 L38,42 L10,42 C7.85793939,42 6.10892929,40.3159008 6.00489568,38.1996285 L6,38 L6,10 C6,7.85793939 7.68409917,6.10892929 9.80037154,6.00489568 L10,6 L16,6 Z M28,6 L28,12 C28,13.104 27.104,14 26,14 L22,14 C20.896,14 20,13.104 20,12 L20,6 L28,6 Z" id="Outter-Shape" fill="#CCCCCC"></path>
        <path d="M32,27 C33.104,27 34,27.896 34,29 C34,30.104 33.104,31 32,31 L16,31 C14.896,31 14,30.104 14,29 C14,27.896 14.896,27 16,27 L32,27 Z M32,19 C33.104,19 34,19.896 34,21 C34,22.104 33.104,23 32,23 L16,23 C14.896,23 14,22.104 14,21 C14,19.896 14.896,19 16,19 L32,19 Z" id="Inner-Shape" fill="#B3B3B3"></path>
    </g>
</svg>