[
  {
    "fieldID": "BLL1",
    "fieldValue": "Billing",
    "description": "txt_bll1_billing"
  },
  {
    "fieldID": "LTTR",
    "fieldValue": "Letter",
    "description": "txt_lttr_letter"
  },
  {
    "fieldID": "PLST",
    "fieldValue": "Plastics",
    "description": "txt_plst_plastics"
  },
  {
    "fieldID": "RFRN",
    "fieldValue": "Reference",
    "description": "txt_rfrn_reference"
  }
]
