[
    {
        "fieldID": "CAN",
        "fieldValue": "Canada",
        "description": "CAN - Canada"
    },
    {
        "fieldID": "USA",
        "fieldValue": "United States of America",
        "description": "USA - United States of America"
    }
]