[
  {
    "fieldID": "AUS",
    "fieldValue": "Australia",
    "description": "Australia"
  },
  {
    "fieldID": "BHS",
    "fieldValue": "Bahamas",
    "description": "Bahamas"
  },
  {
    "fieldID": "CAN",
    "fieldValue": "Canada",
    "description": "Canada"
  },
  {
    "fieldID": "DOM",
    "fieldValue": "Dominican Republic",
    "description": "Dominican Republic"
  },
  {
    "fieldID": "FRA",
    "fieldValue": "France",
    "description": "France"
  },
  {
    "fieldID": "DEU",
    "fieldValue": "Germany",
    "description": "Germany"
  },
  {
    "fieldID": "GGY",
    "fieldValue": "Guernsey",
    "description": "Guernsey"
  },
  {
    "fieldID": "IRL",
    "fieldValue": "Ireland",
    "description": "Ireland"
  },
  {
    "fieldID": "JEY",
    "fieldValue": "Jersey",
    "description": "Jersey"
  },
  {
    "fieldID": "MYS",
    "fieldValue": "Malaysia",
    "description": "Malaysia"
  },
  {
    "fieldID": "MEX",
    "fieldValue": "Mexico",
    "description": "Mexico"
  },
  {
    "fieldID": "PAN",
    "fieldValue": "Panama",
    "description": "Panama"
  },
  {
    "fieldID": "SAU",
    "fieldValue": "Saudi Arabia",
    "description": "Saudi Arabia"
  },
  {
    "fieldID": "ESP",
    "fieldValue": "Spain",
    "description": "Spain"
  },
  {
    "fieldID": "GBR",
    "fieldValue": "United Kingdom",
    "description": "United Kingdom"
  },
  {
    "fieldID": "USA",
    "fieldValue": "United States of America",
    "description": "United States of America"
  }
]
