[
  {
    "description": "txt_request_deletion_from_credit_bureau_files",
    "value": "D"
  },
  {
    "description": "txt_do_not_report",
    "value": "Q"
  },
  {
    "description": "txt_remove",
    "value": "R"
  },
  {
    "description": "txt_terminated",
    "value": "T"
  },
  {
    "description": "txt_individual",
    "value": "X"
  },
  {
    "description": "txt_do_not_report",
    "value": "Z"
  },
  {
    "description": "txt_individual",
    "value": "1"
  },
  {
    "description": "txt_joint_contractual_liability",
    "value": "2"
  },
  {
    "description": "txt_authorized_user",
    "value": "3"
  },
  {
    "description": "txt_co-maker",
    "value": "5"
  },
  {
    "description": "txt_maker",
    "value": "7"
  }
]
