[
  {
    "description": "txt_petition_for_chapter_7_bankruptcy",
    "value": "A"
  },
  {
    "description": "txt_petition_for_chapter_11_bankruptcy",
    "value": "B"
  },
  {
    "description": "txt_petition_for_chapter_12_bankruptcy",
    "value": "C"
  },
  {
    "description": "txt_petition_for_chapter_13_bankruptcy",
    "value": "D"
  },
  {
    "description": "txt_discharged_through_bankruptcy_chapter_7",
    "value": "E"
  },
  {
    "description": "txt_discharged_through_bankruptcy_chapter_11",
    "value": "F"
  },
  {
    "description": "txt_discharged_through_bankruptcy_chapter_12",
    "value": "G"
  },
  {
    "description": "txt_discharged_through_bankruptcy_chapter_13",
    "value": "H"
  },
  {
    "description": "txt_chapter_7_bankruptcy_dismissed",
    "value": "I"
  },
  {
    "description": "txt_chapter_11_bankruptcy_dismissed",
    "value": "J"
  },
  {
    "description": "txt_chapter_12_bankruptcy_dismissed",
    "value": "K"
  },
  {
    "description": "txt_chapter_13_bankruptcy_dismissed",
    "value": "L"
  },
  {
    "description": "txt_chapter_7_bankruptcy_withdrawn",
    "value": "M"
  },
  {
    "description": "txt_chapter_11_bankruptcy_withdrawn",
    "value": "N"
  },
  {
    "description": "txt_chapter_12_bankruptcy_withdrawn",
    "value": "O"
  },
  {
    "description": "txt_chapter_13_bankruptcy_withdrawn",
    "value": "P"
  },
  {
    "description": "txt_previously_reported_indicator_removed_for_bankruptcy_(a_through_p_or_z)_or_personal_receivership_(1a)",
    "value": "Q"
  },
  {
    "description": "txt_reaffirmation_of_debt",
    "value": "R"
  },
  {
    "description": "txt_reaffirmation_of_debt",
    "value": "S"
  },
  {
    "description": "txt_credit_grantor_cannot_locate_consumer",
    "value": "T"
  },
  {
    "description": "txt_consumer_now_located_(previously_reported_t_indicator_removed)",
    "value": "U"
  },
  {
    "description": "txt_chapter_7_reaffirmation_of_debt_rescinded;_consumer_reneges",
    "value": "V"
  },
  {
    "description": "txt_bankruptcy_undesignated_chapter,_1a_personal_receivership,_2a_lease_assumption",
    "value": "Z"
  }
]
