[
  {
    "description": "txt_none"
  },
  {
    "value": "A",
    "description": "txt_authorization_prohibited"
  },
  {
    "value": "B",
    "description": "txt_bankrupt"
  },
  {
    "value": "C",
    "description": "txt_closed"
  },
  {
    "value": "F",
    "description": "txt_frozen"
  },
  {
    "value": "I",
    "description": "txt_interest_accrual_prohibited"
  },
  {
    "value": "L",
    "description": "txt_lost"
  },
  {
    "value": " ",
    "description": "txt_normal"
  },
  {
    "value": "E",
    "description": "txt_revoked"
  },
  {
    "value": "U",
    "description": "txt_stolen"
  }
]
