[
  {
    "value": 0,
    "description": "None"
  },
  {
    "value": 3,
    "description": "3 Months"
  },
  {
    "value": 4,
    "description": "4 Months"
  },
  {
    "value": 5,
    "description": "5 Months"
  },
  {
    "value": 6,
    "description": "6 Months"
  },
  {
    "value": 7,
    "description": "7 Months"
  },
  {
    "value": 8,
    "description": "8 Months"
  },
  {
    "value": 9,
    "description": "9 Months"
  },
  {
    "value": 10,
    "description": "10 Months"
  },
  {
    "value": 11,
    "description": "11 Months"
  },
  {
    "value": 12,
    "description": "12 Months"
  }
]
