[
  {
    "code": "CCCS",
    "text": "CCCS"
  },
  {
    "code": "Hardship",
    "text": "Hardship"
  },
  {
    "code": "Queue Management",
    "text": "Queue Management"
  },
  {
    "code": "Talking Points",
    "text": "Talking Points"
  }
]