[
  {
    "description": "txt_yes_there_is_collectible_status_on_the_nonfiler",
    "value": "Y"
  },
  {
    "description": "txt_no_there_is_no_collectible_status_on_the_nonfiler",
    "value": " "
  }
]
