[
  {
    "value": "C",
    "description": "txt_c_do_not_contact_cease_and_desist"
  },
  {
    "value": "N",
    "description": "txt_n_number_not_valid"
  },
  {
    "value": "D",
    "description": "txt_d_disconnected"
  },
  {
    "value": "E",
    "description": "txt_e_no_longer_at_this_number"
  },
  {
    "value": "G",
    "description": "txt_g_consent_for_voice_contact"
  },
  {
    "value": "H",
    "description": "txt_h_do_not_contact"
  },
  {
    "value": "B",
    "description": "txt_b_consent_for_sms_text_messages_and_voice"
  },
  {
    "value": "S",
    "description": "txt_s_consent_for_sms_text_messages_only"
  },
  {
    "value": "U",
    "description": "txt_u_number_is_unlisted,_do_not_contact"
  },
  {
    "value": "V",
    "description": "txt_v_number_is_not_verified"
  },
  {
    "value": "X",
    "description": "txt_x_do_not_contact_the_customer"
  },
  {
    "value": "Y",
    "description": "txt_y_number_is_valid;_manual_dial_only"
  }
]
