{
  "queueDetails": [
    {
      "queueName": "Queue 004 - Bankruptcy",
      "collectorQueueStats": {
        "totalAccounts": "0",
        "accountsWorked": "0",
        "totalAmount": "0.00",
        "amountCollected": "0.00"
      },
      "collectorPromiseStats": {
        "pendingPromises": "0",
        "pendingAmount": "0.00",
        "keptPromises": "0",
        "keptAmount": "0.00",
        "brokenPromises": "0",
        "brokenAmount": "0.00",
        "totalPromises": "0",
        "totalAmount": "0.00"
      }
    },
    {
      "queueName": "Queue 004 - Bankruptcy",
      "collectorQueueStats": {
        "totalAccounts": "0",
        "accountsWorked": "0",
        "totalAmount": "0.00",
        "amountCollected": "0.00"
      },
      "collectorPromiseStats": {
        "pendingPromises": "0",
        "pendingAmount": "0.00",
        "keptPromises": "0",
        "keptAmount": "0.00",
        "brokenPromises": "0",
        "brokenAmount": "0.00",
        "totalPromises": "0",
        "totalAmount": "60.00"
      }
    },
    {
      "queueName": "Queue 004 - Bankruptcy",
      "collectorQueueStats": {
        "totalAccounts": "0",
        "accountsWorked": "0",
        "totalAmount": "0.00",
        "amountCollected": "0.00"
      },
      "collectorPromiseStats": {
        "pendingPromises": "0",
        "pendingAmount": "0.00",
        "keptPromises": "0",
        "keptAmount": "0.00",
        "brokenPromises": "0",
        "brokenAmount": "0.00",
        "totalPromises": "0",
        "totalAmount": "0.00"
      }
    },
    {
      "queueName": "Queue 004 - Bankruptcy",
      "collectorQueueStats": {
        "totalAccounts": "0",
        "accountsWorked": "0",
        "totalAmount": "0.00",
        "amountCollected": "0.00"
      },
      "collectorPromiseStats": {
        "pendingPromises": "0",
        "pendingAmount": "0.00",
        "keptPromises": "0",
        "keptAmount": "0.00",
        "brokenPromises": "0",
        "brokenAmount": "0.00",
        "totalPromises": "0",
        "totalAmount": "0.00"
      }
    }
  ]
}
