{
  "CAN": [
    {
      "fieldID": "AB",
      "fieldValue": "Alberta",
      "description": "AB - Alberta"
    },
    {
      "fieldID": "BC",
      "fieldValue": "British Columbia",
      "description": "BC - British Columbia"
    },
    {
      "fieldID": "MB",
      "fieldValue": "Manitoba",
      "description": "MB - Manitoba"
    },
    {
      "fieldID": "NB",
      "fieldValue": "New Brunswick",
      "description": "NB - New Brunswick"
    },
    {
      "fieldID": "NL",
      "fieldValue": "Newfoundland and Labrador",
      "description": "NL - Newfoundland and Labrador"
    },
    {
      "fieldID": "NS",
      "fieldValue": "Nova Scotia",
      "description": "NS - Nova Scotia"
    },
    {
      "fieldID": "NT",
      "fieldValue": "Northern Territory",
      "description": "NT - Northern Territory"
    },
    {
      "fieldID": "NT",
      "fieldValue": "Northwest Territories",
      "description": "NT - Northwest Territories"
    },
    {
      "fieldID": "NU",
      "fieldValue": "Nunavut",
      "description": "NU - Nunavut"
    },
    {
      "fieldID": "ON",
      "fieldValue": "Ontario",
      "description": "ON - Ontario"
    },
    {
      "fieldID": "PE",
      "fieldValue": "Prince Edward Island",
      "description": "PE - Prince Edward Island"
    },
    {
      "fieldID": "QC",
      "fieldValue": "Quebec",
      "description": "QC - Quebec"
    },
    {
      "fieldID": "SK",
      "fieldValue": "Saskatchewan",
      "description": "SK - Saskatchewan"
    },
    {
      "fieldID": "YT",
      "fieldValue": "Yukon",
      "description": "YT - Yukon"
    }
  ],
  "USA": [
    {
      "fieldID": "AA",
      "fieldValue": "APO/FPO Florida",
      "description": "AA - APO/FPO Florida"
    },
    {
      "fieldID": "AE",
      "fieldValue": "APO/FPO New York",
      "description": "AE - APO/FPO New York"
    },
    {
      "fieldID": "AK",
      "fieldValue": "Alaska",
      "description": "AK - Alaska"
    },
    {
      "fieldID": "AL",
      "fieldValue": "Alabama",
      "description": "AL - Alabama"
    },
    {
      "fieldID": "AP",
      "fieldValue": "APO/FPO California",
      "description": "AP - APO/FPO California"
    },
    {
      "fieldID": "AR",
      "fieldValue": "Arkansas",
      "description": "AR - Arkansas"
    },
    {
      "fieldID": "AZ",
      "fieldValue": "Arizona",
      "description": "AZ - Arizona"
    },
    {
      "fieldID": "CA",
      "fieldValue": "California",
      "description": "CA - California"
    },
    {
      "fieldID": "CO",
      "fieldValue": "Colorado",
      "description": "CO - Colorado"
    },
    {
      "fieldID": "CT",
      "fieldValue": "Connecticut",
      "description": "CT - Connecticut"
    },
    {
      "fieldID": "DC",
      "fieldValue": "District of Columbia",
      "description": "DC - District of Columbia"
    },
    {
      "fieldID": "DE",
      "fieldValue": "Delaware",
      "description": "DE - Delaware"
    },
    {
      "fieldID": "FL",
      "fieldValue": "Florida",
      "description": "FL - Florida"
    },
    {
      "fieldID": "GA",
      "fieldValue": "Georgia",
      "description": "GA - Georgia"
    },
    {
      "fieldID": "HI",
      "fieldValue": "Hawaii",
      "description": "HI - Hawaii"
    },
    {
      "fieldID": "IA",
      "fieldValue": "Iowa",
      "description": "IA - Iowa"
    },
    {
      "fieldID": "ID",
      "fieldValue": "Idaho",
      "description": "ID - Idaho"
    },
    {
      "fieldID": "IL",
      "fieldValue": "Illinois",
      "description": "IL - Illinois"
    },
    {
      "fieldID": "IN",
      "fieldValue": "Indiana",
      "description": "IN - Indiana"
    },
    {
      "fieldID": "KS",
      "fieldValue": "Kansas",
      "description": "KS - Kansas"
    },
    {
      "fieldID": "KY",
      "fieldValue": "Kentucky",
      "description": "KY - Kentucky"
    },
    {
      "fieldID": "LA",
      "fieldValue": "Louisiana",
      "description": "LA - Louisiana"
    },
    {
      "fieldID": "MA",
      "fieldValue": "Massachusetts",
      "description": "MA - Massachusetts"
    },
    {
      "fieldID": "MD",
      "fieldValue": "Maryland",
      "description": "MD - Maryland"
    },
    {
      "fieldID": "ME",
      "fieldValue": "Maine",
      "description": "ME - Maine"
    },
    {
      "fieldID": "MI",
      "fieldValue": "Michigan",
      "description": "MI - Michigan"
    },
    {
      "fieldID": "MN",
      "fieldValue": "Minnesota",
      "description": "MN - Minnesota"
    },
    {
      "fieldID": "MO",
      "fieldValue": "Missouri",
      "description": "MO - Missouri"
    },
    {
      "fieldID": "MS",
      "fieldValue": "Mississippi",
      "description": "MS - Mississippi"
    },
    {
      "fieldID": "MT",
      "fieldValue": "Montana",
      "description": "MT - Montana"
    },
    {
      "fieldID": "NC",
      "fieldValue": "North Carolina",
      "description": "NC - North Carolina"
    },
    {
      "fieldID": "ND",
      "fieldValue": "North Dakota",
      "description": "ND - North Dakota"
    },
    {
      "fieldID": "NE",
      "fieldValue": "Nebraska",
      "description": "NE - Nebraska"
    },
    {
      "fieldID": "NH",
      "fieldValue": "New Hampshire",
      "description": "NH - New Hampshire"
    },
    {
      "fieldID": "NJ",
      "fieldValue": "New Jersey",
      "description": "NJ - New Jersey"
    },
    {
      "fieldID": "NM",
      "fieldValue": "New Mexico",
      "description": "NM - New Mexico"
    },
    {
      "fieldID": "NV",
      "fieldValue": "Nevada",
      "description": "NV - Nevada"
    },
    {
      "fieldID": "NY",
      "fieldValue": "New York",
      "description": "NY - New York"
    },
    {
      "fieldID": "OH",
      "fieldValue": "Ohio",
      "description": "OH - Ohio"
    },
    {
      "fieldID": "OK",
      "fieldValue": "Oklahoma",
      "description": "OK - Oklahoma"
    },
    {
      "fieldID": "OR",
      "fieldValue": "Oregon",
      "description": "OR - Oregon"
    },
    {
      "fieldID": "PA",
      "fieldValue": "Pennsylvania",
      "description": "PA - Pennsylvania"
    },
    {
      "fieldID": "PR",
      "fieldValue": "Puerto Rico",
      "description": "PR - Puerto Rico"
    },
    {
      "fieldID": "RI",
      "fieldValue": "Rhode Island",
      "description": "RI - Rhode Island"
    },
    {
      "fieldID": "SC",
      "fieldValue": "South Carolina",
      "description": "SC - South Carolina"
    },
    {
      "fieldID": "SD",
      "fieldValue": "South Dakota",
      "description": "SD - South Dakota"
    },
    {
      "fieldID": "TN",
      "fieldValue": "Tennessee",
      "description": "TN - Tennessee"
    },
    {
      "fieldID": "TX",
      "fieldValue": "Texas",
      "description": "TX - Texas"
    },
    {
      "fieldID": "UT",
      "fieldValue": "Utah",
      "description": "UT - Utah"
    },
    {
      "fieldID": "VA",
      "fieldValue": "Virginia",
      "description": "VA - Virginia"
    },
    {
      "fieldID": "VI",
      "fieldValue": "U.S. Virgin Islands",
      "description": "VI - U.S. Virgin Islands"
    },
    {
      "fieldID": "VT",
      "fieldValue": "Vermont",
      "description": "VT - Vermont"
    },
    {
      "fieldID": "WA",
      "fieldValue": "Washington",
      "description": "WA - Washington"
    },
    {
      "fieldID": "WI",
      "fieldValue": "Wisconsin",
      "description": "WI - Wisconsin"
    },
    {
      "fieldID": "WV",
      "fieldValue": "West Virginia",
      "description": "WV - West Virginia"
    },
    {
      "fieldID": "WY",
      "fieldValue": "Wyoming",
      "description": "WY - Wyoming"
    }
  ]
}
