{
  "fields": [
    {
      "name": "achRoutingNumber",
      "type": "GroupTextControl",
      "label": "txt_routing_number",
      "dataField": "routingNumber"
    },
    {
      "name": "achCheckingNumber",
      "type": "GroupTextControl",
      "label": "txt_checking_account_number",
      "dataField": "checkingAccountNumber"
    },
    {
      "name": "achSavingsNumber",
      "type": "GroupTextControl",
      "label": "txt_savings_account_number",
      "dataField": "savingsAccountNumber"
    },
    {
      "name": "achBankName",
      "type": "GroupTextControl",
      "label": "txt_bank_name",
      "dataField": "institutionFullName"
    },
    {
      "name": "achBankCity",
      "type": "GroupTextControl",
      "label": "txt_bank_city",
      "dataField": "institutionCity"
    },
    {
      "name": "achBankState",
      "type": "GroupTextControl",
      "label": "txt_bank_state",
      "dataField": "institutionState"
    }
  ]
}
