{
  "fields": [
    {
      "name": "adjustTransactionTypeDropdown",
      "type": "DropDownControl",
      "label": "txt_type",
      "dataField": "type",
      "uniqueField": "adjustmentTranCode",
      "textField": "adjustmentDescription",
      "options": {
        "combineValues": true
      },
      "props": {
        "required": true
      },
      "validationRules": [
        {
          "ruleName": "Required",
          "errorMsg": "txt_type_is_required"
        }
      ]
    },
    {
      "name": "adjustTransactionReasonDropdown",
      "type": "DropDownControl",
      "label": "txt_reason_for_adjustment",
      "dataField": "reason",
      "textField": "description",
      "dataSourceName": "adjustTransactionReason"
    },
    {
      "name": "adjustTransactionAmountNumeric",
      "type": "NumericControl",
      "label": "txt_amount",
      "dataField": "amount",
      "format": "c2",
      "props": {
        "required": true
      },
      "validationRules": [
        {
          "ruleName": "Required",
          "errorMsg": "txt_adjust_transaction_amount_err_msg"
        },
        {
          "ruleName": "Min",
          "errorMsg": "txt_adjust_transaction_amount_err_msg",
          "ruleOptions": {
            "minValue": 0
          }
        },
        {
          "ruleName": "MustNotGreaterThan",
          "errorMsg": "txt_adjust_transaction_amount_err_msg",
          "ruleOptions": {
            "otherField": "hiddenField"
          }
        }
      ]
    },
    {
      "name": "adjustTransactionPromoIdDropdown",
      "type": "DropDownControl",
      "label": "txt_promo_id",
      "dataField": "promoId",
      "textField": "description",
      "dataSourceName": "adjustTransactionPromoId",
      "uniqueField": "value",
      "options": {
        "combineValues": true
      }
    },
    {
      "name": "hiddenField",
      "type": "TextBoxControl",
      "dataField": "originalAmount",
      "value": "0"
    }
  ]
}