{
  "fields": [
    {
      "name": "adjustmentDetailAccNbr",
      "label": "txt_transaction_adjustment_account_number",
      "type": "GroupTextControl",
      "dataField": "accNbr.maskedValue",
      "options": {
        "format": "mask"
      }
    },
    {
      "name": "adjustmentDetailMerchantNbr",
      "label": "txt_transaction_adjustment_merchant_number",
      "type": "GroupTextControl",
      "dataField": "merchantNbr",
      "options": {
        "format": "mask"
      }
    },
    {
      "name": "adjustmentDetailReferenceNumber",
      "label": "txt_transaction_adjustment_reference_number",
      "type": "GroupTextControl",
      "dataField": "referenceNbr"
    },
    {
      "name": "adjustmentDetailPostingDate",
      "label": "txt_payment_history_posting_date",
      "type": "GroupTextControl",
      "dataField": "postDate",
      "options": {
        "format": "date"
      }
    },
    {
      "name": "adjustmentDetailAmountTransaction",
      "label": "txt_amount",
      "type": "GroupTextControl",
      "dataField": "amountTransaction",
      "options": {
        "format": "api_amount"
      }
    },
    {
      "name": "adjustmentDetailAmount",
      "label": "txt_amount",
      "type": "GroupTextControl",
      "dataField": "amount",
      "options": {
        "format": "api_amount"
      }
    },
    {
      "name": "adjustmentDetailTransactionType",
      "label": "txt_transaction_type",
      "type": "GroupTextControl",
      "dataField": "transactionType"
    },
    {
      "name": "adjustmentDetailBatchPrefix",
      "label": "txt_transaction_adjustment_batch_prefix",
      "type": "GroupTextControl",
      "dataField": "batch"
    },
    {
      "name": "adjustmentDetailBatchType",
      "label": "txt_transaction_adjustment_batch_type",
      "type": "GroupTextControl",
      "dataField": "batchType"
    }
  ]
}
