{
  "fields": [
    {
      "name": "bankruptcyMainInformationHeading",
      "type": "HeadingControl",
      "label": "txt_bankruptcy_main_information",
      "as": "h6"
    },
    {
      "name": "bankruptcyFillingInformationHeading",
      "type": "HeadingControl",
      "label": "txt_bankruptcy_general_information",
      "as": "h6"
    },
    {
      "name": "blankField",
      "type": ""
    },
    {
      "name": "bankruptcyCaseNumeric",
      "type": "TextBoxControl",
      "label": "txt_bankruptcy_case",
      "dataField": "bankruptcyCaseIdentifier",
      "props": {
        "required": true
      },
      "options": {
        "isAlphaNumeric": true,
        "maxLength": 8
      },
      "enable": true,
      "validationRules": [
        {
          "ruleName": "Required",
          "errorMsg": "txt_bankruptcy_attorney_case_validator_required"
        }
      ]
    },
    {
      "name": "bankruptcyChapterDropdown",
      "type": "DropDownControl",
      "label": "txt_bankruptcy_chapter",
      "dataField": "bankruptcyChapterCode",
      "textField": "description",
      "dataSourceName": "bankruptcyChapter",
      "uniqueField": "value",
      "props": {
        "required": true
      },
      "enable": true,
      "validationRules": [
        {
          "ruleName": "Required",
          "errorMsg": "txt_bankruptcy_attorney_chapter_validator_required"
        }
      ]
    },
    {
      "name": "bankruptcyAttorneyName",
      "type": "TextBoxControl",
      "label": "txt_bankruptcy_attorney_name",
      "dataField": "attorneyName",
      "options": {
        "maxLength": 30
      }
    },
    {
      "name": "bankruptcyAttorneyPhoneNumberTextBox",
      "type": "MaskedTextBoxControl",
      "label": "txt_bankruptcy_attorney_phone_number",
      "dataField": "attorneyPhoneNumber",
      "mask": [
        {
          "isRegex": false,
          "pattern": "("
        },
        {
          "isRegex": true,
          "pattern": "\\d"
        },
        {
          "isRegex": true,
          "pattern": "\\d"
        },
        {
          "isRegex": true,
          "pattern": "\\d"
        },
        {
          "isRegex": false,
          "pattern": ")"
        },
        {
          "isRegex": false,
          "pattern": " "
        },
        {
          "isRegex": true,
          "pattern": "\\d"
        },
        {
          "isRegex": true,
          "pattern": "\\d"
        },
        {
          "isRegex": true,
          "pattern": "\\d"
        },
        {
          "isRegex": false,
          "pattern": "-"
        },
        {
          "isRegex": true,
          "pattern": "\\d"
        },
        {
          "isRegex": true,
          "pattern": "\\d"
        },
        {
          "isRegex": true,
          "pattern": "\\d"
        },
        {
          "isRegex": true,
          "pattern": "\\d"
        }
      ],
      "placeholder": "(__) ___-____",
      "validationRules": [
        {
          "ruleName": "MinLength",
          "errorMsg": "txt_attorney_phone_number_validator_min_length",
          "ruleOptions": {
            "minLength": 10
          }
        }
      ]
    },
    {
      "name": "fillingInformationTypeDropdown",
      "type": "DropDownControl",
      "label": "txt_type",
      "dataField": "bankruptcyType",
      "textField": "description",
      "uniqueField": "value",
      "dataSourceName": "fillingInformationType",
      "props": {
        "required": true
      },
      "validationRules": [
        {
          "ruleName": "Required",
          "errorMsg": "txt_bankruptcy_type_validator_required"
        }
      ]
    },
    {
      "name": "bankruptcyFilerName",
      "type": "DropDownControl",
      "label": "txt_filer_name",
      "dataField": "filerName",
      "textField": "description",
      "uniqueField": "value",
      "enable": true
    },
    {
      "name": "bankruptcyJointFilerName",
      "type": "TextBoxControl",
      "label": "txt_joint_filer_name",
      "dataField": "jointFilerName",
      "textField": "description",
      "uniqueField": "value"
    },
    {
      "name": "fillingInformationAssetsDropdown",
      "type": "DropDownControl",
      "label": "txt_bankruptcy_assets",
      "dataField": "bankruptcyAssetIndicator",
      "textField": "description",
      "dataSourceName": "fillingInformationAssets",
      "uniqueField": "value",
      "options": {
        "combineValues": true
      }
    },
    {
      "name": "fillingInformationJurisdictionTextBox",
      "type": "TextBoxControl",
      "label": "txt_bankruptcy_jurisdiction",
      "dataField": "bankruptcyJurisdiction"
    },
    {
      "name": "fillingInformationFileDateDatePicker",
      "type": "DatePickerControl",
      "label": "txt_bankruptcy_file_date",
      "dataField": "bankruptcyFileDate",
      "props": {
        "required": true
      },
      "enable": true,
      "validationRules": [
        {
          "ruleName": "Required",
          "errorMsg": "txt_bankruptcy_file_date_validator_required"
        }
      ]
    },
    {
      "name": "fillingInformationPocAmountNumeric",
      "type": "NumericControl",
      "label": "txt_bankruptcy_poc_amount",
      "dataField": "bankruptcyCurrentBalanceAmount",
      "format": "c2",
      "maxLength": 15
    },
    {
      "name": "fillingInformationProSeDropdown",
      "type": "DropDownControl",
      "label": "txt_bankruptcy_pro_se",
      "dataField": "bankruptcyProSeIndicator",
      "textField": "description",
      "dataSourceName": "fillingInformationProSe",
      "uniqueField": "value",
      "options": {
        "combineValues": true
      }
    },
    {
      "name": "fillingInformationDismissalDateDatePicker",
      "type": "DatePickerControl",
      "label": "txt_bankruptcy_dismissal_date",
      "dataField": "bankruptcyDismissalDate",
      "options": {
        "inputFormatDate": "MMDDYYYY"
      }
    },
    {
      "name": "fillingInformationDischargeDateDatePicker",
      "type": "DatePickerControl",
      "label": "txt_bankruptcy_discharge_date",
      "dataField": "bankruptcyDischargeDate",
      "options": {
        "inputFormatDate": "MMDDYYYY"
      }
    },
    {
      "name": "fillingInformationCloseDateDatePicker",
      "type": "DatePickerControl",
      "label": "txt_bankruptcy_close_date",
      "dataField": "bankruptcyCloseDate",
      "options": {
        "inputFormatDate": "MMDDYYYY"
      }
    },
    {
      "name": "fillingInformationReopenDateDatePicker",
      "type": "DatePickerControl",
      "label": "txt_bankruptcy_reopen_date",
      "dataField": "bankruptcyReopenDate",
      "options": {
        "inputFormatDate": "MMDDYYYY"
      }
    },
    {
      "name": "fillingInformationConversionDateDatePicker",
      "type": "DatePickerControl",
      "label": "txt_bankruptcy_conversion_date",
      "dataField": "bankruptcyConversationDate",
      "options": {
        "inputFormatDate": "MMDDYYYY"
      }
    },
    {
      "name": "fillingInformationReaffirmedDateDatePicker",
      "type": "DatePickerControl",
      "label": "txt_bankruptcy_reaffirmed_date",
      "dataField": "bankruptcyReaffirmedDate",
      "options": {
        "inputFormatDate": "MMDDYYYY"
      }
    },
    {
      "name": "fillingInformationConfirmedDateDatePicker",
      "type": "DatePickerControl",
      "label": "txt_bankruptcy_confirmed_date",
      "dataField": "bankruptcyConfirmationDate",
      "options": {
        "inputFormatDate": "MMDDYYYY"
      }
    },
    {
      "name": "fillingInformationProofOfClaimBarDateDatePicker",
      "type": "DatePickerControl",
      "label": "txt_bankruptcy_proof_of_claim_bar_date",
      "dataField": "proofOfClaimBarcodeDate",
      "options": {
        "inputFormatDate": "MMDDYYYY",
        "outputFormatDate": "MM/DD/YYYY"
      }
    },
    {
      "name": "fillingInformationSurrenderIndicatorDropdown",
      "type": "DropDownControl",
      "label": "txt_bankruptcy_surrender_indicator",
      "dataField": "voluntarySurrenderIndicator",
      "textField": "description",
      "dataSourceName": "fillingInformationSurrenderIndicator",
      "uniqueField": "value",
      "options": {
        "combineValues": true
      }
    },
    {
      "name": "fillingInformationNonfilerIndicatorDropdown",
      "type": "DropDownControl",
      "label": "txt_bankruptcy_nonfiler_indicator",
      "dataField": "accountNonfilerIndicator",
      "textField": "description",
      "dataSourceName": "fillingInformationNonfilerIndicator",
      "uniqueField": "value",
      "options": {
        "combineValues": true
      }
    },
    {
      "name": "fillingInformationNonfilerCollectibleIndicatorDropdown",
      "type": "DropDownControl",
      "label": "txt_bankruptcy_nonfiler_collectible_indicator",
      "dataField": "accountNonfilerCollectibleIndicator",
      "textField": "description",
      "dataSourceName": "fillingInformationNonfilerCollectibleIndicator",
      "uniqueField": "value",
      "options": {
        "combineValues": true
      }
    },
    {
      "name": "fillingInformationSettledAmountNumeric",
      "type": "NumericControl",
      "label": "txt_bankruptcy_settled_amount",
      "dataField": "accountSettledAmount",
      "format": "c2",
      "maxLength": 15
    },
    {
      "name": "fillingInformationRedeemedAmountNumeric",
      "type": "NumericControl",
      "label": "txt_bankruptcy_redeemed_amount",
      "dataField": "accountRedeemedAmount",
      "format": "c2",
      "maxLength": 15
    },
    {
      "name": "fillingInformationOriginalPlanAmountNumeric",
      "type": "NumericControl",
      "label": "txt_bankruptcy_original_plan_amount",
      "dataField": "originalPlanAmount",
      "format": "c2",
      "maxLength": 15
    },
    {
      "name": "fillingInformationPlanDifferenceAmountNumeric",
      "type": "NumericControl",
      "label": "txt_bankruptcy_plan_difference_amount",
      "dataField": "planDifferenceAmount",
      "format": "c2",
      "maxLength": 15
    },
    {
      "name": "fillingInformationPlanPaymentAmountNumeric",
      "type": "NumericControl",
      "label": "txt_bankruptcy_plan_payment_amount",
      "dataField": "planPaymentAmount",
      "format": "c2",
      "maxLength": 15
    },
    {
      "name": "fillingInformationPrimaryCustomerInformationIndicatorCodeDropdownBox",
      "type": "DropDownControl",
      "label": "txt_bankruptcy_primary_customer_information_indicator_code",
      "dataField": "primaryConsumerInformationIndicatorCode",
      "textField": "description",
      "dataSourceName": "fillingInformationPrimaryCustomerInformationIndicatorCode",
      "uniqueField": "value",
      "options": {
        "combineValues": true
      },
      "validationRules": [
        {
          "ruleName": "Required",
          "errorMsg": "txt_primary_customer_information_indicator_code_required"
        }
      ]
    },
    {
      "name": "fillingInformationPrimaryCreditBureauReportCodeDropdownBox",
      "type": "DropDownControl",
      "label": "txt_bankruptcy_primary_credit_bureau_report_code",
      "dataField": "primaryCreditBureauReportCode",
      "textField": "description",
      "uniqueField": "value",
      "options": {
        "combineValues": true
      },
      "validationRules": [
        {
          "ruleName": "Required",
          "errorMsg": "txt_primary_credit_bureau_report_code_required"
        }
      ]
    },
    {
      "name": "fillingInformationSecondaryCustomerInformationIndicatorCodeDropdownBox",
      "type": "DropDownControl",
      "label": "txt_bankruptcy_secondary_customer_information_indicator_code",
      "dataField": "secondaryConsumerInformationIndicatorCode",
      "textField": "description",
      "dataSourceName": "fillingInformationSecondaryCustomerInformationIndicatorCode",
      "uniqueField": "value",
      "options": {
        "combineValues": true
      },
      "validationRules": [
        {
          "ruleName": "Required",
          "errorMsg": "txt_secondary_customer_information_indicator_code_required"
        }
      ]
    },
    {
      "name": "fillingInformationSecondaryCreditBureauReportCodeDropdownBox",
      "type": "DropDownControl",
      "label": "txt_bankruptcy_secondary_credit_bureau_report_code",
      "dataField": "secondaryCreditBureauReportCode",
      "textField": "description",
      "uniqueField": "value",
      "options": {
        "combineValues": true
      },
      "validationRules": [
        {
          "ruleName": "Required",
          "errorMsg": "txt_secondary_credit_bureau_report_code_required"
        }
      ]
    },
    {
      "name": "additionalAttorneyInfoAddressLineOneTextBox",
      "type": "TextBoxControl",
      "label": "txt_bankruptcy_address_line_one",
      "dataField": "attorneyAddressLine1Text",
      "options": {
        "maxLength": 35
      }
    },
    {
      "name": "additionalAttorneyInfoAddressLineTwoTextBox",
      "type": "TextBoxControl",
      "label": "txt_bankruptcy_address_line_two",
      "dataField": "attorneyAddressLine2Text",
      "options": {
        "maxLength": 35
      }
    },
    {
      "name": "additionalAttorneyInfoCityTextBox",
      "type": "TextBoxControl",
      "label": "txt_bankruptcy_city",
      "dataField": "attorneyCityName",
      "options": {
        "maxLength": 18
      }
    },
    {
      "name": "additionalAttorneyInfoStateComboBox",
      "type": "DropDownControl",
      "label": "txt_bankruptcy_state",
      "dataField": "attorneyStateCode",
      "textField": "description",
      "dataSourceName": "getUSAState",
      "uniqueField": "value",
      "options": {
        "combineValues": true
      }
    },
    {
      "name": "additionalAttorneyInfoZipNumeric",
      "type": "TextBoxControl",
      "label": "txt_zip_uppercase",
      "dataField": "attorneyPostalCode",
      "options": {
        "maxLength": 5,
        "isZip": true
      },
      "format": "i"
    },
    {
      "name": "additionalAttorneyInfoFaxTextBox",
      "type": "MaskedTextBoxControl",
      "label": "txt_bankruptcy_fax",
      "dataField": "attorneyFaxNumber",
      "mask": [
        {
          "isRegex": false,
          "pattern": "("
        },
        {
          "isRegex": true,
          "pattern": "\\d"
        },
        {
          "isRegex": true,
          "pattern": "\\d"
        },
        {
          "isRegex": true,
          "pattern": "\\d"
        },
        {
          "isRegex": false,
          "pattern": ")"
        },
        {
          "isRegex": false,
          "pattern": " "
        },
        {
          "isRegex": true,
          "pattern": "\\d"
        },
        {
          "isRegex": true,
          "pattern": "\\d"
        },
        {
          "isRegex": true,
          "pattern": "\\d"
        },
        {
          "isRegex": false,
          "pattern": "-"
        },
        {
          "isRegex": true,
          "pattern": "\\d"
        },
        {
          "isRegex": true,
          "pattern": "\\d"
        },
        {
          "isRegex": true,
          "pattern": "\\d"
        },
        {
          "isRegex": true,
          "pattern": "\\d"
        }
      ],
      "placeholder": "(__) ___-____",
      "validationRules": [
        {
          "ruleName": "MinLength",
          "errorMsg": "txt_fax_number_validator_min_length",
          "ruleOptions": {
            "minLength": 10
          }
        }
      ]
    },
    {
      "name": "additionalAttorneyInfoFirmTextBox",
      "type": "TextBoxControl",
      "label": "txt_bankruptcy_firm",
      "dataField": "attorneyFirm"
    },
    {
      "name": "additionalAttorneyInfoRetainedDropdownBox",
      "type": "DropDownControl",
      "label": "txt_bankruptcy_retained",
      "dataField": "attorneyRetained",
      "textField": "description",
      "dataSourceName": "additionalAttorneyInformationRetained",
      "uniqueField": "value",
      "options": {
        "combineValues": true
      }
    },
    {
      "name": "additionalAttorneyInfoEmailTextBox",
      "type": "TextBoxControl",
      "label": "txt_bankruptcy_email",
      "dataField": "attorneyEmail",
      "validationRules": [
        {
          "ruleName": "RegExp",
          "errorMsg": "txt_invalid_format",
          "ruleOptions": {
            "regExp": "^(([^<>()\\[\\]\\.,;:\\s@\"]+(\\.[^<>()\\[\\]\\.,;:\\s@\"]+)*)|(\".+\"))@((\\[[0-9]{1,3}\\.[0-9]{1,3}\\.[0-9]{1,3}\\.[0-9]{1,3}])|(([a-zA-Z\\-0-9]+\\.)+[a-zA-Z]{2,}))$"
          }
        }
      ]
    },
    {
      "name": "trusteeInfoTrusteeNameTextBox",
      "type": "TextBoxControl",
      "label": "txt_bankruptcy_trustee_name",
      "dataField": "trusteeName",
      "options": {
        "maxLength": 30
      }
    },
    {
      "name": "trusteeInfoPhoneNumberTextBox",
      "type": "MaskedTextBoxControl",
      "label": "txt_bankruptcy_phone_number",
      "dataField": "trusteePhoneNumber",
      "mask": [
        {
          "isRegex": false,
          "pattern": "("
        },
        {
          "isRegex": true,
          "pattern": "\\d"
        },
        {
          "isRegex": true,
          "pattern": "\\d"
        },
        {
          "isRegex": true,
          "pattern": "\\d"
        },
        {
          "isRegex": false,
          "pattern": ")"
        },
        {
          "isRegex": false,
          "pattern": " "
        },
        {
          "isRegex": true,
          "pattern": "\\d"
        },
        {
          "isRegex": true,
          "pattern": "\\d"
        },
        {
          "isRegex": true,
          "pattern": "\\d"
        },
        {
          "isRegex": false,
          "pattern": "-"
        },
        {
          "isRegex": true,
          "pattern": "\\d"
        },
        {
          "isRegex": true,
          "pattern": "\\d"
        },
        {
          "isRegex": true,
          "pattern": "\\d"
        },
        {
          "isRegex": true,
          "pattern": "\\d"
        }
      ],
      "placeholder": "(__) ___-____",
      "validationRules": [
        {
          "ruleName": "MinLength",
          "errorMsg": "txt_error_msg_phone_number",
          "ruleOptions": {
            "minLength": 10
          }
        }
      ]
    },
    {
      "name": "trusteeInfoEmailTextBox",
      "type": "TextBoxControl",
      "label": "txt_bankruptcy_email",
      "dataField": "trusteeEmail",
      "validationRules": [
        {
          "ruleName": "RegExp",
          "errorMsg": "txt_invalid_format",
          "ruleOptions": {
            "regExp": "^(([^<>()\\[\\]\\.,;:\\s@\"]+(\\.[^<>()\\[\\]\\.,;:\\s@\"]+)*)|(\".+\"))@((\\[[0-9]{1,3}\\.[0-9]{1,3}\\.[0-9]{1,3}\\.[0-9]{1,3}])|(([a-zA-Z\\-0-9]+\\.)+[a-zA-Z]{2,}))$"
          }
        }
      ]
    },
    {
      "name": "trusteeInfoAddressLineOneTextBox",
      "type": "TextBoxControl",
      "label": "txt_bankruptcy_address_line_one",
      "dataField": "trusteeAddressLine1Text",
      "options": {
        "maxLength": 35
      }
    },
    {
      "name": "trusteeInfoAddressLineTwoTextBox",
      "type": "TextBoxControl",
      "label": "txt_bankruptcy_address_line_two",
      "dataField": "trusteeAddressLine2Text",
      "options": {
        "maxLength": 35
      }
    },
    {
      "name": "trusteeInfoCityTextBox",
      "type": "TextBoxControl",
      "label": "txt_bankruptcy_city",
      "dataField": "trusteeCityName",
      "options": {
        "maxLength": 18
      }
    },
    {
      "name": "trusteeInfoStateComboBox",
      "type": "DropDownControl",
      "label": "txt_bankruptcy_state",
      "dataField": "trusteeStateCode",
      "textField": "description",
      "dataSourceName": "getUSAState",
      "uniqueField": "value",
      "options": {
        "combineValues": true
      }
    },
    {
      "name": "trusteeInfoZipNumeric",
      "type": "TextBoxControl",
      "label": "txt_zip_uppercase",
      "dataField": "trusteePostalCode",
      "options": {
        "maxLength": 5,
        "isZip": true
      },
      "format": "i"
    },
    {
      "name": "trusteeInfoFaxTextBox",
      "type": "MaskedTextBoxControl",
      "label": "txt_bankruptcy_fax",
      "dataField": "trusteeFaxNumber",
      "mask": [
        {
          "isRegex": false,
          "pattern": "("
        },
        {
          "isRegex": true,
          "pattern": "\\d"
        },
        {
          "isRegex": true,
          "pattern": "\\d"
        },
        {
          "isRegex": true,
          "pattern": "\\d"
        },
        {
          "isRegex": false,
          "pattern": ")"
        },
        {
          "isRegex": false,
          "pattern": " "
        },
        {
          "isRegex": true,
          "pattern": "\\d"
        },
        {
          "isRegex": true,
          "pattern": "\\d"
        },
        {
          "isRegex": true,
          "pattern": "\\d"
        },
        {
          "isRegex": false,
          "pattern": "-"
        },
        {
          "isRegex": true,
          "pattern": "\\d"
        },
        {
          "isRegex": true,
          "pattern": "\\d"
        },
        {
          "isRegex": true,
          "pattern": "\\d"
        },
        {
          "isRegex": true,
          "pattern": "\\d"
        }
      ],
      "placeholder": "(__) ___-____",
      "validationRules": [
        {
          "ruleName": "MinLength",
          "errorMsg": "txt_fax_number_validator_min_length",
          "ruleOptions": {
            "minLength": 10
          }
        }
      ]
    },
    {
      "name": "clerkCourtInfoNameTextBox",
      "type": "TextBoxControl",
      "label": "txt_bankruptcy_clerk_court_name",
      "dataField": "clerkCourtName",
      "options": {
        "maxLength": 30
      }
    },
    {
      "name": "clerkCourtInfoPhoneNumberTextBox",
      "type": "MaskedTextBoxControl",
      "label": "txt_bankruptcy_phone_number",
      "dataField": "clerkCourtPhoneNumber",
      "mask": [
        {
          "isRegex": false,
          "pattern": "("
        },
        {
          "isRegex": true,
          "pattern": "\\d"
        },
        {
          "isRegex": true,
          "pattern": "\\d"
        },
        {
          "isRegex": true,
          "pattern": "\\d"
        },
        {
          "isRegex": false,
          "pattern": ")"
        },
        {
          "isRegex": false,
          "pattern": " "
        },
        {
          "isRegex": true,
          "pattern": "\\d"
        },
        {
          "isRegex": true,
          "pattern": "\\d"
        },
        {
          "isRegex": true,
          "pattern": "\\d"
        },
        {
          "isRegex": false,
          "pattern": "-"
        },
        {
          "isRegex": true,
          "pattern": "\\d"
        },
        {
          "isRegex": true,
          "pattern": "\\d"
        },
        {
          "isRegex": true,
          "pattern": "\\d"
        },
        {
          "isRegex": true,
          "pattern": "\\d"
        }
      ],
      "placeholder": "(__) ___-____",
      "validationRules": [
        {
          "ruleName": "MinLength",
          "errorMsg": "txt_error_msg_phone_number",
          "ruleOptions": {
            "minLength": 10
          }
        }
      ]
    },
    {
      "name": "clerkCourtInfoEmailTextBox",
      "type": "TextBoxControl",
      "label": "txt_bankruptcy_email",
      "dataField": "clerkCourtEmail",
      "validationRules": [
        {
          "ruleName": "RegExp",
          "errorMsg": "txt_invalid_format",
          "ruleOptions": {
            "regExp": "^(([^<>()\\[\\]\\.,;:\\s@\"]+(\\.[^<>()\\[\\]\\.,;:\\s@\"]+)*)|(\".+\"))@((\\[[0-9]{1,3}\\.[0-9]{1,3}\\.[0-9]{1,3}\\.[0-9]{1,3}])|(([a-zA-Z\\-0-9]+\\.)+[a-zA-Z]{2,}))$"
          }
        }
      ]
    },
    {
      "name": "clerkCourtInfoAddressLineOneTextBox",
      "type": "TextBoxControl",
      "label": "txt_bankruptcy_address_line_one",
      "dataField": "clerkCourtAddressLine1Text",
      "options": {
        "maxLength": 35
      }
    },
    {
      "name": "clerkCourtInfoAddressLineTwoTextBox",
      "type": "TextBoxControl",
      "label": "txt_bankruptcy_address_line_two",
      "dataField": "clerkCourtAddressLine2Text",
      "options": {
        "maxLength": 35
      }
    },
    {
      "name": "clerkCourtInfoCityTextBox",
      "type": "TextBoxControl",
      "label": "txt_bankruptcy_city",
      "dataField": "clerkCourtCityName",
      "options": {
        "maxLength": 18
      }
    },
    {
      "name": "clerkCourtInfoStateTextBox",
      "type": "DropDownControl",
      "label": "txt_bankruptcy_state",
      "dataField": "clerkCourtStateCode",
      "textField": "description",
      "dataSourceName": "getUSAState",
      "uniqueField": "value",
      "options": {
        "combineValues": true
      }
    },
    {
      "name": "clerkCourtInfoZipNumeric",
      "type": "TextBoxControl",
      "label": "txt_zip_uppercase",
      "dataField": "clerkCourtPostalCode",
      "options": {
        "maxLength": 5,
        "isZip": true
      },
      "format": "i"
    }
  ]
}
