{
  "fields": [
    {
      "name": "homeEmail",
      "type": "GroupTextControl",
      "label": "txt_email_home",
      "dataField": "electronicMailHomeAddressText"
    },
    {
      "name": "homeEmailStatus",
      "type": "GroupTextControl",
      "label": "txt_email_home_status",
      "dataField": "homeEmailStatusDesc"
    },
    {
      "name": "homeSolicitFlag",
      "type": "GroupTextControl",
      "label": "txt_email_home_solicit_flag",
      "dataField": "homeSolicitFlagDesc"
    },
    {
      "name": "divider",
      "type": "DividerControl",
      "props": {
        "dashed": true
      }
    },
    {
      "name": "workEmail",
      "type": "GroupTextControl",
      "label": "txt_email_work",
      "dataField": "electronicMailWorkAddressText"
    },
    {
      "name": "workEmailStatus",
      "type": "GroupTextControl",
      "label": "txt_email_work_status",
      "dataField": "workEmailStatusDesc"
    },
    {
      "name": "workSolicitFlag",
      "type": "GroupTextControl",
      "label": "txt_email_work_solicit_flag",
      "dataField": "workSolicitFlagDesc"
    }
  ]
}