{
  "fields": [
    {
      "name": "addressCategoryInfo",
      "type": "GroupTextControl",
      "label": "txt_address_category",
      "dataField": "addressCategory.description"
    },
    {
      "name": "addressTypeInfo",
      "type": "GroupTextControl",
      "label": "txt_address_type",
      "dataField": "addressType.description"
    },
    {
      "name": "effectiveFromInfo",
      "type": "GroupTextControl",
      "label": "txt_effective_from",
      "dataField": "effectiveFrom"
    },
    {
      "name": "effectiveToInfo",
      "type": "GroupTextControl",
      "label": "txt_effective_to",
      "dataField": "effectiveTo"
    },
    {
      "name": "countryIsoInfo",
      "type": "GroupTextControl",
      "label": "txt_country_iso",
      "dataField": "countryISO.description"
    },
    {
      "name": "houseNumberInfo",
      "type": "GroupTextControl",
      "label": "txt_house_number",
      "dataField": "houseNumber"
    },
    {
      "name": "houseBuildingInfo",
      "type": "GroupTextControl",
      "label": "txt_house_building",
      "dataField": "houseBuilding"
    },
    {
      "name": "streetNameInfo",
      "type": "GroupTextControl",
      "label": "txt_street_name",
      "dataField": "streetName"
    },
    {
      "name": "POBoxInfo",
      "type": "GroupTextControl",
      "label": "txt_po_box",
      "dataField": "POBox"
    },
    {
      "name": "attentionInfo",
      "type": "GroupTextControl",
      "label": "txt_attention",
      "dataField": "attention"
    },
    {
      "name": "addressLineOneInfo",
      "type": "GroupTextControl",
      "label": "txt_address_line_one",
      "dataField": "addressLineOne"
    },
    {
      "name": "addressLineTwoInfo",
      "type": "GroupTextControl",
      "label": "txt_address_line_two",
      "dataField": "addressLineTwo"
    },
    {
      "name": "addressLineThreeInfo",
      "type": "GroupTextControl",
      "label": "txt_address_line_three",
      "dataField": "addressLineThree"
    },
    {
      "name": "addressLineFourInfo",
      "type": "GroupTextControl",
      "label": "txt_address_line_four",
      "dataField": "addressLineFour"
    },
    {
      "name": "cityInfo",
      "type": "GroupTextControl",
      "label": "txt_city",
      "dataField": "cityName"
    },
    {
      "name": "stateSubdivisionInfo",
      "type": "GroupTextControl",
      "label": "txt_state_subdivision",
      "dataField": "stateSubdivision.description"
    },
    {
      "name": "postCodeInfo",
      "type": "GroupTextControl",
      "label": "txt_postal_code",
      "dataField": "postalCode"
    },
    {
      "name": "addressRelationShipInfo",
      "type": "GroupTextControl",
      "label": "txt_address_relation_ship",
      "dataField": "addressRelationship.description"
    },
    {
      "name": "dividerControl",
      "type": "DividerControl"
    }
  ]
}
