{
  "fields": [
    {
      "name": "telephoneDeviceType",
      "type": "GroupTextControl",
      "label": "txt_device_type",
      "dataField": "deviceType.description",
      "options": {
        "classNameProps": {
          "container": "w-50-50"
        }
      }
    },
    {
      "name": "telephoneLastUpdated",
      "type": "GroupTextControl",
      "label": "txt_last_updated",
      "dataField": "lastUpdated",
      "options": {
        "classNameProps": {
          "container": "w-50-50"
        },
        "format": "date"
      }
    },
    {
      "name": "telephoneFlag",
      "type": "GroupTextControl",
      "label": "txt_home_flag",
      "dataField": "flag.description",
      "options": {
        "classNameProps": {
          "container": "w-50-50"
        }
      }
    }
  ]
}
