{
  "fields": [
    {
      "name": "addressCategory",
      "type": "GroupTextControl",
      "label": "txt_address_category",
      "dataField": "addressCategory.description"
    },
    {
      "name": "addressType",
      "type": "GroupTextControl",
      "label": "txt_address_type",
      "dataField": "addressType.description"
    },
    {
      "name": "divider",
      "type": "DividerControl"
    },
    {
      "name": "addressLineOne",
      "type": "GroupTextControl",
      "label": "txt_address_line_one",
      "dataField": "addressLineOne"
    },
    {
      "name": "addressLineTwo",
      "type": "GroupTextControl",
      "label": "txt_address_line_two",
      "dataField": "addressLineTwo"
    },
    {
      "name": "city",
      "type": "GroupTextControl",
      "label": "txt_city",
      "dataField": "cityName"
    },
    {
      "name": "stateSubdivision",
      "type": "GroupTextControl",
      "label": "txt_state_subdivision",
      "dataField": "stateSubdivision.description"
    },
    {
      "name": "postalCode",
      "type": "GroupTextControl",
      "label": "txt_postal_code",
      "dataField": "postalCode"
    }
  ]
}
