{
  "fields": [
    {
      "name": "caseRecordCaseNumber",
      "type": "GroupTextControl",
      "label": "txt_case_number",
      "dataField": "caseNumber"
    },
    {
      "name": "caseRecordAccountNumber",
      "type": "GroupTextControl",
      "label": "txt_account_number",
      "dataField": "accountNumber"
    },
    {
      "name": "caseRecordCaseStatus",
      "type": "GroupTextControl",
      "label": "txt_case_status",
      "dataField": "caseStatus"
    },
    {
      "name": "caseRecordLastUpdated",
      "type": "GroupTextControl",
      "label": "txt_last_updated",
      "options": {
        "format": "date"
      },
      "dataField": "updatedDate"
    },
    {
      "name": "caseRecordOperatorId",
      "type": "GroupTextControl",
      "label": "txt_operator_id",
      "dataField": "operatorId"
    },
    {
      "name": "caseRecordPromiseType",
      "type": "GroupTextControl",
      "label": "txt_promise_type",
      "options": {
        "classNameValue": "text-capitalize"
      },
      "dataField": "promiseType"
    }
  ]
}