{
  "fields": [
    {
      "name": "debtManagementCompany",
      "type": "HeadingControl",
      "as": "h6",
      "label": "txt_debt_management_company"
    },
    {
      "name": "companyName",
      "type": "GroupTextControl",
      "dataField": "companyName",
      "label": "txt_company_name"
    },
    {
      "name": "phone",
      "type": "GroupTextControl",
      "dataField": "phone",
      "label": "txt_phone"
    },
    {
      "name": "cccsFax",
      "type": "GroupTextControl",
      "dataField": "fax",
      "label": "txt_fax"
    },
    {
      "name": "contact",
      "type": "GroupTextControl",
      "dataField": "contact",
      "label": "txt_contact"
    },
    {
      "name": "address",
      "type": "GroupTextControl",
      "dataField": "address",
      "label": "txt_address"
    },
    {
      "name": "dividerControl",
      "type": "DividerControl"
    },
    {
      "name": "paymentGuidelines",
      "type": "HeadingControl",
      "as": "h6",
      "label": "txt_payment_guidelines"
    },
    {
      "name": "cccs_currentBalance",
      "type": "NumericControl",
      "format": "c2",
      "label": "txt_currentBalanceAmount",
      "dataField": "currentBalance"
    },
    {
      "name": "cccs_currentBalance_view",
      "type": "GroupTextControl",
      "label": "txt_currentBalanceAmount",
      "dataField": "currentBalance"
    },
    {
      "name": "balancePercentage",
      "label": "txt_balance_percentage",
      "dataField": "balancePercentage"
    },
    {
      "name": "proposal",
      "type": "HeadingControl",
      "as": "h6",
      "label": "txt_proposal"
    },
    {
      "name": "sentVia",
      "dataField": "sentVia",
      "label": "txt_sent_via"
    },
    {
      "name": "dateReceived",
      "dataField": "dateReceived",
      "label": "txt_date_received"
    },
    {
      "name": "startDate",
      "dataField": "startDate",
      "label": "txt_start_date"
    },
    {
      "name": "cccs_endDate",
      "type": "DatePickerControl",
      "dataField": "endDate",
      "label": "txt_end_date"
    },
    {
      "name": "cccs_endDate_view",
      "type": "GroupTextControl",
      "dataField": "endDate",
      "label": "txt_end_date"
    },
    {
      "name": "reagePaymentPeriod",
      "dataField": "reagePaymentPeriod",
      "label": "txt_reage_payment_period"
    },
    {
      "name": "cycleToDatePaymentAmount",
      "dataField": "cycleToDatePaymentAmount",
      "label": "txt_cycle-to-date_payment_amount"
    },
    {
      "name": "nonDelinquentMpdAmount",
      "dataField": "nonDelinquentMpdAmount",
      "label": "txt_non_delinquent_mpd_amount"
    },
    {
      "name": "minimumAmount",
      "label": "txt_minimum_amount",
      "dataField": "minimumAmount"
    },
    {
      "name": "paymentAmount",
      "dataField": "paymentAmount",
      "label": "txt_payment_amount"
    },
    {
      "name": "clientInformation",
      "type": "HeadingControl",
      "as": "h6",
      "label": "txt_client_information"
    },
    {
      "name": "clientId",
      "dataField": "clientId",
      "label": "txt_client_id"
    },
    {
      "name": "clientSince",
      "dataField": "clientSince",
      "label": "txt_client_since"
    },
    {
      "name": "numberOfCreditors",
      "dataField": "numberOfCreditors",
      "label": "txt_number_of_creditors"
    },
    {
      "name": "totalDebt",
      "dataField": "totalDebt",
      "label": "txt_total_debt"
    },
    {
      "name": "actions",
      "label": "txt_actions",
      "type": "GroupRadioControl_V2",
      "dataField": "action"
    },
    {
      "name": "discontinuePlan",
      "type": "DropDownControl",
      "label": "Discontinue Reason",
      "dataField": "discontinuePlanOption"
    },
    {
      "name": "declineProposal",
      "type": "DropDownControl",
      "label": "Decline Reason",
      "dataField": "declineProposalOption"
    },
    {
      "name": "actionDiscontinuePlanText",
      "type": "TextBoxControl",
      "label": "Reason",
      "dataField": "actionDiscontinuePlanText"
    },
    {
      "name": "actionDeclineProposalText",
      "type": "TextBoxControl",
      "label": "Reason",
      "dataField": "actionDeclineProposalText"
    },
    {
      "name": "discontinuePlanShadow",
      "type": "DropDownControl",
      "label": "Discontinue Reason",
      "dataField": "discontinuePlanOption"
    },
    {
      "name": "declineProposalShadow",
      "type": "DropDownControl",
      "label": "Decline Reason",
      "dataField": "declineProposalOption"
    },
    {
      "name": "actionDiscontinuePlanTextShadow",
      "type": "TextBoxControl",
      "label": "Reason",
      "dataField": "actionDiscontinuePlanText"
    },
    {
      "name": "actionDeclineProposalTextShadow",
      "type": "TextBoxControl",
      "label": "Reason",
      "dataField": "actionDeclineProposalText"
    },
    {
      "name": "emptyDiv",
      "type": "HeadingControl",
      "as": "h6",
      "label": ""
    }
  ]
}
