{
  "fields": [
    {
      "name": "clientConfigMemosDivider",
      "type": "DividerControl",
      "dashed": true
    },
    {
      "name": "clientConfigMemosDefault",
      "type": "TextBoxControl",
      "dataField": "default",
      "label": "txt_behavior_type"
    },
    {
      "name": "clientConfigMemosAccountDetails",
      "type": "TextBoxControl",
      "dataField": "accountDetails",
      "label": "txt_behavior_type"
    },
    {
      "name": "clientConfigMemosPayment",
      "type": "TextBoxControl",
      "dataField": "payment",
      "label": "txt_behavior_type"
    },
    {
      "name": "clientConfigMemosCallAuthentication",
      "type": "TextBoxControl",
      "dataField": "callerAuthentication",
      "label": "txt_behavior_type"
    },
    {
      "name": "clientConfigMemosLetters",
      "type": "TextBoxControl",
      "dataField": "letters",
      "label": "txt_behavior_type"
    },
    {
      "name": "clientConfigMemosCardHolderMaintenance",
      "type": "TextBoxControl",
      "dataField": "cardHolderMaintenance",
      "label": "txt_behavior_type"
    },
    {
      "name": "clientConfigMemosTransactionAdjustment",
      "type": "TextBoxControl",
      "dataField": "transactionAdjustment",
      "label": "txt_behavior_type"
    },
    {
      "name": "clientConfigMemosTransactionApprovalReject",
      "type": "TextBoxControl",
      "dataField": "reviewAdjustment",
      "label": "txt_behavior_type"
    }
  ]
}
