{
  "fields": [
    {
      "name": "codeToTextCode",
      "type": "TextBoxControl",
      "label": "txt_code",
      "dataField": "code",
      "options": {
        "minLength": 1,
        "maxLength": 10
      },
      "props": {
        "readOnly": true
      },
      "enable": true,
      "validationRules": [
        {
          "ruleName": "IsEmptyValidator",
          "errorMsg": "txt_code_to_txt_code_error_msg"
        }
      ]
    },
    {
      "name": "codeToTextDescription",
      "type": "TextBoxControl",
      "label": "txt_description",
      "dataField": "description",
      "options": {
        "maxLength": 50
      },
      "props": {
        "required": true
      },
      "enable": true,
      "validationRules": [
        {
          "ruleName": "Required",
          "errorMsg": "txt_description_error_msg"
        }
      ]
    }
  ]
}
