{
  "fields": [
    {
      "name": "clientConfigDebtCompaniesErrorExist",
      "type": "InlineMessage",
      "dataField": "companyErrorExist"
    },
    {
      "name": "clientConfigDebtCompaniesName",
      "type": "TextBoxControl",
      "label": "txt_name",
      "dataField": "companyName"
    },
    {
      "name": "clientConfigDebtCompaniesAddressLineOne",
      "type": "TextBoxControl",
      "label": "txt_address_line_one",
      "dataField": "addressLineOne"
    },
    {
      "name": "clientConfigDebtCompaniesAddressLineTwo",
      "type": "TextBoxControl",
      "label": "txt_address_line_two",
      "dataField": "addressLineTwo"
    },
    {
      "name": "clientConfigDebtCompaniesAddressLineCity",
      "type": "TextBoxControl",
      "label": "txt_city",
      "dataField": "companyCity"
    },
    {
      "name": "clientConfigDebtCompaniesAddressLineState",
      "type": "DropDownControl",
      "label": "txt_state",
      "dataField": "companyState",
      "dataSourceName": "getUSAState",
      "textField": "description",
      "uniqueField": "value",
      "options": {
        "combineValues": true
      }
    },
    {
      "name": "clientConfigDebtCompaniesAddressLineZip",
      "type": "TextBoxControl",
      "label": "txt_zip_uppercase",
      "dataField": "companyZipCode"
    },
    {
      "name": "clientConfigDebtCompaniesContact",
      "type": "TextBoxControl",
      "label": "txt_contact",
      "dataField": "companyContact"
    },
    {
      "name": "clientConfigDebtCompaniesTitle",
      "type": "HeadingControl",
      "as": "p",
      "dataField": "companyTitle"
    },
    {
      "name": "clientConfigDebtCompaniesErrors",
      "type": "InlineMessage",
      "dataField": "companyError"
    },
    {
      "name": "clientConfigDebtCompaniesPhone",
      "type": "MaskedTextBoxControl",
      "label": "txt_phone",
      "dataField": "companyPhone"
    },
    {
      "name": "clientConfigDebtCompaniesFax",
      "type": "MaskedTextBoxControl",
      "label": "txt_fax",
      "dataField": "companyFax"
    }
  ]
}