{
  "fields": [
    {
      "name": "reasonCodeText",
      "type": "TextBoxControl",
      "label": "txt_reason_code",
      "dataField": "reasonCode",
      "options": {
        "minLength": 2,
        "maxLength": 2,
        "numberOnly": true
      },
      "props": {
        "required": true
      },
      "enable": true,
      "validationRules": [
        {
          "ruleName": "Required",
          "errorMsg": "txt_reason_code_error_msg"
        },
        {
          "ruleName": "MinLength",
          "errorMsg": "txt_invalid_format",
          "ruleOptions": {
            "minLength": 2
          }
        }
      ]
    },
    {
      "name": "descriptionText",
      "type": "TextBoxControl",
      "label": "txt_description",
      "dataField": "description",
      "options": {
        "maxLength": 50
      },
      "props": {
        "required": true
      },
      "enable": true,
      "validationRules": [
        {
          "ruleName": "Required",
          "errorMsg": "txt_description_error_msg"
        }
      ]
    }
  ]
}
