{
  "fields": [
    {
      "name": "primaryDateOfDeath",
      "type": "DatePickerControl",
      "label": "txt_date_of_death",
      "dataField": "deceasedDateOfDeath",
      "onValueChangedFunc": "deceasedDateOfDeath",
      "validationRules": [
        {
          "ruleName": "Required",
          "errorMsg": "txt_date_of_death_is_required"
        }
      ]
    },
    {
      "name": "primaryDateNoticeReceived",
      "type": "DatePickerControl",
      "label": "txt_date_notice_received",
      "dataField": "deceasedDateNoticeReceived",
      "validationRules": [
        {
          "ruleName": "Required",
          "errorMsg": "txt_date_notice_received_is_required"
        }
      ]
    },
    {
      "name": "secondaryDateOfDeath",
      "type": "DatePickerControl",
      "label": "txt_date_of_death",
      "dataField": "deceasedDateOfDeath",
      "onValueChangedFunc": "deceasedDateOfDeath",
      "validationRules": [
        {
          "ruleName": "Required",
          "errorMsg": "txt_date_of_death_is_required"
        }
      ]
    },
    {
      "name": "secondaryDateNoticeReceived",
      "type": "DatePickerControl",
      "label": "txt_date_notice_received",
      "dataField": "deceasedDateNoticeReceived",
      "validationRules": [
        {
          "ruleName": "Required",
          "errorMsg": "txt_date_notice_received_is_required"
        }
      ]
    },
    {
      "name": "settlementAmount",
      "type": "NumericControl",
      "label": "txt_settlement_amount",
      "dataField": "settlementAmount",
      "validationRules": [
        {
          "ruleName": "Required",
          "errorMsg": "txt_settlement_amount_is_required"
        }
      ],
      "format": "c0",
      "options": {
        "min": 1
      }
    },
    {
      "name": "settlementMethod",
      "type": "DropDownControl",
      "label": "txt_settlement_method",
      "dataField": "settlementPaymentMethod",
      "dataSourceName": "settlementMethod",
      "textField": "description",
      "uniqueField": "value",
      "validationRules": [
        {
          "ruleName": "Required",
          "errorMsg": "txt_settlement_method_is_required"
        }
      ]
    },
    {
      "name": "settlementDate",
      "type": "DatePickerControl",
      "label": "txt_settlement_date",
      "dataField": "settlementDate",
      "validationRules": [
        {
          "ruleName": "Required",
          "errorMsg": "txt_settlement_date_is_required"
        }
      ]
    },
    {
      "name": "deceasedPartyHeadingControl",
      "type": "HeadingControl",
      "dataField": "deceasedPartyHeadingControl",
      "as": "h6"
    },
    {
      "name": "deceasedCardholderName",
      "type": "TextBoxControl",
      "label": "txt_cardholder_name",
      "dataField": "deceasedCardholderName"
    },
    {
      "name": "deceasedAtState",
      "type": "DropDownControl",
      "label": "txt_deceased_state",
      "dataField": "deceasedAtState",
      "dataSourceName": "getUSAState",
      "textField": "description",
      "uniqueField": "value",
      "options": {
        "combineValues": true
      },
      "keyField": "value"
    },
    {
      "name": "deceasedCounty",
      "type": "TextBoxControl",
      "label": "txt_deceased_county",
      "dataField": "deceasedCounty"
    },
    {
      "name": "deceasedInsuranceIndicator",
      "type": "TextBoxControl",
      "label": "txt_insurance_indicator",
      "dataField": "deceasedInsuranceIndicator"
    },
    {
      "name": "deceasedContact",
      "type": "DropDownControl",
      "label": "txt_contact",
      "dataField": "deceasedContact",
      "textField": "description",
      "uniqueField": "value",
      "options": {
        "combineValues": true
      }
    },
    {
      "name": "deceasedRelationship",
      "type": "TextBoxControl",
      "label": "txt_relationship",
      "dataField": "deceasedRelationship"
    },
    {
      "name": "deceasedContactName",
      "type": "TextBoxControl",
      "label": "txt_contact_name",
      "dataField": "deceasedContactName"
    },
    {
      "name": "deceasedContactPhone",
      "type": "MaskedTextBoxControl",
      "label": "txt_contact_phone",
      "dataField": "deceasedContactPhone"
    },
    {
      "name": "deceasedAddress",
      "type": "TextBoxControl",
      "label": "txt_address",
      "dataField": "deceasedAddress"
    },
    {
      "name": "deceasedCity",
      "type": "TextBoxControl",
      "label": "txt_city",
      "dataField": "deceasedCity"
    },
    {
      "name": "deceasedState",
      "type": "DropDownControl",
      "label": "txt_state",
      "dataField": "deceasedState",
      "dataSourceName": "getUSAState",
      "textField": "description",
      "uniqueField": "value",
      "options": {
        "combineValues": true
      },
      "keyField": "value"
    },
    {
      "name": "deceasedZip",
      "type": "TextBoxControl",
      "label": "txt_zip_uppercase",
      "dataField": "deceasedZip"
    },
    {
      "name": "deceasedFax",
      "type": "MaskedTextBoxControl",
      "label": "txt_fax",
      "dataField": "deceasedFax"
    },
    {
      "name": "deceasedPartyMainHeadingControl",
      "type": "HeadingControl",
      "dataField": "deceasedPartyMainHeadingControl",
      "as": "h6"
    },
    {
      "name": "deceasedPrimaryMainHeadingControl",
      "type": "HeadingControl",
      "dataField": "deceasedPrimaryMainHeadingControl",
      "as": "h6"
    },
    {
      "name": "deceasedSecondaryMainHeadingControl",
      "type": "HeadingControl",
      "dataField": "deceasedSecondaryMainHeadingControl",
      "as": "h6"
    },
    {
      "name": "deceasedSettlementHeadingControl",
      "type": "HeadingControl",
      "dataField": "deceasedSettlementHeadingControl",
      "as": "h6"
    },
    {
      "name": "deceasedDateOfDeath",
      "type": "DatePickerControl",
      "label": "txt_date_of_death",
      "dataField": "deceasedDateOfDeath",
      "onValueChangedFunc": "deceasedDateOfDeath"
    },
    {
      "name": "deceasedDateNoticeReceived",
      "type": "DatePickerControl",
      "label": "txt_date_notice_received",
      "dataField": "deceasedDateNoticeReceived"
    }
  ]
}