{
  "fields": [
    {
      "name": "editEmailHomePhoneHeading",
      "type": "HeadingControl",
      "label": "txt_cardholder_edit_home_title",
      "as": "h5"
    },
    {
      "name": "editEmailWorkPhoneHeading",
      "type": "HeadingControl",
      "label": "txt_cardholder_edit_work_title",
      "as": "h5"
    },
    {
      "name": "editEmailMobilePhoneHeading",
      "type": "HeadingControl",
      "label": "txt_cardholder_edit_mobile_title",
      "as": "h5"
    },
    {
      "name": "editEmailFaxHeading",
      "type": "HeadingControl",
      "label": "txt_cardholder_edit_fax_title",
      "as": "h5"
    },
    {
      "name": "editEmailMiscellaneousHeading",
      "type": "HeadingControl",
      "label": "txt_cardholder_edit_miscellaneous_title",
      "as": "h5"
    },
    {
      "name": "editEmailHomeDeviceTypeDropdown",
      "type": "DropDownControl",
      "dataField": "homePhone.more.deviceType",
      "textField": "description",
      "label": "txt_cardholder_edit_telephone_device_type",
      "dataSourceName": "editPhoneDeviceType",
      "dependentValue": "homePhone.less",
      "uniqueField": "value"
    },
    {
      "name": "editEmailWorkDeviceTypeDropdown",
      "type": "DropDownControl",
      "dataField": "workPhone.more.deviceType",
      "textField": "description",
      "label": "txt_cardholder_edit_telephone_device_type",
      "dataSourceName": "editPhoneDeviceType",
      "dependentValue": "workPhone.less",
      "uniqueField": "value"
    },
    {
      "name": "editEmailMobileDeviceTypeDropdown",
      "type": "DropDownControl",
      "dataField": "mobilePhone.more.deviceType",
      "textField": "description",
      "label": "txt_cardholder_edit_telephone_device_type",
      "dataSourceName": "editPhoneDeviceType",
      "dependentValue": "mobilePhone.less",
      "uniqueField": "value"
    },
    {
      "name": "editEmailFaxDeviceTypeDropdown",
      "type": "DropDownControl",
      "dataField": "fax.more.deviceType",
      "textField": "description",
      "label": "txt_cardholder_edit_telephone_device_type",
      "dataSourceName": "editPhoneDeviceType",
      "dependentValue": "fax.less",
      "uniqueField": "value"
    },
    {
      "name": "editEmailMiscellaneousDeviceTypeDropdown",
      "type": "DropDownControl",
      "dataField": "miscellaneous.more.deviceType",
      "textField": "description",
      "label": "txt_cardholder_edit_telephone_device_type",
      "dataSourceName": "editPhoneDeviceType",
      "dependentValue": "miscellaneous.less",
      "uniqueField": "value"
    },
    {
      "name": "editPhoneWorkTextBox",
      "type": "MaskedTextBoxControl",
      "label": "txt_cardholder_edit_work_title",
      "dataField": "workPhone.less",
      "dependentField": ["workPhone.more.deviceType", "workPhone.more.flag"],
      "mask": [
        {
          "isRegex": false,
          "pattern": "("
        },
        {
          "isRegex": true,
          "pattern": "\\d"
        },
        {
          "isRegex": true,
          "pattern": "\\d"
        },
        {
          "isRegex": true,
          "pattern": "\\d"
        },
        {
          "isRegex": false,
          "pattern": ")"
        },
        {
          "isRegex": false,
          "pattern": " "
        },
        {
          "isRegex": true,
          "pattern": "\\d"
        },
        {
          "isRegex": true,
          "pattern": "\\d"
        },
        {
          "isRegex": true,
          "pattern": "\\d"
        },
        {
          "isRegex": false,
          "pattern": "-"
        },
        {
          "isRegex": true,
          "pattern": "\\d"
        },
        {
          "isRegex": true,
          "pattern": "\\d"
        },
        {
          "isRegex": true,
          "pattern": "\\d"
        },
        {
          "isRegex": true,
          "pattern": "\\d"
        }
      ],
      "placeholder": "(__) ___-____",
      "validationRules": [
        {
          "ruleName": "MinLength",
          "errorMsg": "txt_error_msg_phone_number",
          "ruleOptions": {
            "minLength": 10
          }
        }
      ]
    },
    {
      "name": "editPhoneHomeTextBox",
      "type": "MaskedTextBoxControl",
      "label": "txt_cardholder_edit_home_title",
      "dataField": "homePhone.less",
      "dependentField": ["homePhone.more.deviceType", "homePhone.more.flag"],
      "mask": [
        {
          "isRegex": false,
          "pattern": "("
        },
        {
          "isRegex": true,
          "pattern": "\\d"
        },
        {
          "isRegex": true,
          "pattern": "\\d"
        },
        {
          "isRegex": true,
          "pattern": "\\d"
        },
        {
          "isRegex": false,
          "pattern": ")"
        },
        {
          "isRegex": false,
          "pattern": " "
        },
        {
          "isRegex": true,
          "pattern": "\\d"
        },
        {
          "isRegex": true,
          "pattern": "\\d"
        },
        {
          "isRegex": true,
          "pattern": "\\d"
        },
        {
          "isRegex": false,
          "pattern": "-"
        },
        {
          "isRegex": true,
          "pattern": "\\d"
        },
        {
          "isRegex": true,
          "pattern": "\\d"
        },
        {
          "isRegex": true,
          "pattern": "\\d"
        },
        {
          "isRegex": true,
          "pattern": "\\d"
        }
      ],
      "placeholder": "(__) ___-____",
      "validationRules": [
        {
          "ruleName": "MinLength",
          "errorMsg": "txt_error_msg_phone_number",
          "ruleOptions": {
            "minLength": 10
          }
        }
      ]
    },
    {
      "name": "editPhoneMobileTextBox",
      "type": "MaskedTextBoxControl",
      "label": "txt_cardholder_edit_mobile_title",
      "dataField": "mobilePhone.less",
      "dependentField": [
        "mobilePhone.more.deviceType",
        "mobilePhone.more.flag"
      ],
      "mask": [
        {
          "isRegex": false,
          "pattern": "("
        },
        {
          "isRegex": true,
          "pattern": "\\d"
        },
        {
          "isRegex": true,
          "pattern": "\\d"
        },
        {
          "isRegex": true,
          "pattern": "\\d"
        },
        {
          "isRegex": false,
          "pattern": ")"
        },
        {
          "isRegex": false,
          "pattern": " "
        },
        {
          "isRegex": true,
          "pattern": "\\d"
        },
        {
          "isRegex": true,
          "pattern": "\\d"
        },
        {
          "isRegex": true,
          "pattern": "\\d"
        },
        {
          "isRegex": false,
          "pattern": "-"
        },
        {
          "isRegex": true,
          "pattern": "\\d"
        },
        {
          "isRegex": true,
          "pattern": "\\d"
        },
        {
          "isRegex": true,
          "pattern": "\\d"
        },
        {
          "isRegex": true,
          "pattern": "\\d"
        }
      ],
      "placeholder": "(__) ___-____",
      "validationRules": [
        {
          "ruleName": "MinLength",
          "errorMsg": "txt_error_msg_phone_number",
          "ruleOptions": {
            "minLength": 10
          }
        }
      ]
    },
    {
      "name": "editPhoneFaxTextBox",
      "type": "MaskedTextBoxControl",
      "label": "txt_cardholder_edit_fax_title",
      "dataField": "fax.less",
      "dependentField": ["fax.more.deviceType", "fax.more.flag"],
      "mask": [
        {
          "isRegex": false,
          "pattern": "("
        },
        {
          "isRegex": true,
          "pattern": "\\d"
        },
        {
          "isRegex": true,
          "pattern": "\\d"
        },
        {
          "isRegex": true,
          "pattern": "\\d"
        },
        {
          "isRegex": false,
          "pattern": ")"
        },
        {
          "isRegex": false,
          "pattern": " "
        },
        {
          "isRegex": true,
          "pattern": "\\d"
        },
        {
          "isRegex": true,
          "pattern": "\\d"
        },
        {
          "isRegex": true,
          "pattern": "\\d"
        },
        {
          "isRegex": false,
          "pattern": "-"
        },
        {
          "isRegex": true,
          "pattern": "\\d"
        },
        {
          "isRegex": true,
          "pattern": "\\d"
        },
        {
          "isRegex": true,
          "pattern": "\\d"
        },
        {
          "isRegex": true,
          "pattern": "\\d"
        }
      ],
      "placeholder": "(__) ___-____",
      "validationRules": [
        {
          "ruleName": "MinLength",
          "errorMsg": "txt_fax_number_validator_min_length",
          "ruleOptions": {
            "minLength": 10
          }
        }
      ]
    },
    {
      "name": "editPhoneMiscellaneousTextBox",
      "type": "MaskedTextBoxControl",
      "label": "txt_cardholder_edit_miscellaneous_title",
      "dataField": "miscellaneous.less",
      "dependentField": [
        "miscellaneous.more.deviceType",
        "miscellaneous.more.flag"
      ],
      "mask": [
        {
          "isRegex": false,
          "pattern": "("
        },
        {
          "isRegex": true,
          "pattern": "\\d"
        },
        {
          "isRegex": true,
          "pattern": "\\d"
        },
        {
          "isRegex": true,
          "pattern": "\\d"
        },
        {
          "isRegex": false,
          "pattern": ")"
        },
        {
          "isRegex": false,
          "pattern": " "
        },
        {
          "isRegex": true,
          "pattern": "\\d"
        },
        {
          "isRegex": true,
          "pattern": "\\d"
        },
        {
          "isRegex": true,
          "pattern": "\\d"
        },
        {
          "isRegex": false,
          "pattern": "-"
        },
        {
          "isRegex": true,
          "pattern": "\\d"
        },
        {
          "isRegex": true,
          "pattern": "\\d"
        },
        {
          "isRegex": true,
          "pattern": "\\d"
        },
        {
          "isRegex": true,
          "pattern": "\\d"
        }
      ],
      "placeholder": "(__) ___-____",
      "validationRules": [
        {
          "ruleName": "MinLength",
          "errorMsg": "txt_miscellaneous_number_validator_min_length",
          "ruleOptions": {
            "minLength": 10
          }
        }
      ]
    },
    {
      "name": "editEmailHomeFlagDropdown",
      "type": "DropDownControl",
      "dataField": "homePhone.more.flag",
      "textField": "description",
      "label": "txt_cardholder_edit_home_flag",
      "dataSourceName": "editPhoneFlag",
      "dependentValue": "homePhone.less",
      "uniqueField": "value",
      "options": {
        "combineValues": true
      }
    },
    {
      "name": "editEmailWorkFlagDropdown",
      "type": "DropDownControl",
      "dataField": "workPhone.more.flag",
      "textField": "description",
      "label": "txt_cardholder_edit_work_flag",
      "dataSourceName": "editPhoneFlag",
      "dependentValue": "workPhone.less",
      "uniqueField": "value"
    },
    {
      "name": "editEmailMobileFlagDropdown",
      "type": "DropDownControl",
      "dataField": "mobilePhone.more.flag",
      "textField": "description",
      "label": "txt_cardholder_edit_mobile_flag",
      "dataSourceName": "editPhoneFlag",
      "dependentValue": "mobilePhone.less",
      "uniqueField": "value"
    },
    {
      "name": "editEmailFaxFlagDropdown",
      "type": "DropDownControl",
      "dataField": "fax.more.flag",
      "textField": "description",
      "label": "txt_cardholder_edit_fax_flag",
      "dataSourceName": "editPhoneFlag",
      "dependentValue": "fax.less",
      "uniqueField": "value"
    },
    {
      "name": "editEmailMiscellaneousFlagDropdown",
      "type": "DropDownControl",
      "dataField": "miscellaneous.more.flag",
      "textField": "description",
      "label": "txt_miscellaneous_flag",
      "dataSourceName": "editPhoneFlag",
      "dependentValue": "miscellaneous.less",
      "uniqueField": "value"
    },
    {
      "name": "editEmailFaxDatePicker",
      "type": "DatePickerControl",
      "label": "txt_cardholder_edit_telephone_last_update",
      "dataField": "fax.more.lastUpdated"
    },
    {
      "name": "editEmailHomeDatePicker",
      "type": "DatePickerControl",
      "enable": false,
      "label": "txt_cardholder_edit_telephone_last_update",
      "dataField": "homePhone.more.lastUpdated",
      "uniqueField": "value"
    },
    {
      "name": "editEmailWorkDatePicker",
      "type": "DatePickerControl",
      "enable": false,
      "label": "txt_cardholder_edit_telephone_last_update",
      "dataField": "workPhone.more.lastUpdated",
      "uniqueField": "value"
    },
    {
      "name": "editEmailMobileDatePicker",
      "type": "DatePickerControl",
      "enable": false,
      "label": "txt_cardholder_edit_telephone_last_update",
      "dataField": "mobilePhone.more.lastUpdated",
      "uniqueField": "value"
    },
    {
      "name": "editEmailMiscellaneousDatePicker",
      "type": "DatePickerControl",
      "enable": false,
      "label": "txt_cardholder_edit_telephone_last_update",
      "dataField": "miscellaneous.more.lastUpdated",
      "uniqueField": "value"
    }
  ]
}
