{
  "fields": [
    {
      "name": "editEmailHomeEmailHeading",
      "type": "HeadingControl",
      "label": "txt_cardholder_edit_home_email_title",
      "as": "h5"
    },
    {
      "name": "editEmailWorkEmailHeading",
      "type": "HeadingControl",
      "label": "txt_cardholder_edit_work_email_title",
      "as": "h5"
    },
    {
      "name": "editEmailHomeEmailTextBox",
      "type": "TextBoxControl",
      "label": "txt_cardholder_edit_home_email_title",
      "dataField": "electronicMailHomeAddressText",
      "options": {
        "maxLength": 50
      },
      "validationRules": [
        {
          "ruleName": "RegExp",
          "errorMsg": "txt_invalid_format",
          "ruleOptions": {
            "regExp": "^(([^<>()\\[\\]\\.,;:\\s@\"]+(\\.[^<>()\\[\\]\\.,;:\\s@\"]+)*)|(\".+\"))@((\\[[0-9]{1,3}\\.[0-9]{1,3}\\.[0-9]{1,3}\\.[0-9]{1,3}])|(([a-zA-Z\\-0-9]+\\.)+[a-zA-Z]{2,}))$"
          }
        }
      ]
    },
    {
      "name": "editEmailWorkEmailTextBox",
      "type": "TextBoxControl",
      "label": "txt_cardholder_edit_work_email_title",
      "dataField": "electronicMailWorkAddressText",
      "options": {
        "maxLength": 50
      },
      "validationRules": [
        {
          "ruleName": "RegExp",
          "errorMsg": "txt_invalid_format",
          "ruleOptions": {
            "regExp": "^(([^<>()\\[\\]\\.,;:\\s@\"]+(\\.[^<>()\\[\\]\\.,;:\\s@\"]+)*)|(\".+\"))@((\\[[0-9]{1,3}\\.[0-9]{1,3}\\.[0-9]{1,3}\\.[0-9]{1,3}])|(([a-zA-Z\\-0-9]+\\.)+[a-zA-Z]{2,}))$"
          }
        }
      ]
    },
    {
      "name": "editEmailHomeEmailStatus",
      "label": "txt_edit_email_status_radio",
      "type": "DynamicGroupRadioControl",
      "dataField": "electronicMailHomeStatusIndicator",
      "radios": [
        {
          "label": "txt_y_valid",
          "value": "Y"
        },
        {
          "label": "txt_n_invalid",
          "value": "N"
        }
      ],
      "dependentValue": "electronicMailHomeAddressText",
      "setValue": "Y"
    },
    {
      "name": "editEmailHomeEmailSolicitFlag",
      "label": "txt_edit_email_solicit_flag_radio",
      "type": "DynamicGroupRadioControl",
      "dataField": "electronicMailHomeSolicitIndicator",
      "radios": [
        {
          "label": "txt_y_solicit_allowed",
          "value": "Y"
        },
        {
          "label": "txt_n_not_solicit",
          "value": "N"
        }
      ],
      "dependentValue": "electronicMailHomeAddressText",
      "setValue": "Y"
    },
    {
      "name": "editEmailWorkEmailStatus",
      "label": "txt_edit_email_status_radio",
      "type": "DynamicGroupRadioControl",
      "dataField": "electronicMailWorkStatusIndicator",
      "radios": [
        {
          "label": "txt_y_valid",
          "value": "Y"
        },
        {
          "label": "txt_n_invalid",
          "value": "N"
        }
      ],
      "dependentValue": "electronicMailWorkAddressText",
      "setValue": "Y"
    },
    {
      "name": "editEmailWorkEmailSolicitFlag",
      "label": "txt_edit_email_solicit_flag_radio",
      "type": "DynamicGroupRadioControl",
      "dataField": "electronicMailWorkSolicitIndicator",
      "radios": [
        {
          "label": "txt_y_solicit_allowed",
          "value": "Y"
        },
        {
          "label": "txt_n_not_solicit",
          "value": "N"
        }
      ],
      "dependentValue": "electronicMailWorkAddressText",
      "setValue": "Y"
    }
  ]
}
