{
  "fields": [
    {
      "name": "nextWorkDate",
      "type": "GroupTextControl",
      "label": "txt_next_work_date",
      "dataField": "nextWorkDate",
      "options": {
        "format": "date"
      }
    },
    {
      "name": "moveToQueue",
      "type": "GroupTextControl",
      "label": "txt_move_to_queue",
      "dataField": "moveToQueue"
    },
    {
      "name": "delinquencyReason",
      "type": "GroupTextControl",
      "label": "txt_delinquency_reason",
      "dataField": "delinquencyReason"
    },
    {
      "name": "nextWorkDateInput",
      "type": "DatePickerControl",
      "label": "txt_next_work_date",
      "dataField": "nextWorkDate",
      "options": {
        "format": "date",
        "isMinToday": true,
        "minDateDisabledText": "txt_next_work_date_cannot_be_past_date"
      }
    },
    {
      "name": "moveToQueueInput",
      "type": "ComboBoxControl",
      "label": "txt_move_to_queue",
      "dataField": "moveToQueue",
      "keyField": "value",
      "textField": "description"
    },
    {
      "name": "delinquencyReasonInput",
      "type": "ComboBoxControl",
      "label": "txt_delinquency_reason",
      "dataField": "delinquencyReason",
      "keyField": "value",
      "textField": "description"
    }
  ]
}