{
  "fields": [
    {
      "name": "hardship_minimumNewFixedPaymentAmount",
      "dataField": "minimumNewFixedPaymentAmount",
      "type": "NumericControl",
      "format": "c2"
    },

    {
      "name": "hardship_cycleToDatePaymentsAmount",
      "dataField": "cycleToDatePaymentsAmount",
      "type": "NumericControl",
      "format": "c2"
    },
    {
      "name": "hardship_nonDelinquentMpdAmount",
      "dataField": "nonDelinquentMpdAmount",
      "type": "NumericControl",
      "format": "c2"
    },
    {
      "name": "hardship_newFixedPaymentAmount",
      "dataField": "newFixedPaymentAmount",
      "type": "NumericControl",
      "format": "c2"
    },
    {
      "name": "hardship_from_payment_date",
      "dataField": "fromPaymentDate",
      "type": "DatePickerControl",
      "onValueChangedFunc": "hardshipFromPaymentChange",
      "props": {
        "required": true
      },
      "validationRules": [
        {
          "ruleName": "Required",
          "errorMsg": "txt_from_payment_date_required"
        }
      ]
    },
    {
      "name": "hardship_to_payment_date",
      "dataField": "toPaymentDate",
      "type": "DatePickerControl",
      "onValueChangedFunc": "hardshipToPaymentChange",
      "props": {
        "required": true
      },
      "validationRules": [
        {
          "ruleName": "Required",
          "errorMsg": "txt_to_payment_date_required"
        }
      ]
    },
    {
      "name": "hardship_reage_payment_period",
      "dataField": "reagePaymentPeriod",
      "type": "DropDownControl",
      "dependentValues": ["fromPaymentDate", "toPaymentDate"],
      "dataSourceName": "reagePaymentPeriod",
      "textField": "description",
      "props": {
        "required": true
      },
      "uniqueField": "value",
      "validationRules": [
        {
          "ruleName": "Required",
          "errorMsg": "txt_reage_payment_period_required"
        },
        {
          "ruleName": "IsEmptyValidator",
          "errorMsg": "txt_reage_payment_period_required"
        }
      ]
    }
  ]
}
