{
  "fields": [
    {
      "name": "promiseToPayAmount",
      "type": "GroupTextControl",
      "label": "txt_amount",
      "dataField": "amount",
      "options": {
        "format": "amount"
      }
    },
    {
      "name": "promiseToPayMethod",
      "type": "GroupTextControl",
      "label": "txt_method",
      "dataField": "method.description"
    },
    {
      "name": "promiseToPayPaymentDate",
      "type": "GroupTextControl",
      "label": "txt_payment_date",
      "dataField": "paymentDate",
      "options": {
        "format": "date"
      }
    },
    {
      "name": "promiseToPayStartDate",
      "type": "GroupTextControl",
      "label": "txt_start_date",
      "dataField": "startDate",
      "options": {
        "format": "date"
      }
    },
    {
      "name": "promiseToPayEndDate",
      "type": "GroupTextControl",
      "label": "txt_end_date",
      "dataField": "endDate",
      "options": {
        "format": "date"
      }
    },
    {
      "name": "promiseToPayInterval",
      "type": "GroupTextControl",
      "label": "txt_interval",
      "dataField": "interval.description"
    },
    {
      "name": "promiseToPayCount",
      "type": "GroupTextControl",
      "label": "txt_count",
      "dataField": "count"
    }
  ]
}
