[
  {
    "userId": "All",
    "userName": "All",
    "fullName": "All"
  },
  {
    "userId": "001",
    "userName": "axelRose",
    "fullName": "Axel Rose"
  },
  {
    "userId": "002",
    "userName": "bonJovie",
    "fullName": "Bon Jovie"
  },
  {
    "userId": "003",
    "userName": "curtNirvana",
    "fullName": "Curt Nirvana"
  },
  {
    "userId": "005",
    "userName": "direStraits",
    "fullName": "Dire Straits"
  },
  {
    "userId": "006",
    "userName": "davidBowie",
    "fullName": "David Bowie"
  },
  {
    "userId": "007",
    "userName": "johnLennon",
    "fullName": "John Lennon"
  },
  {
    "userId": "008",
    "userName": "justinWillis",
    "fullName": "Justin Willis"
  },
  {
    "userId": "009",
    "userName": "pinkPloy",
    "fullName": "Pink Ploy"
  },
  {
    "userId": "005",
    "userName": "taylorMomsen",
    "fullName": "Taylor Momsen"
  }
]